obtv-admin@eng-control1:~/ipam-system$ curl -i http://localhost:5000/api/devices
HTTP/1.1 200 OK
X-Powered-By: Express
Content-Type: application/json; charset=utf-8
Content-Length: 16441
ETag: W/"4039-nl8GQ2judrixfSHQJMR7Gg2PTQQ"
Date: Sat, 14 Jun 2025 07:21:03 GMT
Connection: keep-alive
Keep-Alive: timeout=5

{"data":[{"id":259,"ipAddress":"10.63.20.1","hostname":null,"macAddress":null,"vendor":null,"deviceType":null,"purpose":null,"location":null,"subnetId":9,"status":"online","lastSeen":"2025-06-14T07:16:25.047Z","openPorts":["22","80","443"],"assignmentType":"dhcp","createdAt":"2025-06-14T07:13:08.864Z","updatedAt":"2025-06-14T07:16:25.047Z"},{"id":262,"ipAddress":"10.63.20.10","hostname":null,"macAddress":null,"vendor":null,"deviceType":null,"purpose":null,"location":null,"subnetId":9,"status":"online","lastSeen":"2025-06-14T07:16:25.054Z","openPorts":["80"],"assignmentType":"dhcp","createdAt":"2025-06-14T07:13:08.873Z","updatedAt":"2025-06-14T07:16:25.054Z"},{"id":287,"ipAddress":"10.63.20.101","hostname":null,"macAddress":null,"vendor":null,"deviceType":null,"purpose":null,"location":null,"subnetId":9,"status":"online","lastSeen":"2025-06-14T07:16:25.096Z","openPorts":["22","80","443"],"assignmentType":"dhcp","createdAt":"2025-06-14T07:13:08.920Z","updatedAt":"2025-06-14T07:16:25.096Z"},{"id":288,"ipAddress":"10.63.20.102","hostname":null,"macAddress":null,"vendor":null,"deviceType":null,"purpose":null,"location":null,"subnetId":9,"status":"online","lastSeen":"2025-06-14T07:16:25.098Z","openPorts":[],"assignmentType":"dhcp","createdAt":"2025-06-14T07:13:08.922Z","updatedAt":"2025-06-14T07:16:25.098Z"},{"id":289,"ipAddress":"10.63.20.103","hostname":null,"macAddress":null,"vendor":null,"deviceType":null,"purpose":null,"location":null,"subnetId":9,"status":"online","lastSeen":"2025-06-14T07:16:25.099Z","openPorts":[],"assignmentType":"dhcp","createdAt":"2025-06-14T07:13:08.924Z","updatedAt":"2025-06-14T07:16:25.099Z"},{"id":290,"ipAddress":"10.63.20.105","hostname":null,"macAddress":null,"vendor":null,"deviceType":null,"purpose":null,"location":null,"subnetId":9,"status":"online","lastSeen":"2025-06-14T07:16:25.101Z","openPorts":["22","23","80","443"],"assignmentType":"dhcp","createdAt":"2025-06-14T07:13:08.925Z","updatedAt":"2025-06-14T07:16:25.101Z"},{"id":263,"ipAddress":"10.63.20.11","hostname":null,"macAddress":null,"vendor":null,"deviceType":null,"purpose":null,"location":null,"subnetId":9,"status":"online","lastSeen":"2025-06-14T07:16:25.055Z","openPorts":["80"],"assignmentType":"dhcp","createdAt":"2025-06-14T07:13:08.875Z","updatedAt":"2025-06-14T07:16:25.055Z"},{"id":291,"ipAddress":"10.63.20.110","hostname":null,"macAddress":null,"vendor":null,"deviceType":null,"purpose":null,"location":null,"subnetId":9,"status":"online","lastSeen":"2025-06-14T07:16:25.103Z","openPorts":["22","80","443"],"assignmentType":"dhcp","createdAt":"2025-06-14T07:13:08.927Z","updatedAt":"2025-06-14T07:16:25.103Z"},{"id":292,"ipAddress":"10.63.20.115","hostname":null,"macAddress":null,"vendor":null,"deviceType":null,"purpose":null,"location":null,"subnetId":9,"status":"online","lastSeen":"2025-06-14T07:16:25.104Z","openPorts":[],"assignmentType":"dhcp","createdAt":"2025-06-14T07:13:08.928Z","updatedAt":"2025-06-14T07:16:25.104Z"},{"id":293,"ipAddress":"10.63.20.116","hostname":null,"macAddress":null,"vendor":null,"deviceType":null,"purpose":null,"location":null,"subnetId":9,"status":"online","lastSeen":"2025-06-14T07:16:25.106Z","openPorts":[],"assignmentType":"dhcp","createdAt":"2025-06-14T07:13:08.930Z","updatedAt":"2025-06-14T07:16:25.106Z"},{"id":264,"ipAddress":"10.63.20.12","hostname":null,"macAddress":null,"vendor":null,"deviceType":null,"purpose":null,"location":null,"subnetId":9,"status":"online","lastSeen":"2025-06-14T07:16:25.057Z","openPorts":["80"],"assignmentType":"dhcp","createdAt":"2025-06-14T07:13:08.876Z","updatedAt":"2025-06-14T07:16:25.057Z"},{"id":294,"ipAddress":"10.63.20.122","hostname":null,"macAddress":null,"vendor":null,"deviceType":null,"purpose":null,"location":null,"subnetId":9,"status":"online","lastSeen":"2025-06-14T07:16:25.108Z","openPorts":[],"assignmentType":"dhcp","createdAt":"2025-06-14T07:13:08.931Z","updatedAt":"2025-06-14T07:16:25.108Z"},{"id":295,"ipAddress":"10.63.20.129","hostname":null,"macAddress":null,"vendor":null,"deviceType":null,"purpose":null,"location":null,"subnetId":9,"status":"online","lastSeen":"2025-06-14T07:16:25.109Z","openPorts":["80","443"],"assignmentType":"dhcp","createdAt":"2025-06-14T07:13:08.933Z","updatedAt":"2025-06-14T07:16:25.109Z"},{"id":296,"ipAddress":"10.63.20.130","hostname":null,"macAddress":null,"vendor":null,"deviceType":null,"purpose":null,"location":null,"subnetId":9,"status":"online","lastSeen":"2025-06-14T07:16:25.111Z","openPorts":["80","443"],"assignmentType":"dhcp","createdAt":"2025-06-14T07:13:08.935Z","updatedAt":"2025-06-14T07:16:25.111Z"},{"id":297,"ipAddress":"10.63.20.131","hostname":null,"macAddress":null,"vendor":null,"deviceType":null,"purpose":null,"location":null,"subnetId":9,"status":"online","lastSeen":"2025-06-14T07:16:25.113Z","openPorts":["22"],"assignmentType":"dhcp","createdAt":"2025-06-14T07:13:08.937Z","updatedAt":"2025-06-14T07:16:25.113Z"},{"id":265,"ipAddress":"10.63.20.14","hostname":null,"macAddress":null,"vendor":null,"deviceType":null,"purpose":null,"location":null,"subnetId":9,"status":"online","lastSeen":"2025-06-14T07:16:25.059Z","openPorts":["80"],"assignmentType":"dhcp","createdAt":"2025-06-14T07:13:08.878Z","updatedAt":"2025-06-14T07:16:25.059Z"},{"id":298,"ipAddress":"10.63.20.140","hostname":null,"macAddress":null,"vendor":null,"deviceType":null,"purpose":null,"location":null,"subnetId":9,"status":"online","lastSeen":"2025-06-14T07:16:25.115Z","openPorts":[],"assignmentType":"dhcp","createdAt":"2025-06-14T07:13:08.938Z","updatedAt":"2025-06-14T07:16:25.115Z"},{"id":299,"ipAddress":"10.63.20.141","hostname":null,"macAddress":null,"vendor":null,"deviceType":null,"purpose":null,"location":null,"subnetId":9,"status":"online","lastSeen":"2025-06-14T07:16:25.116Z","openPorts":[],"assignmentType":"dhcp","createdAt":"2025-06-14T07:13:08.940Z","updatedAt":"2025-06-14T07:16:25.116Z"},{"id":266,"ipAddress":"10.63.20.15","hostname":null,"macAddress":null,"vendor":null,"deviceType":null,"purpose":null,"location":null,"subnetId":9,"status":"online","lastSeen":"2025-06-14T07:16:25.060Z","openPorts":[],"assignmentType":"dhcp","createdAt":"2025-06-14T07:13:08.880Z","updatedAt":"2025-06-14T07:16:25.060Z"},{"id":300,"ipAddress":"10.63.20.151","hostname":null,"macAddress":null,"vendor":null,"deviceType":null,"purpose":null,"location":null,"subnetId":9,"status":"online","lastSeen":"2025-06-14T07:16:25.118Z","openPorts":["22","80","554"],"assignmentType":"dhcp","createdAt":"2025-06-14T07:13:08.942Z","updatedAt":"2025-06-14T07:16:25.118Z"},{"id":301,"ipAddress":"10.63.20.154","hostname":null,"macAddress":null,"vendor":null,"deviceType":null,"purpose":null,"location":null,"subnetId":9,"status":"online","lastSeen":"2025-06-14T07:16:25.119Z","openPorts":["22","80","554"],"assignmentType":"dhcp","createdAt":"2025-06-14T07:13:08.943Z","updatedAt":"2025-06-14T07:16:25.119Z"},{"id":302,"ipAddress":"10.63.20.156","hostname":null,"macAddress":null,"vendor":null,"deviceType":null,"purpose":null,"location":null,"subnetId":9,"status":"online","lastSeen":"2025-06-14T07:16:25.121Z","openPorts":["80"],"assignmentType":"dhcp","createdAt":"2025-06-14T07:13:08.945Z","updatedAt":"2025-06-14T07:16:25.121Z"},{"id":303,"ipAddress":"10.63.20.158","hostname":null,"macAddress":null,"vendor":null,"deviceType":null,"purpose":null,"location":null,"subnetId":9,"status":"online","lastSeen":"2025-06-14T07:16:25.123Z","openPorts":["22","80","554"],"assignmentType":"dhcp","createdAt":"2025-06-14T07:13:08.946Z","updatedAt":"2025-06-14T07:16:25.123Z"},{"id":304,"ipAddress":"10.63.20.159","hostname":null,"macAddress":null,"vendor":null,"deviceType":null,"purpose":null,"location":null,"subnetId":9,"status":"online","lastSeen":"2025-06-14T07:16:25.125Z","openPorts":["22","80","554"],"assignmentType":"dhcp","createdAt":"2025-06-14T07:13:08.948Z","updatedAt":"2025-06-14T07:16:25.125Z"},{"id":267,"ipAddress":"10.63.20.16","hostname":null,"macAddress":null,"vendor":null,"deviceType":null,"purpose":null,"location":null,"subnetId":9,"status":"online","lastSeen":"2025-06-14T07:16:25.062Z","openPorts":["22"],"assignmentType":"dhcp","createdAt":"2025-06-14T07:13:08.882Z","updatedAt":"2025-06-14T07:16:25.062Z"},{"id":305,"ipAddress":"10.63.20.160","hostname":null,"macAddress":null,"vendor":null,"deviceType":null,"purpose":null,"location":null,"subnetId":9,"status":"online","lastSeen":"2025-06-14T07:16:25.127Z","openPorts":["22","80","554"],"assignmentType":"dhcp","createdAt":"2025-06-14T07:13:08.949Z","updatedAt":"2025-06-14T07:16:25.127Z"},{"id":306,"ipAddress":"10.63.20.161","hostname":null,"macAddress":null,"vendor":null,"deviceType":null,"purpose":null,"location":null,"subnetId":9,"status":"online","lastSeen":"2025-06-14T07:16:25.128Z","openPorts":["22","80","554"],"assignmentType":"dhcp","createdAt":"2025-06-14T07:13:08.951Z","updatedAt":"2025-06-14T07:16:25.128Z"},{"id":307,"ipAddress":"10.63.20.162","hostname":null,"macAddress":null,"vendor":null,"deviceType":null,"purpose":null,"location":null,"subnetId":9,"status":"online","lastSeen":"2025-06-14T07:16:25.130Z","openPorts":["22","80","554"],"assignmentType":"dhcp","createdAt":"2025-06-14T07:13:08.953Z","updatedAt":"2025-06-14T07:16:25.130Z"},{"id":308,"ipAddress":"10.63.20.163","hostname":null,"macAddress":null,"vendor":null,"deviceType":null,"purpose":null,"location":null,"subnetId":9,"status":"online","lastSeen":"2025-06-14T07:16:25.132Z","openPorts":["22","80","554"],"assignmentType":"dhcp","createdAt":"2025-06-14T07:13:08.954Z","updatedAt":"2025-06-14T07:16:25.132Z"},{"id":309,"ipAddress":"10.63.20.164","hostname":null,"macAddress":null,"vendor":null,"deviceType":null,"purpose":null,"location":null,"subnetId":9,"status":"online","lastSeen":"2025-06-14T07:16:25.134Z","openPorts":["22","80","554"],"assignmentType":"dhcp","createdAt":"2025-06-14T07:13:08.956Z","updatedAt":"2025-06-14T07:16:25.134Z"},{"id":310,"ipAddress":"10.63.20.165","hostname":null,"macAddress":null,"vendor":null,"deviceType":null,"purpose":null,"location":null,"subnetId":9,"status":"online","lastSeen":"2025-06-14T07:16:25.135Z","openPorts":["22","80","554"],"assignmentType":"dhcp","createdAt":"2025-06-14T07:13:08.958Z","updatedAt":"2025-06-14T07:16:25.135Z"},{"id":311,"ipAddress":"10.63.20.166","hostname":null,"macAddress":null,"vendor":null,"deviceType":null,"purpose":null,"location":null,"subnetId":9,"status":"online","lastSeen":"2025-06-14T07:16:25.137Z","openPorts":["22","80","554"],"assignmentType":"dhcp","createdAt":"2025-06-14T07:13:08.960Z","updatedAt":"2025-06-14T07:16:25.137Z"},{"id":312,"ipAddress":"10.63.20.167","hostname":null,"macAddress":null,"vendor":null,"deviceType":null,"purpose":null,"location":null,"subnetId":9,"status":"online","lastSeen":"2025-06-14T07:16:25.139Z","openPorts":["22","80","554"],"assignmentType":"dhcp","createdAt":"2025-06-14T07:13:08.961Z","updatedAt":"2025-06-14T07:16:25.139Z"},{"id":313,"ipAddress":"10.63.20.168","hostname":null,"macAddress":null,"vendor":null,"deviceType":null,"purpose":null,"location":null,"subnetId":9,"status":"online","lastSeen":"2025-06-14T07:16:25.141Z","openPorts":["22","80","554"],"assignmentType":"dhcp","createdAt":"2025-06-14T07:13:08.963Z","updatedAt":"2025-06-14T07:16:25.141Z"},{"id":314,"ipAddress":"10.63.20.169","hostname":null,"macAddress":null,"vendor":null,"deviceType":null,"purpose":null,"location":null,"subnetId":9,"status":"online","lastSeen":"2025-06-14T07:16:25.142Z","openPorts":["22","80","554"],"assignmentType":"dhcp","createdAt":"2025-06-14T07:13:08.965Z","updatedAt":"2025-06-14T07:16:25.142Z"},{"id":268,"ipAddress":"10.63.20.17","hostname":null,"macAddress":null,"vendor":null,"deviceType":null,"purpose":null,"location":null,"subnetId":9,"status":"online","lastSeen":"2025-06-14T07:16:25.064Z","openPorts":[],"assignmentType":"dhcp","createdAt":"2025-06-14T07:13:08.884Z","updatedAt":"2025-06-14T07:16:25.064Z"},{"id":315,"ipAddress":"10.63.20.170","hostname":null,"macAddress":null,"vendor":null,"deviceType":null,"purpose":null,"location":null,"subnetId":9,"status":"online","lastSeen":"2025-06-14T07:16:25.146Z","openPorts":[],"assignmentType":"dhcp","createdAt":"2025-06-14T07:13:08.966Z","updatedAt":"2025-06-14T07:16:25.146Z"},{"id":316,"ipAddress":"10.63.20.171","hostname":null,"macAddress":null,"vendor":null,"deviceType":null,"purpose":null,"location":null,"subnetId":9,"status":"online","lastSeen":"2025-06-14T07:16:25.147Z","openPorts":[],"assignmentType":"dhcp","createdAt":"2025-06-14T07:13:08.968Z","updatedAt":"2025-06-14T07:16:25.147Z"},{"id":317,"ipAddress":"10.63.20.172","hostname":null,"macAddress":null,"vendor":null,"deviceType":null,"purpose":null,"location":null,"subnetId":9,"status":"online","lastSeen":"2025-06-14T07:16:25.149Z","openPorts":[],"assignmentType":"dhcp","createdAt":"2025-06-14T07:13:08.970Z","updatedAt":"2025-06-14T07:16:25.149Z"},{"id":318,"ipAddress":"10.63.20.173","hostname":null,"macAddress":null,"vendor":null,"deviceType":null,"purpose":null,"location":null,"subnetId":9,"status":"online","lastSeen":"2025-06-14T07:16:25.150Z","openPorts":[],"assignmentType":"dhcp","createdAt":"2025-06-14T07:13:08.971Z","updatedAt":"2025-06-14T07:16:25.150Z"},{"id":319,"ipAddress":"10.63.20.174","hostname":null,"macAddress":null,"vendor":null,"deviceType":null,"purpose":null,"location":null,"subnetId":9,"status":"online","lastSeen":"2025-06-14T07:16:25.152Z","openPorts":[],"assignmentType":"dhcp","createdAt":"2025-06-14T07:13:08.973Z","updatedAt":"2025-06-14T07:16:25.152Z"},{"id":320,"ipAddress":"10.63.20.175","hostname":null,"macAddress":null,"vendor":null,"deviceType":null,"purpose":null,"location":null,"subnetId":9,"status":"online","lastSeen":"2025-06-14T07:16:25.153Z","openPorts":[],"assignmentType":"dhcp","createdAt":"2025-06-14T07:13:08.975Z","updatedAt":"2025-06-14T07:16:25.153Z"},{"id":321,"ipAddress":"10.63.20.176","hostname":null,"macAddress":null,"vendor":null,"deviceType":null,"purpose":null,"location":null,"subnetId":9,"status":"online","lastSeen":"2025-06-14T07:16:25.155Z","openPorts":[],"assignmentType":"dhcp","createdAt":"2025-06-14T07:13:08.976Z","updatedAt":"2025-06-14T07:16:25.155Z"},{"id":322,"ipAddress":"10.63.20.177","hostname":null,"macAddress":null,"vendor":null,"deviceType":null,"purpose":null,"location":null,"subnetId":9,"status":"online","lastSeen":"2025-06-14T07:16:25.157Z","openPorts":[],"assignmentType":"dhcp","createdAt":"2025-06-14T07:13:08.978Z","updatedAt":"2025-06-14T07:16:25.157Z"},{"id":323,"ipAddress":"10.63.20.178","hostname":null,"macAddress":null,"vendor":null,"deviceType":null,"purpose":null,"location":null,"subnetId":9,"status":"online","lastSeen":"2025-06-14T07:16:25.158Z","openPorts":[],"assignmentType":"dhcp","createdAt":"2025-06-14T07:13:08.979Z","updatedAt":"2025-06-14T07:16:25.158Z"},{"id":324,"ipAddress":"10.63.20.179","hostname":null,"macAddress":null,"vendor":null,"deviceType":null,"purpose":null,"location":null,"subnetId":9,"status":"online","lastSeen":"2025-06-14T07:16:25.160Z","openPorts":[],"assignmentType":"dhcp","createdAt":"2025-06-14T07:13:08.981Z","updatedAt":"2025-06-14T07:16:25.160Z"},{"id":269,"ipAddress":"10.63.20.18","hostname":null,"macAddress":null,"vendor":null,"deviceType":null,"purpose":null,"location":null,"subnetId":9,"status":"online","lastSeen":"2025-06-14T07:16:25.066Z","openPorts":["22"],"assignmentType":"dhcp","createdAt":"2025-06-14T07:13:08.886Z","updatedAt":"2025-06-14T07:16:25.066Z"},{"id":325,"ipAddress":"10.63.20.180","hostname":null,"macAddress":null,"vendor":null,"deviceType":null,"purpose":null,"location":null,"subnetId":9,"status":"online","lastSeen":"2025-06-14T07:16:25.161Z","openPorts":[],"assignmentType":"dhcp","createdAt":"2025-06-14T07:13:08.982Z","updatedAt":"2025-06-14T07:16:25.161Z"},{"id":326,"ipAddress":"10.63.20.181","hostname":null,"macAddress":null,"vendor":null,"deviceType":null,"purpose":null,"location":null,"subnetId":9,"status":"online","lastSeen":"2025-06-14T07:16:25.163Z","openPorts":[],"assignmentType":"dhcp","createdAt":"2025-06-14T07:13:08.984Z","updatedAt":"2025-06-14T07:16:25.163Z"},{"id":327,"ipAddress":"10.63.20.182","hostname":null,"macAddress":null,"vendor":null,"deviceType":null,"purpose":null,"location":null,"subnetId":9,"status":"online","lastSeen":"2025-06-14T07:16:25.164Z","openPorts":["22","80","554"],"assignmentType":"dhcp","createdAt":"2025-06-14T07:13:08.986Z","updatedAt":"2025-06-14T07:16:25.164Z"}],"total":"236","page":1,"limit":50,"totalPages":5}obtv-admin@eng-control1:~/ipam-system$