obtv-admin@eng-control1:~/ipam-system$ curl -s "http://localhost:5000/api/devices?limit=200" | grep -o '"subnetId":[0-9]*' | sort | uniq -c
     92 "subnetId":16
     31 "subnetId":17
obtv-admin@eng-control1:~/ipam-system$ curl -i http://localhost:5000/api/devices
HTTP/1.1 200 OK
X-Powered-By: Express
Content-Type: application/json; charset=utf-8
Content-Length: 16491
ETag: W/"406b-maGDH8/hVJ50iwiXX0pBWpjEhv8"
Date: Sat, 14 Jun 2025 08:31:44 GMT
Connection: keep-alive
Keep-Alive: timeout=5

{"data":[{"id":700,"ipAddress":"10.63.20.1","hostname":null,"macAddress":null,"vendor":null,"deviceType":null,"purpose":null,"location":null,"subnetId":16,"status":"online","lastSeen":"2025-06-14T08:30:50.241Z","openPorts":["22","80","443"],"assignmentType":"dhcp","createdAt":"2025-06-14T07:57:36.532Z","updatedAt":"2025-06-14T08:30:50.241Z"},{"id":703,"ipAddress":"10.63.20.10","hostname":null,"macAddress":null,"vendor":null,"deviceType":null,"purpose":null,"location":null,"subnetId":16,"status":"online","lastSeen":"2025-06-14T08:30:50.253Z","openPorts":["80"],"assignmentType":"dhcp","createdAt":"2025-06-14T07:57:36.542Z","updatedAt":"2025-06-14T08:30:50.253Z"},{"id":728,"ipAddress":"10.63.20.101","hostname":null,"macAddress":null,"vendor":null,"deviceType":null,"purpose":null,"location":null,"subnetId":16,"status":"online","lastSeen":"2025-06-14T08:30:50.329Z","openPorts":["22","80","443"],"assignmentType":"dhcp","createdAt":"2025-06-14T07:57:36.601Z","updatedAt":"2025-06-14T08:30:50.329Z"},{"id":729,"ipAddress":"10.63.20.102","hostname":null,"macAddress":null,"vendor":null,"deviceType":null,"purpose":null,"location":null,"subnetId":16,"status":"online","lastSeen":"2025-06-14T08:30:50.332Z","openPorts":[],"assignmentType":"dhcp","createdAt":"2025-06-14T07:57:36.603Z","updatedAt":"2025-06-14T08:30:50.332Z"},{"id":730,"ipAddress":"10.63.20.103","hostname":null,"macAddress":null,"vendor":null,"deviceType":null,"purpose":null,"location":null,"subnetId":16,"status":"online","lastSeen":"2025-06-14T08:30:50.335Z","openPorts":[],"assignmentType":"dhcp","createdAt":"2025-06-14T07:57:36.605Z","updatedAt":"2025-06-14T08:30:50.335Z"},{"id":731,"ipAddress":"10.63.20.105","hostname":null,"macAddress":null,"vendor":null,"deviceType":null,"purpose":null,"location":null,"subnetId":16,"status":"online","lastSeen":"2025-06-14T08:30:50.338Z","openPorts":["22","23","80","443"],"assignmentType":"dhcp","createdAt":"2025-06-14T07:57:36.607Z","updatedAt":"2025-06-14T08:30:50.338Z"},{"id":704,"ipAddress":"10.63.20.11","hostname":null,"macAddress":null,"vendor":null,"deviceType":null,"purpose":null,"location":null,"subnetId":16,"status":"online","lastSeen":"2025-06-14T08:30:50.256Z","openPorts":["80"],"assignmentType":"dhcp","createdAt":"2025-06-14T07:57:36.545Z","updatedAt":"2025-06-14T08:30:50.256Z"},{"id":732,"ipAddress":"10.63.20.110","hostname":null,"macAddress":null,"vendor":null,"deviceType":null,"purpose":null,"location":null,"subnetId":16,"status":"online","lastSeen":"2025-06-14T08:30:50.341Z","openPorts":["22","80","443"],"assignmentType":"dhcp","createdAt":"2025-06-14T07:57:36.609Z","updatedAt":"2025-06-14T08:30:50.341Z"},{"id":733,"ipAddress":"10.63.20.115","hostname":null,"macAddress":null,"vendor":null,"deviceType":null,"purpose":null,"location":null,"subnetId":16,"status":"online","lastSeen":"2025-06-14T08:30:50.344Z","openPorts":[],"assignmentType":"dhcp","createdAt":"2025-06-14T07:57:36.610Z","updatedAt":"2025-06-14T08:30:50.344Z"},{"id":734,"ipAddress":"10.63.20.116","hostname":null,"macAddress":null,"vendor":null,"deviceType":null,"purpose":null,"location":null,"subnetId":16,"status":"online","lastSeen":"2025-06-14T08:30:50.347Z","openPorts":[],"assignmentType":"dhcp","createdAt":"2025-06-14T07:57:36.613Z","updatedAt":"2025-06-14T08:30:50.347Z"},{"id":705,"ipAddress":"10.63.20.12","hostname":null,"macAddress":null,"vendor":null,"deviceType":null,"purpose":null,"location":null,"subnetId":16,"status":"online","lastSeen":"2025-06-14T08:30:50.260Z","openPorts":["80"],"assignmentType":"dhcp","createdAt":"2025-06-14T07:57:36.547Z","updatedAt":"2025-06-14T08:30:50.260Z"},{"id":735,"ipAddress":"10.63.20.122","hostname":null,"macAddress":null,"vendor":null,"deviceType":null,"purpose":null,"location":null,"subnetId":16,"status":"online","lastSeen":"2025-06-14T08:30:50.351Z","openPorts":[],"assignmentType":"dhcp","createdAt":"2025-06-14T07:57:36.614Z","updatedAt":"2025-06-14T08:30:50.351Z"},{"id":736,"ipAddress":"10.63.20.129","hostname":null,"macAddress":null,"vendor":null,"deviceType":null,"purpose":null,"location":null,"subnetId":16,"status":"online","lastSeen":"2025-06-14T08:30:50.354Z","openPorts":["80","443"],"assignmentType":"dhcp","createdAt":"2025-06-14T07:57:36.617Z","updatedAt":"2025-06-14T08:30:50.354Z"},{"id":737,"ipAddress":"10.63.20.130","hostname":null,"macAddress":null,"vendor":null,"deviceType":null,"purpose":null,"location":null,"subnetId":16,"status":"online","lastSeen":"2025-06-14T08:30:50.357Z","openPorts":["80","443"],"assignmentType":"dhcp","createdAt":"2025-06-14T07:57:36.619Z","updatedAt":"2025-06-14T08:30:50.357Z"},{"id":738,"ipAddress":"10.63.20.131","hostname":null,"macAddress":null,"vendor":null,"deviceType":null,"purpose":null,"location":null,"subnetId":16,"status":"online","lastSeen":"2025-06-14T08:30:50.360Z","openPorts":["22"],"assignmentType":"dhcp","createdAt":"2025-06-14T07:57:36.621Z","updatedAt":"2025-06-14T08:30:50.360Z"},{"id":706,"ipAddress":"10.63.20.14","hostname":null,"macAddress":null,"vendor":null,"deviceType":null,"purpose":null,"location":null,"subnetId":16,"status":"online","lastSeen":"2025-06-14T08:30:50.263Z","openPorts":["80"],"assignmentType":"dhcp","createdAt":"2025-06-14T07:57:36.550Z","updatedAt":"2025-06-14T08:30:50.263Z"},{"id":739,"ipAddress":"10.63.20.140","hostname":null,"macAddress":null,"vendor":null,"deviceType":null,"purpose":null,"location":null,"subnetId":16,"status":"online","lastSeen":"2025-06-14T08:30:50.362Z","openPorts":[],"assignmentType":"dhcp","createdAt":"2025-06-14T07:57:36.624Z","updatedAt":"2025-06-14T08:30:50.362Z"},{"id":740,"ipAddress":"10.63.20.141","hostname":null,"macAddress":null,"vendor":null,"deviceType":null,"purpose":null,"location":null,"subnetId":16,"status":"online","lastSeen":"2025-06-14T08:30:50.365Z","openPorts":[],"assignmentType":"dhcp","createdAt":"2025-06-14T07:57:36.626Z","updatedAt":"2025-06-14T08:30:50.365Z"},{"id":707,"ipAddress":"10.63.20.15","hostname":null,"macAddress":null,"vendor":null,"deviceType":null,"purpose":null,"location":null,"subnetId":16,"status":"online","lastSeen":"2025-06-14T08:30:50.267Z","openPorts":[],"assignmentType":"dhcp","createdAt":"2025-06-14T07:57:36.552Z","updatedAt":"2025-06-14T08:30:50.267Z"},{"id":741,"ipAddress":"10.63.20.151","hostname":null,"macAddress":null,"vendor":null,"deviceType":null,"purpose":null,"location":null,"subnetId":16,"status":"online","lastSeen":"2025-06-14T08:30:50.368Z","openPorts":["22","80","554"],"assignmentType":"dhcp","createdAt":"2025-06-14T07:57:36.628Z","updatedAt":"2025-06-14T08:30:50.368Z"},{"id":742,"ipAddress":"10.63.20.154","hostname":null,"macAddress":null,"vendor":null,"deviceType":null,"purpose":null,"location":null,"subnetId":16,"status":"online","lastSeen":"2025-06-14T08:30:50.373Z","openPorts":["22","80","554"],"assignmentType":"dhcp","createdAt":"2025-06-14T07:57:36.631Z","updatedAt":"2025-06-14T08:30:50.373Z"},{"id":743,"ipAddress":"10.63.20.156","hostname":null,"macAddress":null,"vendor":null,"deviceType":null,"purpose":null,"location":null,"subnetId":16,"status":"online","lastSeen":"2025-06-14T08:30:50.377Z","openPorts":["80"],"assignmentType":"dhcp","createdAt":"2025-06-14T07:57:36.633Z","updatedAt":"2025-06-14T08:30:50.377Z"},{"id":744,"ipAddress":"10.63.20.158","hostname":null,"macAddress":null,"vendor":null,"deviceType":null,"purpose":null,"location":null,"subnetId":16,"status":"online","lastSeen":"2025-06-14T08:30:50.381Z","openPorts":["22","80","554"],"assignmentType":"dhcp","createdAt":"2025-06-14T07:57:36.635Z","updatedAt":"2025-06-14T08:30:50.381Z"},{"id":745,"ipAddress":"10.63.20.159","hostname":null,"macAddress":null,"vendor":null,"deviceType":null,"purpose":null,"location":null,"subnetId":16,"status":"online","lastSeen":"2025-06-14T08:30:50.385Z","openPorts":["22","80","554"],"assignmentType":"dhcp","createdAt":"2025-06-14T07:57:36.638Z","updatedAt":"2025-06-14T08:30:50.385Z"},{"id":708,"ipAddress":"10.63.20.16","hostname":null,"macAddress":null,"vendor":null,"deviceType":null,"purpose":null,"location":null,"subnetId":16,"status":"online","lastSeen":"2025-06-14T08:30:50.270Z","openPorts":["22"],"assignmentType":"dhcp","createdAt":"2025-06-14T07:57:36.554Z","updatedAt":"2025-06-14T08:30:50.270Z"},{"id":746,"ipAddress":"10.63.20.160","hostname":null,"macAddress":null,"vendor":null,"deviceType":null,"purpose":null,"location":null,"subnetId":16,"status":"online","lastSeen":"2025-06-14T08:30:50.388Z","openPorts":["22","80","554"],"assignmentType":"dhcp","createdAt":"2025-06-14T07:57:36.640Z","updatedAt":"2025-06-14T08:30:50.388Z"},{"id":747,"ipAddress":"10.63.20.161","hostname":null,"macAddress":null,"vendor":null,"deviceType":null,"purpose":null,"location":null,"subnetId":16,"status":"online","lastSeen":"2025-06-14T08:30:50.393Z","openPorts":["22","80","554"],"assignmentType":"dhcp","createdAt":"2025-06-14T07:57:36.642Z","updatedAt":"2025-06-14T08:30:50.393Z"},{"id":748,"ipAddress":"10.63.20.162","hostname":null,"macAddress":null,"vendor":null,"deviceType":null,"purpose":null,"location":null,"subnetId":16,"status":"online","lastSeen":"2025-06-14T08:30:50.397Z","openPorts":["22","80","554"],"assignmentType":"dhcp","createdAt":"2025-06-14T07:57:36.645Z","updatedAt":"2025-06-14T08:30:50.397Z"},{"id":749,"ipAddress":"10.63.20.163","hostname":null,"macAddress":null,"vendor":null,"deviceType":null,"purpose":null,"location":null,"subnetId":16,"status":"online","lastSeen":"2025-06-14T08:30:50.408Z","openPorts":["22","80","554"],"assignmentType":"dhcp","createdAt":"2025-06-14T07:57:36.650Z","updatedAt":"2025-06-14T08:30:50.408Z"},{"id":750,"ipAddress":"10.63.20.164","hostname":null,"macAddress":null,"vendor":null,"deviceType":null,"purpose":null,"location":null,"subnetId":16,"status":"online","lastSeen":"2025-06-14T08:30:50.411Z","openPorts":["22","80","554"],"assignmentType":"dhcp","createdAt":"2025-06-14T07:57:36.652Z","updatedAt":"2025-06-14T08:30:50.411Z"},{"id":751,"ipAddress":"10.63.20.165","hostname":null,"macAddress":null,"vendor":null,"deviceType":null,"purpose":null,"location":null,"subnetId":16,"status":"online","lastSeen":"2025-06-14T08:30:50.414Z","openPorts":["22","80","554"],"assignmentType":"dhcp","createdAt":"2025-06-14T07:57:36.654Z","updatedAt":"2025-06-14T08:30:50.414Z"},{"id":752,"ipAddress":"10.63.20.166","hostname":null,"macAddress":null,"vendor":null,"deviceType":null,"purpose":null,"location":null,"subnetId":16,"status":"online","lastSeen":"2025-06-14T08:30:50.418Z","openPorts":["22","80","554"],"assignmentType":"dhcp","createdAt":"2025-06-14T07:57:36.656Z","updatedAt":"2025-06-14T08:30:50.418Z"},{"id":753,"ipAddress":"10.63.20.167","hostname":null,"macAddress":null,"vendor":null,"deviceType":null,"purpose":null,"location":null,"subnetId":16,"status":"online","lastSeen":"2025-06-14T08:30:50.421Z","openPorts":["22","80","554"],"assignmentType":"dhcp","createdAt":"2025-06-14T07:57:36.658Z","updatedAt":"2025-06-14T08:30:50.421Z"},{"id":754,"ipAddress":"10.63.20.168","hostname":null,"macAddress":null,"vendor":null,"deviceType":null,"purpose":null,"location":null,"subnetId":16,"status":"online","lastSeen":"2025-06-14T08:30:50.424Z","openPorts":["22","80","554"],"assignmentType":"dhcp","createdAt":"2025-06-14T07:57:36.660Z","updatedAt":"2025-06-14T08:30:50.424Z"},{"id":755,"ipAddress":"10.63.20.169","hostname":null,"macAddress":null,"vendor":null,"deviceType":null,"purpose":null,"location":null,"subnetId":16,"status":"online","lastSeen":"2025-06-14T08:30:50.427Z","openPorts":["22","80","554"],"assignmentType":"dhcp","createdAt":"2025-06-14T07:57:36.662Z","updatedAt":"2025-06-14T08:30:50.427Z"},{"id":709,"ipAddress":"10.63.20.17","hostname":null,"macAddress":null,"vendor":null,"deviceType":null,"purpose":null,"location":null,"subnetId":16,"status":"online","lastSeen":"2025-06-14T08:30:50.273Z","openPorts":[],"assignmentType":"dhcp","createdAt":"2025-06-14T07:57:36.558Z","updatedAt":"2025-06-14T08:30:50.273Z"},{"id":756,"ipAddress":"10.63.20.170","hostname":null,"macAddress":null,"vendor":null,"deviceType":null,"purpose":null,"location":null,"subnetId":16,"status":"online","lastSeen":"2025-06-14T08:30:50.429Z","openPorts":[],"assignmentType":"dhcp","createdAt":"2025-06-14T07:57:36.664Z","updatedAt":"2025-06-14T08:30:50.429Z"},{"id":757,"ipAddress":"10.63.20.171","hostname":null,"macAddress":null,"vendor":null,"deviceType":null,"purpose":null,"location":null,"subnetId":16,"status":"online","lastSeen":"2025-06-14T08:30:50.432Z","openPorts":[],"assignmentType":"dhcp","createdAt":"2025-06-14T07:57:36.665Z","updatedAt":"2025-06-14T08:30:50.432Z"},{"id":758,"ipAddress":"10.63.20.172","hostname":null,"macAddress":null,"vendor":null,"deviceType":null,"purpose":null,"location":null,"subnetId":16,"status":"online","lastSeen":"2025-06-14T08:30:50.435Z","openPorts":[],"assignmentType":"dhcp","createdAt":"2025-06-14T07:57:36.668Z","updatedAt":"2025-06-14T08:30:50.435Z"},{"id":759,"ipAddress":"10.63.20.173","hostname":null,"macAddress":null,"vendor":null,"deviceType":null,"purpose":null,"location":null,"subnetId":16,"status":"online","lastSeen":"2025-06-14T08:30:50.437Z","openPorts":[],"assignmentType":"dhcp","createdAt":"2025-06-14T07:57:36.670Z","updatedAt":"2025-06-14T08:30:50.437Z"},{"id":760,"ipAddress":"10.63.20.174","hostname":null,"macAddress":null,"vendor":null,"deviceType":null,"purpose":null,"location":null,"subnetId":16,"status":"online","lastSeen":"2025-06-14T08:30:50.440Z","openPorts":[],"assignmentType":"dhcp","createdAt":"2025-06-14T07:57:36.672Z","updatedAt":"2025-06-14T08:30:50.440Z"},{"id":761,"ipAddress":"10.63.20.175","hostname":null,"macAddress":null,"vendor":null,"deviceType":null,"purpose":null,"location":null,"subnetId":16,"status":"online","lastSeen":"2025-06-14T08:30:50.443Z","openPorts":[],"assignmentType":"dhcp","createdAt":"2025-06-14T07:57:36.674Z","updatedAt":"2025-06-14T08:30:50.443Z"},{"id":762,"ipAddress":"10.63.20.176","hostname":null,"macAddress":null,"vendor":null,"deviceType":null,"purpose":null,"location":null,"subnetId":16,"status":"online","lastSeen":"2025-06-14T08:30:50.446Z","openPorts":[],"assignmentType":"dhcp","createdAt":"2025-06-14T07:57:36.676Z","updatedAt":"2025-06-14T08:30:50.446Z"},{"id":763,"ipAddress":"10.63.20.177","hostname":null,"macAddress":null,"vendor":null,"deviceType":null,"purpose":null,"location":null,"subnetId":16,"status":"online","lastSeen":"2025-06-14T08:30:50.449Z","openPorts":[],"assignmentType":"dhcp","createdAt":"2025-06-14T07:57:36.678Z","updatedAt":"2025-06-14T08:30:50.449Z"},{"id":764,"ipAddress":"10.63.20.178","hostname":null,"macAddress":null,"vendor":null,"deviceType":null,"purpose":null,"location":null,"subnetId":16,"status":"online","lastSeen":"2025-06-14T08:30:50.451Z","openPorts":[],"assignmentType":"dhcp","createdAt":"2025-06-14T07:57:36.679Z","updatedAt":"2025-06-14T08:30:50.451Z"},{"id":765,"ipAddress":"10.63.20.179","hostname":null,"macAddress":null,"vendor":null,"deviceType":null,"purpose":null,"location":null,"subnetId":16,"status":"online","lastSeen":"2025-06-14T08:30:50.456Z","openPorts":[],"assignmentType":"dhcp","createdAt":"2025-06-14T07:57:36.681Z","updatedAt":"2025-06-14T08:30:50.456Z"},{"id":710,"ipAddress":"10.63.20.18","hostname":null,"macAddress":null,"vendor":null,"deviceType":null,"purpose":null,"location":null,"subnetId":16,"status":"online","lastSeen":"2025-06-14T08:30:50.277Z","openPorts":["22"],"assignmentType":"dhcp","createdAt":"2025-06-14T07:57:36.561Z","updatedAt":"2025-06-14T08:30:50.277Z"},{"id":766,"ipAddress":"10.63.20.180","hostname":null,"macAddress":null,"vendor":null,"deviceType":null,"purpose":null,"location":null,"subnetId":16,"status":"online","lastSeen":"2025-06-14T08:30:50.460Z","openPorts":[],"assignmentType":"dhcp","createdAt":"2025-06-14T07:57:36.683Z","updatedAt":"2025-06-14T08:30:50.460Z"},{"id":767,"ipAddress":"10.63.20.181","hostname":null,"macAddress":null,"vendor":null,"deviceType":null,"purpose":null,"location":null,"subnetId":16,"status":"online","lastSeen":"2025-06-14T08:30:50.463Z","openPorts":[],"assignmentType":"dhcp","createdAt":"2025-06-14T07:57:36.685Z","updatedAt":"2025-06-14T08:30:50.463Z"},{"id":768,"ipAddress":"10.63.20.182","hostname":null,"macAddress":null,"vendor":null,"deviceType":null,"purpose":null,"location":null,"subnetId":16,"status":"online","lastSeen":"2025-06-14T08:30:50.466Z","openPorts":["22","80","554"],"assignmentType":"dhcp","createdAt":"2025-06-14T07:57:36.687Z","updatedAt":"2025-06-14T08:30:50.466Z"}],"total":"123","page":1,"limit":50,"totalPages":3}obtv-admin@eng-control1:~/ipam-system$