obtv-admin@eng-control1:~$ curl -s http://localhost:5000/api/devices
{"data":[{"id":1,"ipAddress":"10.63.21.10","hostname":"gs724tpp.trinity.local","macAddress":null,"vendor":null,"deviceType":null,"purpose":null,"location":null,"subnetId":1,"status":"online","lastSeen":"2025-06-16T19:34:28.011Z","openPorts":["80"],"assignmentType":"static","createdAt":"2025-06-16T19:08:43.692Z","updatedAt":"2025-06-16T19:34:28.011Z"},{"id":2,"ipAddress":"10.63.21.11","hostname":null,"macAddress":null,"vendor":null,"deviceType":null,"purpose":null,"location":null,"subnetId":1,"status":"online","lastSeen":"2025-06-16T19:34:28.014Z","openPorts":["80"],"assignmentType":"static","createdAt":"2025-06-16T19:08:43.701Z","updatedAt":"2025-06-16T19:34:28.014Z"},{"id":3,"ipAddress":"10.63.21.12","hostname":null,"macAddress":null,"vendor":null,"deviceType":null,"purpose":null,"location":null,"subnetId":1,"status":"online","lastSeen":"2025-06-16T19:34:28.015Z","openPorts":["80"],"assignmentType":"static","createdAt":"2025-06-16T19:08:43.704Z","updatedAt":"2025-06-16T19:34:28.015Z"},{"id":4,"ipAddress":"10.63.21.13","hostname":"rokud1.trinity.local","macAddress":null,"vendor":null,"deviceType":null,"purpose":null,"location":null,"subnetId":1,"status":"online","lastSeen":"2025-06-16T19:34:28.017Z","openPorts":[],"assignmentType":"static","createdAt":"2025-06-16T19:08:43.707Z","updatedAt":"2025-06-16T19:34:28.017Z"},{"id":5,"ipAddress":"10.63.21.14","hostname":"obtv-obs1.trinity.local","macAddress":null,"vendor":null,"deviceType":null,"purpose":null,"location":null,"subnetId":1,"status":"online","lastSeen":"2025-06-16T19:34:28.018Z","openPorts":["22"],"assignmentType":"static","createdAt":"2025-06-16T19:08:43.709Z","updatedAt":"2025-06-16T19:34:28.018Z"},{"id":28,"ipAddress":"10.63.21.149","hostname":null,"macAddress":null,"vendor":null,"deviceType":null,"purpose":null,"location":null,"subnetId":1,"status":"online","lastSeen":"2025-06-16T19:34:28.053Z","openPorts":["80"],"assignmentType":"static","createdAt":"2025-06-16T19:08:43.755Z","updatedAt":"2025-06-16T19:34:28.053Z"},{"id":6,"ipAddress":"10.63.21.15","hostname":"tinypilot6.trinity.local","macAddress":null,"vendor":null,"deviceType":null,"purpose":null,"location":null,"subnetId":1,"status":"online","lastSeen":"2025-06-16T19:34:28.020Z","openPorts":["22","80"],"assignmentType":"static","createdAt":"2025-06-16T19:08:43.712Z","updatedAt":"2025-06-16T19:34:28.020Z"},{"id":29,"ipAddress":"10.63.21.150","hostname":null,"macAddress":null,"vendor":null,"deviceType":null,"purpose":null,"location":null,"subnetId":1,"status":"online","lastSeen":"2025-06-16T19:34:28.055Z","openPorts":["80"],"assignmentType":"static","createdAt":"2025-06-16T19:08:43.757Z","updatedAt":"2025-06-16T19:34:28.055Z"},{"id":30,"ipAddress":"10.63.21.151","hostname":null,"macAddress":null,"vendor":null,"deviceType":null,"purpose":null,"location":null,"subnetId":1,"status":"online","lastSeen":"2025-06-16T19:34:28.057Z","openPorts":["80"],"assignmentType":"static","createdAt":"2025-06-16T19:08:43.759Z","updatedAt":"2025-06-16T19:34:28.057Z"},{"id":7,"ipAddress":"10.63.21.16","hostname":"gs305ep.trinity.local","macAddress":null,"vendor":null,"deviceType":null,"purpose":null,"location":null,"subnetId":1,"status":"online","lastSeen":"2025-06-16T19:34:28.021Z","openPorts":["80"],"assignmentType":"static","createdAt":"2025-06-16T19:08:43.714Z","updatedAt":"2025-06-16T19:34:28.021Z"},{"id":8,"ipAddress":"10.63.21.20","hostname":"mnu-1a50b0.trinity.local","macAddress":null,"vendor":null,"deviceType":null,"purpose":null,"location":null,"subnetId":1,"status":"online","lastSeen":"2025-06-16T19:34:28.023Z","openPorts":["23","80","443"],"assignmentType":"static","createdAt":"2025-06-16T19:08:43.716Z","updatedAt":"2025-06-16T19:34:28.023Z"},{"id":9,"ipAddress":"10.63.21.21","hostname":"tinypilot.trinity.local","macAddress":null,"vendor":null,"deviceType":null,"purpose":null,"location":null,"subnetId":1,"status":"online","lastSeen":"2025-06-16T19:34:28.024Z","openPorts":["80","443"],"assignmentType":"static","createdAt":"2025-06-16T19:08:43.718Z","updatedAt":"2025-06-16T19:34:28.024Z"},{"id":10,"ipAddress":"10.63.21.22","hostname":"polycom64167f1f351f.trinity.local","macAddress":null,"vendor":null,"deviceType":null,"purpose":null,"location":null,"subnetId":1,"status":"online","lastSeen":"2025-06-16T19:34:28.026Z","openPorts":["443"],"assignmentType":"static","createdAt":"2025-06-16T19:08:43.720Z","updatedAt":"2025-06-16T19:34:28.026Z"},{"id":11,"ipAddress":"10.63.21.23","hostname":"rokud2.trinity.local","macAddress":null,"vendor":null,"deviceType":null,"purpose":null,"location":null,"subnetId":1,"status":"online","lastSeen":"2025-06-16T19:34:28.028Z","openPorts":[],"assignmentType":"static","createdAt":"2025-06-16T19:08:43.722Z","updatedAt":"2025-06-16T19:34:28.028Z"},{"id":12,"ipAddress":"10.63.21.24","hostname":null,"macAddress":null,"vendor":null,"deviceType":null,"purpose":null,"location":null,"subnetId":1,"status":"online","lastSeen":"2025-06-16T19:34:28.029Z","openPorts":["80"],"assignmentType":"static","createdAt":"2025-06-16T19:08:43.725Z","updatedAt":"2025-06-16T19:34:28.029Z"},{"id":13,"ipAddress":"10.63.21.25","hostname":"polycom64167f1f352d.trinity.local","macAddress":null,"vendor":null,"deviceType":null,"purpose":null,"location":null,"subnetId":1,"status":"online","lastSeen":"2025-06-16T19:34:28.031Z","openPorts":["443"],"assignmentType":"static","createdAt":"2025-06-16T19:08:43.727Z","updatedAt":"2025-06-16T19:34:28.031Z"},{"id":14,"ipAddress":"10.63.21.26","hostname":"encoder41906.trinity.local","macAddress":null,"vendor":null,"deviceType":null,"purpose":null,"location":null,"subnetId":1,"status":"online","lastSeen":"2025-06-16T19:34:28.032Z","openPorts":["23","80"],"assignmentType":"static","createdAt":"2025-06-16T19:08:43.730Z","updatedAt":"2025-06-16T19:34:28.032Z"},{"id":15,"ipAddress":"10.63.21.28","hostname":"encoder41906.trinity.local","macAddress":null,"vendor":null,"deviceType":null,"purpose":null,"location":null,"subnetId":1,"status":"online","lastSeen":"2025-06-16T19:34:28.034Z","openPorts":["23","80"],"assignmentType":"static","createdAt":"2025-06-16T19:08:43.732Z","updatedAt":"2025-06-16T19:34:28.034Z"},{"id":16,"ipAddress":"10.63.21.29","hostname":"obtv-uhdsvr2.trinity.local","macAddress":null,"vendor":null,"deviceType":null,"purpose":null,"location":null,"subnetId":1,"status":"online","lastSeen":"2025-06-16T19:34:28.035Z","openPorts":[],"assignmentType":"static","createdAt":"2025-06-16T19:08:43.734Z","updatedAt":"2025-06-16T19:34:28.035Z"},{"id":17,"ipAddress":"10.63.21.30","hostname":"hfe-lan-004.trinity.local","macAddress":null,"vendor":null,"deviceType":null,"purpose":null,"location":null,"subnetId":1,"status":"online","lastSeen":"2025-06-16T19:34:28.037Z","openPorts":["23","80"],"assignmentType":"static","createdAt":"2025-06-16T19:08:43.736Z","updatedAt":"2025-06-16T19:34:28.037Z"},{"id":18,"ipAddress":"10.63.21.33","hostname":"eng-util20.trinity.local","macAddress":null,"vendor":null,"deviceType":null,"purpose":null,"location":null,"subnetId":1,"status":"online","lastSeen":"2025-06-16T19:34:28.038Z","openPorts":["135","139","445"],"assignmentType":"static","createdAt":"2025-06-16T19:08:43.738Z","updatedAt":"2025-06-16T19:34:28.038Z"},{"id":19,"ipAddress":"10.63.21.34","hostname":"plex-gfx-11.meritstreet.local","macAddress":null,"vendor":null,"deviceType":null,"purpose":null,"location":null,"subnetId":1,"status":"online","lastSeen":"2025-06-16T19:34:28.040Z","openPorts":["135","139","445"],"assignmentType":"static","createdAt":"2025-06-16T19:08:43.740Z","updatedAt":"2025-06-16T19:34:28.040Z"},{"id":20,"ipAddress":"10.63.21.35","hostname":"tpuhd1.trinity.local","macAddress":null,"vendor":null,"deviceType":null,"purpose":null,"location":null,"subnetId":1,"status":"online","lastSeen":"2025-06-16T19:34:28.042Z","openPorts":["80","443"],"assignmentType":"static","createdAt":"2025-06-16T19:08:43.742Z","updatedAt":"2025-06-16T19:34:28.042Z"},{"id":21,"ipAddress":"10.63.21.36","hostname":null,"macAddress":null,"vendor":null,"deviceType":null,"purpose":null,"location":null,"subnetId":1,"status":"online","lastSeen":"2025-06-16T19:34:28.043Z","openPorts":["80"],"assignmentType":"static","createdAt":"2025-06-16T19:08:43.743Z","updatedAt":"2025-06-16T19:34:28.043Z"},{"id":22,"ipAddress":"10.63.21.61","hostname":null,"macAddress":null,"vendor":null,"deviceType":null,"purpose":null,"location":null,"subnetId":1,"status":"online","lastSeen":"2025-06-16T19:34:28.045Z","openPorts":["22"],"assignmentType":"static","createdAt":"2025-06-16T19:08:43.745Z","updatedAt":"2025-06-16T19:34:28.045Z"},{"id":23,"ipAddress":"10.63.21.62","hostname":null,"macAddress":null,"vendor":null,"deviceType":null,"purpose":null,"location":null,"subnetId":1,"status":"online","lastSeen":"2025-06-16T19:34:28.046Z","openPorts":["22"],"assignmentType":"static","createdAt":"2025-06-16T19:08:43.747Z","updatedAt":"2025-06-16T19:34:28.046Z"},{"id":24,"ipAddress":"10.63.21.63","hostname":null,"macAddress":null,"vendor":null,"deviceType":null,"purpose":null,"location":null,"subnetId":1,"status":"online","lastSeen":"2025-06-16T19:34:28.048Z","openPorts":["22"],"assignmentType":"static","createdAt":"2025-06-16T19:08:43.748Z","updatedAt":"2025-06-16T19:34:28.048Z"},{"id":25,"ipAddress":"10.63.21.64","hostname":null,"macAddress":null,"vendor":null,"deviceType":null,"purpose":null,"location":null,"subnetId":1,"status":"online","lastSeen":"2025-06-16T19:34:28.049Z","openPorts":["22"],"assignmentType":"static","createdAt":"2025-06-16T19:08:43.750Z","updatedAt":"2025-06-16T19:34:28.049Z"},{"id":26,"ipAddress":"10.63.21.65","hostname":null,"macAddress":null,"vendor":null,"deviceType":null,"purpose":null,"location":null,"subnetId":1,"status":"online","lastSeen":"2025-06-16T19:34:28.050Z","openPorts":["22"],"assignmentType":"static","createdAt":"2025-06-16T19:08:43.752Z","updatedAt":"2025-06-16T19:34:28.050Z"},{"id":27,"ipAddress":"10.63.21.66","hostname":null,"macAddress":null,"vendor":null,"deviceType":null,"purpose":null,"location":null,"subnetId":1,"status":"online","lastSeen":"2025-06-16T19:34:28.052Z","openPorts":["23","80","443"],"assignmentType":"static","createdAt":"2025-06-16T19:08:43.754Z","updatedAt":"2025-06-16T19:34:28.052Z"},{"id":31,"ipAddress":"10.63.20.1","hostname":null,"macAddress":null,"vendor":null,"deviceType":null,"purpose":null,"location":null,"subnetId":2,"status":"online","lastSeen":"2025-06-16T19:32:34.291Z","openPorts":["22","80","443"],"assignmentType":"static","createdAt":"2025-06-16T19:13:10.947Z","updatedAt":"2025-06-16T19:32:34.291Z"},{"id":34,"ipAddress":"10.63.20.10","hostname":null,"macAddress":null,"vendor":null,"deviceType":null,"purpose":null,"location":null,"subnetId":2,"status":"online","lastSeen":"2025-06-16T19:32:34.298Z","openPorts":["80"],"assignmentType":"static","createdAt":"2025-06-16T19:13:10.957Z","updatedAt":"2025-06-16T19:32:34.298Z"},{"id":59,"ipAddress":"10.63.20.101","hostname":null,"macAddress":null,"vendor":null,"deviceType":null,"purpose":null,"location":null,"subnetId":2,"status":"online","lastSeen":"2025-06-16T19:32:34.343Z","openPorts":["22","80","139","443","445"],"assignmentType":"static","createdAt":"2025-06-16T19:13:11.000Z","updatedAt":"2025-06-16T19:32:34.343Z"},{"id":60,"ipAddress":"10.63.20.102","hostname":null,"macAddress":null,"vendor":null,"deviceType":null,"purpose":null,"location":null,"subnetId":2,"status":"online","lastSeen":"2025-06-16T19:32:34.345Z","openPorts":["135","139","445"],"assignmentType":"static","createdAt":"2025-06-16T19:13:11.002Z","updatedAt":"2025-06-16T19:32:34.345Z"},{"id":61,"ipAddress":"10.63.20.103","hostname":null,"macAddress":null,"vendor":null,"deviceType":null,"purpose":null,"location":null,"subnetId":2,"status":"online","lastSeen":"2025-06-16T19:32:34.347Z","openPorts":[],"assignmentType":"static","createdAt":"2025-06-16T19:13:11.004Z","updatedAt":"2025-06-16T19:32:34.347Z"},{"id":62,"ipAddress":"10.63.20.105","hostname":null,"macAddress":null,"vendor":null,"deviceType":null,"purpose":null,"location":null,"subnetId":2,"status":"online","lastSeen":"2025-06-16T19:32:34.348Z","openPorts":["22","23","80","443"],"assignmentType":"static","createdAt":"2025-06-16T19:13:11.006Z","updatedAt":"2025-06-16T19:32:34.348Z"},{"id":35,"ipAddress":"10.63.20.11","hostname":null,"macAddress":null,"vendor":null,"deviceType":null,"purpose":null,"location":null,"subnetId":2,"status":"online","lastSeen":"2025-06-16T19:32:34.301Z","openPorts":["80"],"assignmentType":"static","createdAt":"2025-06-16T19:13:10.958Z","updatedAt":"2025-06-16T19:32:34.301Z"},{"id":63,"ipAddress":"10.63.20.110","hostname":null,"macAddress":null,"vendor":null,"deviceType":null,"purpose":null,"location":null,"subnetId":2,"status":"online","lastSeen":"2025-06-16T19:32:34.350Z","openPorts":["22","80","139","443","445"],"assignmentType":"static","createdAt":"2025-06-16T19:13:11.007Z","updatedAt":"2025-06-16T19:32:34.350Z"},{"id":64,"ipAddress":"10.63.20.115","hostname":null,"macAddress":null,"vendor":null,"deviceType":null,"purpose":null,"location":null,"subnetId":2,"status":"online","lastSeen":"2025-06-16T19:32:34.351Z","openPorts":[],"assignmentType":"static","createdAt":"2025-06-16T19:13:11.009Z","updatedAt":"2025-06-16T19:32:34.351Z"},{"id":65,"ipAddress":"10.63.20.116","hostname":null,"macAddress":null,"vendor":null,"deviceType":null,"purpose":null,"location":null,"subnetId":2,"status":"online","lastSeen":"2025-06-16T19:32:34.353Z","openPorts":[],"assignmentType":"static","createdAt":"2025-06-16T19:13:11.011Z","updatedAt":"2025-06-16T19:32:34.353Z"},{"id":36,"ipAddress":"10.63.20.12","hostname":null,"macAddress":null,"vendor":null,"deviceType":null,"purpose":null,"location":null,"subnetId":2,"status":"online","lastSeen":"2025-06-16T19:32:34.302Z","openPorts":["80"],"assignmentType":"static","createdAt":"2025-06-16T19:13:10.960Z","updatedAt":"2025-06-16T19:32:34.302Z"},{"id":66,"ipAddress":"10.63.20.122","hostname":null,"macAddress":null,"vendor":null,"deviceType":null,"purpose":null,"location":null,"subnetId":2,"status":"online","lastSeen":"2025-06-16T19:32:34.355Z","openPorts":["135","139","445"],"assignmentType":"static","createdAt":"2025-06-16T19:13:11.012Z","updatedAt":"2025-06-16T19:32:34.355Z"},{"id":67,"ipAddress":"10.63.20.129","hostname":null,"macAddress":null,"vendor":null,"deviceType":null,"purpose":null,"location":null,"subnetId":2,"status":"online","lastSeen":"2025-06-16T19:32:34.356Z","openPorts":["80","443"],"assignmentType":"static","createdAt":"2025-06-16T19:13:11.014Z","updatedAt":"2025-06-16T19:32:34.356Z"},{"id":68,"ipAddress":"10.63.20.130","hostname":null,"macAddress":null,"vendor":null,"deviceType":null,"purpose":null,"location":null,"subnetId":2,"status":"online","lastSeen":"2025-06-16T19:32:34.358Z","openPorts":["80","443"],"assignmentType":"static","createdAt":"2025-06-16T19:13:11.015Z","updatedAt":"2025-06-16T19:32:34.358Z"},{"id":69,"ipAddress":"10.63.20.131","hostname":null,"macAddress":null,"vendor":null,"deviceType":null,"purpose":null,"location":null,"subnetId":2,"status":"online","lastSeen":"2025-06-16T19:32:34.359Z","openPorts":["22"],"assignmentType":"static","createdAt":"2025-06-16T19:13:11.017Z","updatedAt":"2025-06-16T19:32:34.359Z"},{"id":37,"ipAddress":"10.63.20.14","hostname":null,"macAddress":null,"vendor":null,"deviceType":null,"purpose":null,"location":null,"subnetId":2,"status":"online","lastSeen":"2025-06-16T19:32:34.304Z","openPorts":["80"],"assignmentType":"static","createdAt":"2025-06-16T19:13:10.962Z","updatedAt":"2025-06-16T19:32:34.304Z"},{"id":70,"ipAddress":"10.63.20.140","hostname":null,"macAddress":null,"vendor":null,"deviceType":null,"purpose":null,"location":null,"subnetId":2,"status":"online","lastSeen":"2025-06-16T19:32:34.361Z","openPorts":[],"assignmentType":"static","createdAt":"2025-06-16T19:13:11.019Z","updatedAt":"2025-06-16T19:32:34.361Z"},{"id":71,"ipAddress":"10.63.20.141","hostname":null,"macAddress":null,"vendor":null,"deviceType":null,"purpose":null,"location":null,"subnetId":2,"status":"online","lastSeen":"2025-06-16T19:32:34.362Z","openPorts":[],"assignmentType":"static","createdAt":"2025-06-16T19:13:11.021Z","updatedAt":"2025-06-16T19:32:34.362Z"},{"id":38,"ipAddress":"10.63.20.15","hostname":null,"macAddress":null,"vendor":null,"deviceType":null,"purpose":null,"location":null,"subnetId":2,"status":"online","lastSeen":"2025-06-16T19:32:34.305Z","openPorts":["135","139","445"],"assignmentType":"static","createdAt":"2025-06-16T19:13:10.964Z","updatedAt":"2025-06-16T19:32:34.305Z"},{"id":72,"ipAddress":"10.63.20.151","hostname":null,"macAddress":null,"vendor":null,"deviceType":null,"purpose":null,"location":null,"subnetId":2,"status":"online","lastSeen":"2025-06-16T19:32:34.364Z","openPorts":["22","80"],"assignmentType":"static","createdAt":"2025-06-16T19:13:11.022Z","updatedAt":"2025-06-16T19:32:34.364Z"}],"total":122,"page":1,"limit":50,"totalPages":3}