X-Powered-By: Express
Content-Type: application/json; charset=utf-8
Content-Length: 16441
ETag: W/"4039-Lxu9JyZe4aFqywv32e5GF36ZiHo"
Date: Sat, 14 Jun 2025 07:28:34 GMT
Connection: keep-alive
Keep-Alive: timeout=5

{"data":[{"id":259,"ipAddress":"10.63.20.1","hostname":null,"macAddress":null,"vendor":null,"deviceType":null,"purpose":null,"location":null,"subnetId":9,"status":"online","lastSeen":"2025-06-14T07:21:25.057Z","openPorts":["22","80","443"],"assignmentType":"dhcp","createdAt":"2025-06-14T07:13:08.864Z","updatedAt":"2025-06-14T07:21:25.057Z"},{"id":262,"ipAddress":"10.63.20.10","hostname":null,"macAddress":null,"vendor":null,"deviceType":null,"purpose":null,"location":null,"subnetId":9,"status":"online","lastSeen":"2025-06-14T07:21:25.068Z","openPorts":["80"],"assignmentType":"dhcp","createdAt":"2025-06-14T07:13:08.873Z","updatedAt":"2025-06-14T07:21:25.068Z"},{"id":287,"ipAddress":"10.63.20.101","hostname":null,"macAddress":null,"vendor":null,"deviceType":null,"purpose":null,"location":null,"subnetId":9,"status":"online","lastSeen":"2025-06-14T07:21:25.115Z","openPorts":["22","80","443"],"assignmentType":"dhcp","createdAt":"2025-06-14T07:13:08.920Z","updatedAt":"2025-06-14T07:21:25.115Z"},{"id":288,"ipAddress":"10.63.20.102","hostname":null,"macAddress":null,"vendor":null,"deviceType":null,"purpose":null,"location":null,"subnetId":9,"status":"online","lastSeen":"2025-06-14T07:21:25.117Z","openPorts":[],"assignmentType":"dhcp","createdAt":"2025-06-14T07:13:08.922Z","updatedAt":"2025-06-14T07:21:25.117Z"},{"id":289,"ipAddress":"10.63.20.103","hostname":null,"macAddress":null,"vendor":null,"deviceType":null,"purpose":null,"location":null,"subnetId":9,"status":"online","lastSeen":"2025-06-14T07:21:25.118Z","openPorts":[],"assignmentType":"dhcp","createdAt":"2025-06-14T07:13:08.924Z","updatedAt":"2025-06-14T07:21:25.118Z"},{"id":290,"ipAddress":"10.63.20.105","hostname":null,"macAddress":null,"vendor":null,"deviceType":null,"purpose":null,"location":null,"subnetId":9,"status":"online","lastSeen":"2025-06-14T07:21:25.120Z","openPorts":["22","23","80","443"],"assignmentType":"dhcp","createdAt":"2025-06-14T07:13:08.925Z","updatedAt":"2025-06-14T07:21:25.120Z"},{"id":263,"ipAddress":"10.63.20.11","hostname":null,"macAddress":null,"vendor":null,"deviceType":null,"purpose":null,"location":null,"subnetId":9,"status":"online","lastSeen":"2025-06-14T07:21:25.070Z","openPorts":["80"],"assignmentType":"dhcp","createdAt":"2025-06-14T07:13:08.875Z","updatedAt":"2025-06-14T07:21:25.070Z"},{"id":291,"ipAddress":"10.63.20.110","hostname":null,"macAddress":null,"vendor":null,"deviceType":null,"purpose":null,"location":null,"subnetId":9,"status":"online","lastSeen":"2025-06-14T07:21:25.122Z","openPorts":["22","80","443"],"assignmentType":"dhcp","createdAt":"2025-06-14T07:13:08.927Z","updatedAt":"2025-06-14T07:21:25.122Z"},{"id":292,"ipAddress":"10.63.20.115","hostname":null,"macAddress":null,"vendor":null,"deviceType":null,"purpose":null,"location":null,"subnetId":9,"status":"online","lastSeen":"2025-06-14T07:21:25.124Z","openPorts":[],"assignmentType":"dhcp","createdAt":"2025-06-14T07:13:08.928Z","updatedAt":"2025-06-14T07:21:25.124Z"},{"id":293,"ipAddress":"10.63.20.116","hostname":null,"macAddress":null,"vendor":null,"deviceType":null,"purpose":null,"location":null,"subnetId":9,"status":"online","lastSeen":"2025-06-14T07:21:25.126Z","openPorts":[],"assignmentType":"dhcp","createdAt":"2025-06-14T07:13:08.930Z","updatedAt":"2025-06-14T07:21:25.126Z"},{"id":264,"ipAddress":"10.63.20.12","hostname":null,"macAddress":null,"vendor":null,"deviceType":null,"purpose":null,"location":null,"subnetId":9,"status":"online","lastSeen":"2025-06-14T07:21:25.071Z","openPorts":["80"],"assignmentType":"dhcp","createdAt":"2025-06-14T07:13:08.876Z","updatedAt":"2025-06-14T07:21:25.071Z"},{"id":294,"ipAddress":"10.63.20.122","hostname":null,"macAddress":null,"vendor":null,"deviceType":null,"purpose":null,"location":null,"subnetId":9,"status":"online","lastSeen":"2025-06-14T07:21:25.128Z","openPorts":[],"assignmentType":"dhcp","createdAt":"2025-06-14T07:13:08.931Z","updatedAt":"2025-06-14T07:21:25.128Z"},{"id":295,"ipAddress":"10.63.20.129","hostname":null,"macAddress":null,"vendor":null,"deviceType":null,"purpose":null,"location":null,"subnetId":9,"status":"online","lastSeen":"2025-06-14T07:21:25.130Z","openPorts":["80","443"],"assignmentType":"dhcp","createdAt":"2025-06-14T07:13:08.933Z","updatedAt":"2025-06-14T07:21:25.130Z"},{"id":296,"ipAddress":"10.63.20.130","hostname":null,"macAddress":null,"vendor":null,"deviceType":null,"purpose":null,"location":null,"subnetId":9,"status":"online","lastSeen":"2025-06-14T07:21:25.131Z","openPorts":["80","443"],"assignmentType":"dhcp","createdAt":"2025-06-14T07:13:08.935Z","updatedAt":"2025-06-14T07:21:25.131Z"},{"id":297,"ipAddress":"10.63.20.131","hostname":null,"macAddress":null,"vendor":null,"deviceType":null,"purpose":null,"location":null,"subnetId":9,"status":"online","lastSeen":"2025-06-14T07:21:25.133Z","openPorts":["22"],"assignmentType":"dhcp","createdAt":"2025-06-14T07:13:08.937Z","updatedAt":"2025-06-14T07:21:25.133Z"},{"id":265,"ipAddress":"10.63.20.14","hostname":null,"macAddress":null,"vendor":null,"deviceType":null,"purpose":null,"location":null,"subnetId":9,"status":"online","lastSeen":"2025-06-14T07:21:25.073Z","openPorts":["80"],"assignmentType":"dhcp","createdAt":"2025-06-14T07:13:08.878Z","updatedAt":"2025-06-14T07:21:25.073Z"},{"id":298,"ipAddress":"10.63.20.140","hostname":null,"macAddress":null,"vendor":null,"deviceType":null,"purpose":null,"location":null,"subnetId":9,"status":"online","lastSeen":"2025-06-14T07:21:25.134Z","openPorts":[],"assignmentType":"dhcp","createdAt":"2025-06-14T07:13:08.938Z","updatedAt":"2025-06-14T07:21:25.134Z"},{"id":299,"ipAddress":"10.63.20.141","hostname":null,"macAddress":null,"vendor":null,"deviceType":null,"purpose":null,"location":null,"subnetId":9,"status":"online","lastSeen":"2025-06-14T07:21:25.136Z","openPorts":[],"assignmentType":"dhcp","createdAt":"2025-06-14T07:13:08.940Z","updatedAt":"2025-06-14T07:21:25.136Z"},{"id":266,"ipAddress":"10.63.20.15","hostname":null,"macAddress":null,"vendor":null,"deviceType":null,"purpose":null,"location":null,"subnetId":9,"status":"online","lastSeen":"2025-06-14T07:21:25.075Z","openPorts":[],"assignmentType":"dhcp","createdAt":"2025-06-14T07:13:08.880Z","updatedAt":"2025-06-14T07:21:25.075Z"},{"id":300,"ipAddress":"10.63.20.151","hostname":null,"macAddress":null,"vendor":null,"deviceType":null,"purpose":null,"location":null,"subnetId":9,"status":"online","lastSeen":"2025-06-14T07:21:25.137Z","openPorts":["22","80","554"],"assignmentType":"dhcp","createdAt":"2025-06-14T07:13:08.942Z","updatedAt":"2025-06-14T07:21:25.137Z"},{"id":301,"ipAddress":"10.63.20.154","hostname":null,"macAddress":null,"vendor":null,"deviceType":null,"purpose":null,"location":null,"subnetId":9,"status":"online","lastSeen":"2025-06-14T07:21:25.139Z","openPorts":["22","80","554"],"assignmentType":"dhcp","createdAt":"2025-06-14T07:13:08.943Z","updatedAt":"2025-06-14T07:21:25.139Z"},{"id":302,"ipAddress":"10.63.20.156","hostname":null,"macAddress":null,"vendor":null,"deviceType":null,"purpose":null,"location":null,"subnetId":9,"status":"online","lastSeen":"2025-06-14T07:21:25.141Z","openPorts":["80"],"assignmentType":"dhcp","createdAt":"2025-06-14T07:13:08.945Z","updatedAt":"2025-06-14T07:21:25.141Z"},{"id":303,"ipAddress":"10.63.20.158","hostname":null,"macAddress":null,"vendor":null,"deviceType":null,"purpose":null,"location":null,"subnetId":9,"status":"online","lastSeen":"2025-06-14T07:21:25.142Z","openPorts":["22","80","554"],"assignmentType":"dhcp","createdAt":"2025-06-14T07:13:08.946Z","updatedAt":"2025-06-14T07:21:25.142Z"},{"id":304,"ipAddress":"10.63.20.159","hostname":null,"macAddress":null,"vendor":null,"deviceType":null,"purpose":null,"location":null,"subnetId":9,"status":"online","lastSeen":"2025-06-14T07:21:25.144Z","openPorts":["22","80","554"],"assignmentType":"dhcp","createdAt":"2025-06-14T07:13:08.948Z","updatedAt":"2025-06-14T07:21:25.144Z"},{"id":267,"ipAddress":"10.63.20.16","hostname":null,"macAddress":null,"vendor":null,"deviceType":null,"purpose":null,"location":null,"subnetId":9,"status":"online","lastSeen":"2025-06-14T07:21:25.078Z","openPorts":["22"],"assignmentType":"dhcp","createdAt":"2025-06-14T07:13:08.882Z","updatedAt":"2025-06-14T07:21:25.078Z"},{"id":305,"ipAddress":"10.63.20.160","hostname":null,"macAddress":null,"vendor":null,"deviceType":null,"purpose":null,"location":null,"subnetId":9,"status":"online","lastSeen":"2025-06-14T07:21:25.146Z","openPorts":["22","80","554"],"assignmentType":"dhcp","createdAt":"2025-06-14T07:13:08.949Z","updatedAt":"2025-06-14T07:21:25.146Z"},{"id":306,"ipAddress":"10.63.20.161","hostname":null,"macAddress":null,"vendor":null,"deviceType":null,"purpose":null,"location":null,"subnetId":9,"status":"online","lastSeen":"2025-06-14T07:21:25.148Z","openPorts":["22","80","554"],"assignmentType":"dhcp","createdAt":"2025-06-14T07:13:08.951Z","updatedAt":"2025-06-14T07:21:25.148Z"},{"id":307,"ipAddress":"10.63.20.162","hostname":null,"macAddress":null,"vendor":null,"deviceType":null,"purpose":null,"location":null,"subnetId":9,"status":"online","lastSeen":"2025-06-14T07:21:25.150Z","openPorts":["22","80","554"],"assignmentType":"dhcp","createdAt":"2025-06-14T07:13:08.953Z","updatedAt":"2025-06-14T07:21:25.150Z"},{"id":308,"ipAddress":"10.63.20.163","hostname":null,"macAddress":null,"vendor":null,"deviceType":null,"purpose":null,"location":null,"subnetId":9,"status":"online","lastSeen":"2025-06-14T07:21:25.151Z","openPorts":["22","80","554"],"assignmentType":"dhcp","createdAt":"2025-06-14T07:13:08.954Z","updatedAt":"2025-06-14T07:21:25.151Z"},{"id":309,"ipAddress":"10.63.20.164","hostname":null,"macAddress":null,"vendor":null,"deviceType":null,"purpose":null,"location":null,"subnetId":9,"status":"online","lastSeen":"2025-06-14T07:21:25.153Z","openPorts":["22","80","554"],"assignmentType":"dhcp","createdAt":"2025-06-14T07:13:08.956Z","updatedAt":"2025-06-14T07:21:25.153Z"},{"id":310,"ipAddress":"10.63.20.165","hostname":null,"macAddress":null,"vendor":null,"deviceType":null,"purpose":null,"location":null,"subnetId":9,"status":"online","lastSeen":"2025-06-14T07:21:25.155Z","openPorts":["22","80","554"],"assignmentType":"dhcp","createdAt":"2025-06-14T07:13:08.958Z","updatedAt":"2025-06-14T07:21:25.155Z"},{"id":311,"ipAddress":"10.63.20.166","hostname":null,"macAddress":null,"vendor":null,"deviceType":null,"purpose":null,"location":null,"subnetId":9,"status":"online","lastSeen":"2025-06-14T07:21:25.157Z","openPorts":["22","80","554"],"assignmentType":"dhcp","createdAt":"2025-06-14T07:13:08.960Z","updatedAt":"2025-06-14T07:21:25.157Z"},{"id":312,"ipAddress":"10.63.20.167","hostname":null,"macAddress":null,"vendor":null,"deviceType":null,"purpose":null,"location":null,"subnetId":9,"status":"online","lastSeen":"2025-06-14T07:21:25.158Z","openPorts":["22","80","554"],"assignmentType":"dhcp","createdAt":"2025-06-14T07:13:08.961Z","updatedAt":"2025-06-14T07:21:25.158Z"},{"id":313,"ipAddress":"10.63.20.168","hostname":null,"macAddress":null,"vendor":null,"deviceType":null,"purpose":null,"location":null,"subnetId":9,"status":"online","lastSeen":"2025-06-14T07:21:25.160Z","openPorts":["22","80","554"],"assignmentType":"dhcp","createdAt":"2025-06-14T07:13:08.963Z","updatedAt":"2025-06-14T07:21:25.160Z"},{"id":314,"ipAddress":"10.63.20.169","hostname":null,"macAddress":null,"vendor":null,"deviceType":null,"purpose":null,"location":null,"subnetId":9,"status":"online","lastSeen":"2025-06-14T07:21:25.161Z","openPorts":["22","80","554"],"assignmentType":"dhcp","createdAt":"2025-06-14T07:13:08.965Z","updatedAt":"2025-06-14T07:21:25.161Z"},{"id":268,"ipAddress":"10.63.20.17","hostname":null,"macAddress":null,"vendor":null,"deviceType":null,"purpose":null,"location":null,"subnetId":9,"status":"online","lastSeen":"2025-06-14T07:21:25.080Z","openPorts":[],"assignmentType":"dhcp","createdAt":"2025-06-14T07:13:08.884Z","updatedAt":"2025-06-14T07:21:25.080Z"},{"id":315,"ipAddress":"10.63.20.170","hostname":null,"macAddress":null,"vendor":null,"deviceType":null,"purpose":null,"location":null,"subnetId":9,"status":"online","lastSeen":"2025-06-14T07:21:25.163Z","openPorts":[],"assignmentType":"dhcp","createdAt":"2025-06-14T07:13:08.966Z","updatedAt":"2025-06-14T07:21:25.163Z"},{"id":316,"ipAddress":"10.63.20.171","hostname":null,"macAddress":null,"vendor":null,"deviceType":null,"purpose":null,"location":null,"subnetId":9,"status":"online","lastSeen":"2025-06-14T07:21:25.165Z","openPorts":[],"assignmentType":"dhcp","createdAt":"2025-06-14T07:13:08.968Z","updatedAt":"2025-06-14T07:21:25.165Z"},{"id":317,"ipAddress":"10.63.20.172","hostname":null,"macAddress":null,"vendor":null,"deviceType":null,"purpose":null,"location":null,"subnetId":9,"status":"online","lastSeen":"2025-06-14T07:21:25.166Z","openPorts":[],"assignmentType":"dhcp","createdAt":"2025-06-14T07:13:08.970Z","updatedAt":"2025-06-14T07:21:25.166Z"},{"id":318,"ipAddress":"10.63.20.173","hostname":null,"macAddress":null,"vendor":null,"deviceType":null,"purpose":null,"location":null,"subnetId":9,"status":"online","lastSeen":"2025-06-14T07:21:25.168Z","openPorts":[],"assignmentType":"dhcp","createdAt":"2025-06-14T07:13:08.971Z","updatedAt":"2025-06-14T07:21:25.168Z"},{"id":319,"ipAddress":"10.63.20.174","hostname":null,"macAddress":null,"vendor":null,"deviceType":null,"purpose":null,"location":null,"subnetId":9,"status":"online","lastSeen":"2025-06-14T07:21:25.170Z","openPorts":[],"assignmentType":"dhcp","createdAt":"2025-06-14T07:13:08.973Z","updatedAt":"2025-06-14T07:21:25.170Z"},{"id":320,"ipAddress":"10.63.20.175","hostname":null,"macAddress":null,"vendor":null,"deviceType":null,"purpose":null,"location":null,"subnetId":9,"status":"online","lastSeen":"2025-06-14T07:21:25.171Z","openPorts":[],"assignmentType":"dhcp","createdAt":"2025-06-14T07:13:08.975Z","updatedAt":"2025-06-14T07:21:25.171Z"},{"id":321,"ipAddress":"10.63.20.176","hostname":null,"macAddress":null,"vendor":null,"deviceType":null,"purpose":null,"location":null,"subnetId":9,"status":"online","lastSeen":"2025-06-14T07:21:25.173Z","openPorts":[],"assignmentType":"dhcp","createdAt":"2025-06-14T07:13:08.976Z","updatedAt":"2025-06-14T07:21:25.173Z"},{"id":322,"ipAddress":"10.63.20.177","hostname":null,"macAddress":null,"vendor":null,"deviceType":null,"purpose":null,"location":null,"subnetId":9,"status":"online","lastSeen":"2025-06-14T07:21:25.175Z","openPorts":[],"assignmentType":"dhcp","createdAt":"2025-06-14T07:13:08.978Z","updatedAt":"2025-06-14T07:21:25.175Z"},{"id":323,"ipAddress":"10.63.20.178","hostname":null,"macAddress":null,"vendor":null,"deviceType":null,"purpose":null,"location":null,"subnetId":9,"status":"online","lastSeen":"2025-06-14T07:21:25.177Z","openPorts":[],"assignmentType":"dhcp","createdAt":"2025-06-14T07:13:08.979Z","updatedAt":"2025-06-14T07:21:25.177Z"},{"id":324,"ipAddress":"10.63.20.179","hostname":null,"macAddress":null,"vendor":null,"deviceType":null,"purpose":null,"location":null,"subnetId":9,"status":"online","lastSeen":"2025-06-14T07:21:25.178Z","openPorts":[],"assignmentType":"dhcp","createdAt":"2025-06-14T07:13:08.981Z","updatedAt":"2025-06-14T07:21:25.178Z"},{"id":269,"ipAddress":"10.63.20.18","hostname":null,"macAddress":null,"vendor":null,"deviceType":null,"purpose":null,"location":null,"subnetId":9,"status":"online","lastSeen":"2025-06-14T07:21:25.082Z","openPorts":["22"],"assignmentType":"dhcp","createdAt":"2025-06-14T07:13:08.886Z","updatedAt":"2025-06-14T07:21:25.082Z"},{"id":325,"ipAddress":"10.63.20.180","hostname":null,"macAddress":null,"vendor":null,"deviceType":null,"purpose":null,"location":null,"subnetId":9,"status":"online","lastSeen":"2025-06-14T07:21:25.180Z","openPorts":[],"assignmentType":"dhcp","createdAt":"2025-06-14T07:13:08.982Z","updatedAt":"2025-06-14T07:21:25.180Z"},{"id":326,"ipAddress":"10.63.20.181","hostname":null,"macAddress":null,"vendor":null,"deviceType":null,"purpose":null,"location":null,"subnetId":9,"status":"online","lastSeen":"2025-06-14T07:21:25.181Z","openPorts":[],"assignmentType":"dhcp","createdAt":"2025-06-14T07:13:08.984Z","updatedAt":"2025-06-14T07:21:25.181Z"},{"id":327,"ipAddress":"10.63.20.182","hostname":null,"macAddress":null,"vendor":null,"deviceType":null,"purpose":null,"location":null,"subnetId":9,"status":"online","lastSeen":"2025-06-14T07:21:25.183Z","openPorts":["22","80","554"],"assignmentType":"dhcp","createdAt":"2025-06-14T07:13:08.986Z","updatedAt":"2025-06-14T07:21:25.183Z"}],"total":"236","page":1,"limit":50,"totalPages":5}