{"data":[{"id":13,"ipAddress":"10.63.20.1","hostname":null,"macAddress":null,"vendor":null,"deviceType":null,"purpose":null,"location":null,"subnetId":5,"status":"online","lastSeen":"2025-06-14T06:49:04.220Z","openPorts":["22","80","443"],"assignmentType":"dhcp","createdAt":"2025-06-13T07:10:42.005Z","updatedAt":"2025-06-14T06:49:04.220Z"},{"id":16,"ipAddress":"10.63.20.10","hostname":null,"macAddress":null,"vendor":null,"deviceType":null,"purpose":null,"location":null,"subnetId":5,"status":"online","lastSeen":"2025-06-14T06:49:04.229Z","openPorts":["80"],"assignmentType":"dhcp","createdAt":"2025-06-13T07:10:42.011Z","updatedAt":"2025-06-14T06:49:04.229Z"},{"id":40,"ipAddress":"10.63.20.101","hostname":null,"macAddress":null,"vendor":null,"deviceType":null,"purpose":null,"location":null,"subnetId":5,"status":"online","lastSeen":"2025-06-14T06:49:04.276Z","openPorts":["22","80","443"],"assignmentType":"dhcp","createdAt":"2025-06-13T07:10:42.064Z","updatedAt":"2025-06-14T06:49:04.276Z"},{"id":41,"ipAddress":"10.63.20.102","hostname":null,"macAddress":null,"vendor":null,"deviceType":null,"purpose":null,"location":null,"subnetId":5,"status":"online","lastSeen":"2025-06-14T06:49:04.278Z","openPorts":[],"assignmentType":"dhcp","createdAt":"2025-06-13T07:10:42.065Z","updatedAt":"2025-06-14T06:49:04.278Z"},{"id":42,"ipAddress":"10.63.20.103","hostname":null,"macAddress":null,"vendor":null,"deviceType":null,"purpose":null,"location":null,"subnetId":5,"status":"online","lastSeen":"2025-06-14T06:49:04.279Z","openPorts":[],"assignmentType":"dhcp","createdAt":"2025-06-13T07:10:42.067Z","updatedAt":"2025-06-14T06:49:04.279Z"},{"id":43,"ipAddress":"10.63.20.105","hostname":null,"macAddress":null,"vendor":null,"deviceType":null,"purpose":null,"location":null,"subnetId":5,"status":"online","lastSeen":"2025-06-14T06:49:04.281Z","openPorts":["22","23","80","443"],"assignmentType":"dhcp","createdAt":"2025-06-13T07:10:42.068Z","updatedAt":"2025-06-14T06:49:04.281Z"},{"id":17,"ipAddress":"10.63.20.11","hostname":null,"macAddress":null,"vendor":null,"deviceType":null,"purpose":null,"location":null,"subnetId":5,"status":"online","lastSeen":"2025-06-14T06:49:04.230Z","openPorts":["80"],"assignmentType":"dhcp","createdAt":"2025-06-13T07:10:42.013Z","updatedAt":"2025-06-14T06:49:04.230Z"},{"id":44,"ipAddress":"10.63.20.110","hostname":null,"macAddress":null,"vendor":null,"deviceType":null,"purpose":null,"location":null,"subnetId":5,"status":"online","lastSeen":"2025-06-14T06:49:04.283Z","openPorts":["22","80","443"],"assignmentType":"dhcp","createdAt":"2025-06-13T07:10:42.069Z","updatedAt":"2025-06-14T06:49:04.283Z"},{"id":45,"ipAddress":"10.63.20.115","hostname":null,"macAddress":null,"vendor":null,"deviceType":null,"purpose":null,"location":null,"subnetId":5,"status":"online","lastSeen":"2025-06-14T06:49:04.285Z","openPorts":[],"assignmentType":"dhcp","createdAt":"2025-06-13T07:10:42.071Z","updatedAt":"2025-06-14T06:49:04.285Z"},{"id":46,"ipAddress":"10.63.20.116","hostname":null,"macAddress":null,"vendor":null,"deviceType":null,"purpose":null,"location":null,"subnetId":5,"status":"online","lastSeen":"2025-06-14T06:49:04.286Z","openPorts":[],"assignmentType":"dhcp","createdAt":"2025-06-13T07:10:42.072Z","updatedAt":"2025-06-14T06:49:04.286Z"},{"id":102,"ipAddress":"10.63.20.12","hostname":null,"macAddress":null,"vendor":null,"deviceType":null,"purpose":null,"location":null,"subnetId":5,"status":"online","lastSeen":"2025-06-14T06:49:04.232Z","openPorts":["80"],"assignmentType":"dhcp","createdAt":"2025-06-13T07:15:41.990Z","updatedAt":"2025-06-14T06:49:04.232Z"},{"id":47,"ipAddress":"10.63.20.122","hostname":null,"macAddress":null,"vendor":null,"deviceType":null,"purpose":null,"location":null,"subnetId":5,"status":"online","lastSeen":"2025-06-14T06:49:04.288Z","openPorts":[],"assignmentType":"dhcp","createdAt":"2025-06-13T07:10:42.073Z","updatedAt":"2025-06-14T06:49:04.288Z"},{"id":48,"ipAddress":"10.63.20.129","hostname":null,"macAddress":null,"vendor":null,"deviceType":null,"purpose":null,"location":null,"subnetId":5,"status":"online","lastSeen":"2025-06-14T06:49:04.289Z","openPorts":["80","443"],"assignmentType":"dhcp","createdAt":"2025-06-13T07:10:42.075Z","updatedAt":"2025-06-14T06:49:04.289Z"},{"id":49,"ipAddress":"10.63.20.130","hostname":null,"macAddress":null,"vendor":null,"deviceType":null,"purpose":null,"location":null,"subnetId":5,"status":"online","lastSeen":"2025-06-14T06:49:04.291Z","openPorts":["80","443"],"assignmentType":"dhcp","createdAt":"2025-06-13T07:10:42.076Z","updatedAt":"2025-06-14T06:49:04.291Z"},{"id":50,"ipAddress":"10.63.20.131","hostname":null,"macAddress":null,"vendor":null,"deviceType":null,"purpose":null,"location":null,"subnetId":5,"status":"online","lastSeen":"2025-06-14T06:49:04.293Z","openPorts":["22"],"assignmentType":"dhcp","createdAt":"2025-06-13T07:10:42.078Z","updatedAt":"2025-06-14T06:49:04.293Z"},{"id":18,"ipAddress":"10.63.20.14","hostname":null,"macAddress":null,"vendor":null,"deviceType":null,"purpose":null,"location":null,"subnetId":5,"status":"online","lastSeen":"2025-06-14T06:49:04.235Z","openPorts":["80"],"assignmentType":"dhcp","createdAt":"2025-06-13T07:10:42.014Z","updatedAt":"2025-06-14T06:49:04.235Z"},{"id":51,"ipAddress":"10.63.20.140","hostname":null,"macAddress":null,"vendor":null,"deviceType":null,"purpose":null,"location":null,"subnetId":5,"status":"online","lastSeen":"2025-06-14T06:49:04.294Z","openPorts":[],"assignmentType":"dhcp","createdAt":"2025-06-13T07:10:42.079Z","updatedAt":"2025-06-14T06:49:04.294Z"},{"id":52,"ipAddress":"10.63.20.141","hostname":null,"macAddress":null,"vendor":null,"deviceType":null,"purpose":null,"location":null,"subnetId":5,"status":"online","lastSeen":"2025-06-14T06:49:04.296Z","openPorts":[],"assignmentType":"dhcp","createdAt":"2025-06-13T07:10:42.081Z","updatedAt":"2025-06-14T06:49:04.296Z"},{"id":19,"ipAddress":"10.63.20.15","hostname":null,"macAddress":null,"vendor":null,"deviceType":null,"purpose":null,"location":null,"subnetId":5,"status":"online","lastSeen":"2025-06-14T06:49:04.237Z","openPorts":[],"assignmentType":"dhcp","createdAt":"2025-06-13T07:10:42.019Z","updatedAt":"2025-06-14T06:49:04.237Z"},{"id":53,"ipAddress":"10.63.20.151","hostname":null,"macAddress":null,"vendor":null,"deviceType":null,"purpose":null,"location":null,"subnetId":5,"status":"online","lastSeen":"2025-06-14T06:49:04.297Z","openPorts":["22","80","554"],"assignmentType":"dhcp","createdAt":"2025-06-13T07:10:42.082Z","updatedAt":"2025-06-14T06:49:04.297Z"},{"id":54,"ipAddress":"10.63.20.154","hostname":null,"macAddress":null,"vendor":null,"deviceType":null,"purpose":null,"location":null,"subnetId":5,"status":"online","lastSeen":"2025-06-14T06:49:04.299Z","openPorts":["22","80","554"],"assignmentType":"dhcp","createdAt":"2025-06-13T07:10:42.083Z","updatedAt":"2025-06-14T06:49:04.299Z"},{"id":104,"ipAddress":"10.63.20.156","hostname":null,"macAddress":null,"vendor":null,"deviceType":null,"purpose":null,"location":null,"subnetId":5,"status":"online","lastSeen":"2025-06-14T06:49:04.300Z","openPorts":["80"],"assignmentType":"dhcp","createdAt":"2025-06-13T20:37:58.343Z","updatedAt":"2025-06-14T06:49:04.300Z"},{"id":103,"ipAddress":"10.63.20.158","hostname":null,"macAddress":null,"vendor":null,"deviceType":null,"purpose":null,"location":null,"subnetId":5,"status":"online","lastSeen":"2025-06-14T06:49:04.302Z","openPorts":["22","80","554"],"assignmentType":"dhcp","createdAt":"2025-06-13T07:15:42.046Z","updatedAt":"2025-06-14T06:49:04.302Z"},{"id":55,"ipAddress":"10.63.20.159","hostname":null,"macAddress":null,"vendor":null,"deviceType":null,"purpose":null,"location":null,"subnetId":5,"status":"online","lastSeen":"2025-06-14T06:49:04.303Z","openPorts":["22","80","554"],"assignmentType":"dhcp","createdAt":"2025-06-13T07:10:42.085Z","updatedAt":"2025-06-14T06:49:04.303Z"},{"id":20,"ipAddress":"10.63.20.16","hostname":null,"macAddress":null,"vendor":null,"deviceType":null,"purpose":null,"location":null,"subnetId":5,"status":"online","lastSeen":"2025-06-14T06:49:04.239Z","openPorts":["22"],"assignmentType":"dhcp","createdAt":"2025-06-13T07:10:42.021Z","updatedAt":"2025-06-14T06:49:04.239Z"},{"id":56,"ipAddress":"10.63.20.160","hostname":null,"macAddress":null,"vendor":null,"deviceType":null,"purpose":null,"location":null,"subnetId":5,"status":"online","lastSeen":"2025-06-14T06:49:04.305Z","openPorts":["22","80","554"],"assignmentType":"dhcp","createdAt":"2025-06-13T07:10:42.086Z","updatedAt":"2025-06-14T06:49:04.305Z"},{"id":57,"ipAddress":"10.63.20.161","hostname":null,"macAddress":null,"vendor":null,"deviceType":null,"purpose":null,"location":null,"subnetId":5,"status":"online","lastSeen":"2025-06-14T06:49:04.306Z","openPorts":["22","80","554"],"assignmentType":"dhcp","createdAt":"2025-06-13T07:10:42.088Z","updatedAt":"2025-06-14T06:49:04.306Z"},{"id":58,"ipAddress":"10.63.20.162","hostname":null,"macAddress":null,"vendor":null,"deviceType":null,"purpose":null,"location":null,"subnetId":5,"status":"online","lastSeen":"2025-06-14T06:49:04.309Z","openPorts":["22","80","554"],"assignmentType":"dhcp","createdAt":"2025-06-13T07:10:42.089Z","updatedAt":"2025-06-14T06:49:04.309Z"},{"id":59,"ipAddress":"10.63.20.163","hostname":null,"macAddress":null,"vendor":null,"deviceType":null,"purpose":null,"location":null,"subnetId":5,"status":"online","lastSeen":"2025-06-14T06:49:04.310Z","openPorts":["22","80","554"],"assignmentType":"dhcp","createdAt":"2025-06-13T07:10:42.092Z","updatedAt":"2025-06-14T06:49:04.310Z"},{"id":60,"ipAddress":"10.63.20.164","hostname":null,"macAddress":null,"vendor":null,"deviceType":null,"purpose":null,"location":null,"subnetId":5,"status":"online","lastSeen":"2025-06-14T06:49:04.312Z","openPorts":["22","80","554"],"assignmentType":"dhcp","createdAt":"2025-06-13T07:10:42.094Z","updatedAt":"2025-06-14T06:49:04.312Z"},{"id":61,"ipAddress":"10.63.20.165","hostname":null,"macAddress":null,"vendor":null,"deviceType":null,"purpose":null,"location":null,"subnetId":5,"status":"online","lastSeen":"2025-06-14T06:49:04.313Z","openPorts":["22","80","554"],"assignmentType":"dhcp","createdAt":"2025-06-13T07:10:42.096Z","updatedAt":"2025-06-14T06:49:04.313Z"},{"id":62,"ipAddress":"10.63.20.166","hostname":null,"macAddress":null,"vendor":null,"deviceType":null,"purpose":null,"location":null,"subnetId":5,"status":"online","lastSeen":"2025-06-14T06:49:04.315Z","openPorts":["22","80","554"],"assignmentType":"dhcp","createdAt":"2025-06-13T07:10:42.098Z","updatedAt":"2025-06-14T06:49:04.315Z"},{"id":63,"ipAddress":"10.63.20.167","hostname":null,"macAddress":null,"vendor":null,"deviceType":null,"purpose":null,"location":null,"subnetId":5,"status":"online","lastSeen":"2025-06-14T06:49:04.316Z","openPorts":["22","80","554"],"assignmentType":"dhcp","createdAt":"2025-06-13T07:10:42.100Z","updatedAt":"2025-06-14T06:49:04.316Z"},{"id":64,"ipAddress":"10.63.20.168","hostname":null,"macAddress":null,"vendor":null,"deviceType":null,"purpose":null,"location":null,"subnetId":5,"status":"online","lastSeen":"2025-06-14T06:49:04.318Z","openPorts":["22","80","554"],"assignmentType":"dhcp","createdAt":"2025-06-13T07:10:42.102Z","updatedAt":"2025-06-14T06:49:04.318Z"},{"id":65,"ipAddress":"10.63.20.169","hostname":null,"macAddress":null,"vendor":null,"deviceType":null,"purpose":null,"location":null,"subnetId":5,"status":"online","lastSeen":"2025-06-14T06:49:04.319Z","openPorts":["22","80","554"],"assignmentType":"dhcp","createdAt":"2025-06-13T07:10:42.103Z","updatedAt":"2025-06-14T06:49:04.319Z"},{"id":21,"ipAddress":"10.63.20.17","hostname":null,"macAddress":null,"vendor":null,"deviceType":null,"purpose":null,"location":null,"subnetId":5,"status":"online","lastSeen":"2025-06-14T06:49:04.241Z","openPorts":[],"assignmentType":"dhcp","createdAt":"2025-06-13T07:10:42.024Z","updatedAt":"2025-06-14T06:49:04.241Z"},{"id":66,"ipAddress":"10.63.20.170","hostname":null,"macAddress":null,"vendor":null,"deviceType":null,"purpose":null,"location":null,"subnetId":5,"status":"online","lastSeen":"2025-06-14T06:49:04.321Z","openPorts":[],"assignmentType":"dhcp","createdAt":"2025-06-13T07:10:42.105Z","updatedAt":"2025-06-14T06:49:04.321Z"},{"id":67,"ipAddress":"10.63.20.171","hostname":null,"macAddress":null,"vendor":null,"deviceType":null,"purpose":null,"location":null,"subnetId":5,"status":"online","lastSeen":"2025-06-14T06:49:04.323Z","openPorts":[],"assignmentType":"dhcp","createdAt":"2025-06-13T07:10:42.107Z","updatedAt":"2025-06-14T06:49:04.323Z"},{"id":68,"ipAddress":"10.63.20.172","hostname":null,"macAddress":null,"vendor":null,"deviceType":null,"purpose":null,"location":null,"subnetId":5,"status":"online","lastSeen":"2025-06-14T06:49:04.324Z","openPorts":[],"assignmentType":"dhcp","createdAt":"2025-06-13T07:10:42.109Z","updatedAt":"2025-06-14T06:49:04.324Z"},{"id":69,"ipAddress":"10.63.20.173","hostname":null,"macAddress":null,"vendor":null,"deviceType":null,"purpose":null,"location":null,"subnetId":5,"status":"online","lastSeen":"2025-06-14T06:49:04.326Z","openPorts":[],"assignmentType":"dhcp","createdAt":"2025-06-13T07:10:42.112Z","updatedAt":"2025-06-14T06:49:04.326Z"},{"id":70,"ipAddress":"10.63.20.174","hostname":null,"macAddress":null,"vendor":null,"deviceType":null,"purpose":null,"location":null,"subnetId":5,"status":"online","lastSeen":"2025-06-14T06:49:04.327Z","openPorts":[],"assignmentType":"dhcp","createdAt":"2025-06-13T07:10:42.114Z","updatedAt":"2025-06-14T06:49:04.327Z"},{"id":71,"ipAddress":"10.63.20.175","hostname":null,"macAddress":null,"vendor":null,"deviceType":null,"purpose":null,"location":null,"subnetId":5,"status":"online","lastSeen":"2025-06-14T06:49:04.329Z","openPorts":[],"assignmentType":"dhcp","createdAt":"2025-06-13T07:10:42.116Z","updatedAt":"2025-06-14T06:49:04.329Z"},{"id":72,"ipAddress":"10.63.20.176","hostname":null,"macAddress":null,"vendor":null,"deviceType":null,"purpose":null,"location":null,"subnetId":5,"status":"online","lastSeen":"2025-06-14T06:49:04.330Z","openPorts":[],"assignmentType":"dhcp","createdAt":"2025-06-13T07:10:42.118Z","updatedAt":"2025-06-14T06:49:04.330Z"},{"id":73,"ipAddress":"10.63.20.177","hostname":null,"macAddress":null,"vendor":null,"deviceType":null,"purpose":null,"location":null,"subnetId":5,"status":"online","lastSeen":"2025-06-14T06:49:04.332Z","openPorts":[],"assignmentType":"dhcp","createdAt":"2025-06-13T07:10:42.120Z","updatedAt":"2025-06-14T06:49:04.332Z"},{"id":74,"ipAddress":"10.63.20.178","hostname":null,"macAddress":null,"vendor":null,"deviceType":null,"purpose":null,"location":null,"subnetId":5,"status":"online","lastSeen":"2025-06-14T06:49:04.333Z","openPorts":[],"assignmentType":"dhcp","createdAt":"2025-06-13T07:10:42.121Z","updatedAt":"2025-06-14T06:49:04.333Z"},{"id":75,"ipAddress":"10.63.20.179","hostname":null,"macAddress":null,"vendor":null,"deviceType":null,"purpose":null,"location":null,"subnetId":5,"status":"online","lastSeen":"2025-06-14T06:49:04.335Z","openPorts":[],"assignmentType":"dhcp","createdAt":"2025-06-13T07:10:42.122Z","updatedAt":"2025-06-14T06:49:04.335Z"},{"id":22,"ipAddress":"10.63.20.18","hostname":null,"macAddress":null,"vendor":null,"deviceType":null,"purpose":null,"location":null,"subnetId":5,"status":"online","lastSeen":"2025-06-14T06:49:04.243Z","openPorts":["22"],"assignmentType":"dhcp","createdAt":"2025-06-13T07:10:42.026Z","updatedAt":"2025-06-14T06:49:04.243Z"},{"id":76,"ipAddress":"10.63.20.180","hostname":null,"macAddress":null,"vendor":null,"deviceType":null,"purpose":null,"location":null,"subnetId":5,"status":"online","lastSeen":"2025-06-14T06:49:04.337Z","openPorts":[],"assignmentType":"dhcp","createdAt":"2025-06-13T07:10:42.124Z","updatedAt":"2025-06-14T06:49:04.337Z"},{"id":77,"ipAddress":"10.63.20.181","hostname":null,"macAddress":null,"vendor":null,"deviceType":null,"purpose":null,"location":null,"subnetId":5,"status":"online","lastSeen":"2025-06-14T06:49:04.339Z","openPorts":[],"assignmentType":"dhcp","createdAt":"2025-06-13T07:10:42.125Z","updatedAt":"2025-06-14T06:49:04.339Z"},{"id":78,"ipAddress":"10.63.20.182","hostname":null,"macAddress":null,"vendor":null,"deviceType":null,"purpose":null,"location":null,"subnetId":5,"status":"online","lastSeen":"2025-06-14T06:49:04.340Z","openPorts":["22","80","554"],"assignmentType":"dhcp","createdAt":"2025-06-13T07:10:42.127Z","updatedAt":"2025-06-14T06:49:04.340Z"}],"total":"123","page":1,"limit":50,"totalPages":3}