obtv-admin@eng-control1:~/ipam-system$ curl -s http://localhost:5000/api/devices
{"data":[{"id":32,"ipAddress":"10.63.20.1","hostname":null,"macAddress":null,"vendor":null,"deviceType":null,"purpose":null,"location":null,"subnetId":2,"status":"online","lastSeen":"2025-06-16T18:45:43.046Z","openPorts":["22","80","443"],"assignmentType":"static","createdAt":"2025-06-14T22:06:50.016Z","updatedAt":"2025-06-16T18:45:43.046Z"},{"id":35,"ipAddress":"10.63.20.10","hostname":null,"macAddress":null,"vendor":null,"deviceType":null,"purpose":null,"location":null,"subnetId":2,"status":"online","lastSeen":"2025-06-16T18:45:43.052Z","openPorts":["80"],"assignmentType":"static","createdAt":"2025-06-14T22:06:50.025Z","updatedAt":"2025-06-16T18:45:43.052Z"},{"id":60,"ipAddress":"10.63.20.101","hostname":null,"macAddress":null,"vendor":null,"deviceType":null,"purpose":null,"location":null,"subnetId":2,"status":"online","lastSeen":"2025-06-16T18:45:43.087Z","openPorts":["22","80","139","443","445"],"assignmentType":"static","createdAt":"2025-06-14T22:06:50.065Z","updatedAt":"2025-06-16T18:45:43.087Z"},{"id":61,"ipAddress":"10.63.20.102","hostname":null,"macAddress":null,"vendor":null,"deviceType":null,"purpose":null,"location":null,"subnetId":2,"status":"online","lastSeen":"2025-06-16T18:45:43.089Z","openPorts":["135","139","445"],"assignmentType":"static","createdAt":"2025-06-14T22:06:50.067Z","updatedAt":"2025-06-16T18:45:43.089Z"},{"id":62,"ipAddress":"10.63.20.103","hostname":null,"macAddress":null,"vendor":null,"deviceType":null,"purpose":null,"location":null,"subnetId":2,"status":"online","lastSeen":"2025-06-16T18:45:43.090Z","openPorts":[],"assignmentType":"static","createdAt":"2025-06-14T22:06:50.069Z","updatedAt":"2025-06-16T18:45:43.090Z"},{"id":63,"ipAddress":"10.63.20.105","hostname":null,"macAddress":null,"vendor":null,"deviceType":null,"purpose":null,"location":null,"subnetId":2,"status":"online","lastSeen":"2025-06-16T18:45:43.092Z","openPorts":["22","23","80","443"],"assignmentType":"static","createdAt":"2025-06-14T22:06:50.070Z","updatedAt":"2025-06-16T18:45:43.092Z"},{"id":36,"ipAddress":"10.63.20.11","hostname":null,"macAddress":null,"vendor":null,"deviceType":null,"purpose":null,"location":null,"subnetId":2,"status":"online","lastSeen":"2025-06-16T18:45:43.054Z","openPorts":["80"],"assignmentType":"static","createdAt":"2025-06-14T22:06:50.026Z","updatedAt":"2025-06-16T18:45:43.054Z"},{"id":64,"ipAddress":"10.63.20.110","hostname":null,"macAddress":null,"vendor":null,"deviceType":null,"purpose":null,"location":null,"subnetId":2,"status":"online","lastSeen":"2025-06-16T18:45:43.095Z","openPorts":["22","80","139","443","445"],"assignmentType":"static","createdAt":"2025-06-14T22:06:50.072Z","updatedAt":"2025-06-16T18:45:43.095Z"},{"id":65,"ipAddress":"10.63.20.115","hostname":null,"macAddress":null,"vendor":null,"deviceType":null,"purpose":null,"location":null,"subnetId":2,"status":"online","lastSeen":"2025-06-16T18:45:43.098Z","openPorts":[],"assignmentType":"static","createdAt":"2025-06-14T22:06:50.073Z","updatedAt":"2025-06-16T18:45:43.098Z"},{"id":66,"ipAddress":"10.63.20.116","hostname":null,"macAddress":null,"vendor":null,"deviceType":null,"purpose":null,"location":null,"subnetId":2,"status":"online","lastSeen":"2025-06-16T18:45:43.100Z","openPorts":[],"assignmentType":"static","createdAt":"2025-06-14T22:06:50.075Z","updatedAt":"2025-06-16T18:45:43.100Z"},{"id":37,"ipAddress":"10.63.20.12","hostname":null,"macAddress":null,"vendor":null,"deviceType":null,"purpose":null,"location":null,"subnetId":2,"status":"online","lastSeen":"2025-06-16T18:45:43.055Z","openPorts":["80"],"assignmentType":"static","createdAt":"2025-06-14T22:06:50.028Z","updatedAt":"2025-06-16T18:45:43.055Z"},{"id":67,"ipAddress":"10.63.20.122","hostname":null,"macAddress":null,"vendor":null,"deviceType":null,"purpose":null,"location":null,"subnetId":2,"status":"online","lastSeen":"2025-06-16T18:45:43.102Z","openPorts":["135","139","445"],"assignmentType":"static","createdAt":"2025-06-14T22:06:50.076Z","updatedAt":"2025-06-16T18:45:43.102Z"},{"id":68,"ipAddress":"10.63.20.129","hostname":null,"macAddress":null,"vendor":null,"deviceType":null,"purpose":null,"location":null,"subnetId":2,"status":"online","lastSeen":"2025-06-16T18:45:43.104Z","openPorts":["80","443"],"assignmentType":"static","createdAt":"2025-06-14T22:06:50.078Z","updatedAt":"2025-06-16T18:45:43.104Z"},{"id":69,"ipAddress":"10.63.20.130","hostname":null,"macAddress":null,"vendor":null,"deviceType":null,"purpose":null,"location":null,"subnetId":2,"status":"online","lastSeen":"2025-06-16T18:45:43.105Z","openPorts":["80","443"],"assignmentType":"static","createdAt":"2025-06-14T22:06:50.080Z","updatedAt":"2025-06-16T18:45:43.105Z"},{"id":70,"ipAddress":"10.63.20.131","hostname":null,"macAddress":null,"vendor":null,"deviceType":null,"purpose":null,"location":null,"subnetId":2,"status":"online","lastSeen":"2025-06-16T18:45:43.107Z","openPorts":["22"],"assignmentType":"static","createdAt":"2025-06-14T22:06:50.081Z","updatedAt":"2025-06-16T18:45:43.107Z"},{"id":38,"ipAddress":"10.63.20.14","hostname":null,"macAddress":null,"vendor":null,"deviceType":null,"purpose":null,"location":null,"subnetId":2,"status":"online","lastSeen":"2025-06-16T18:45:43.056Z","openPorts":["80"],"assignmentType":"static","createdAt":"2025-06-14T22:06:50.030Z","updatedAt":"2025-06-16T18:45:43.056Z"},{"id":71,"ipAddress":"10.63.20.140","hostname":null,"macAddress":null,"vendor":null,"deviceType":null,"purpose":null,"location":null,"subnetId":2,"status":"online","lastSeen":"2025-06-16T18:45:43.108Z","openPorts":[],"assignmentType":"static","createdAt":"2025-06-14T22:06:50.083Z","updatedAt":"2025-06-16T18:45:43.108Z"},{"id":72,"ipAddress":"10.63.20.141","hostname":null,"macAddress":null,"vendor":null,"deviceType":null,"purpose":null,"location":null,"subnetId":2,"status":"online","lastSeen":"2025-06-16T18:45:43.109Z","openPorts":[],"assignmentType":"static","createdAt":"2025-06-14T22:06:50.084Z","updatedAt":"2025-06-16T18:45:43.109Z"},{"id":39,"ipAddress":"10.63.20.15","hostname":null,"macAddress":null,"vendor":null,"deviceType":null,"purpose":null,"location":null,"subnetId":2,"status":"online","lastSeen":"2025-06-16T18:45:43.058Z","openPorts":["135","139","445"],"assignmentType":"static","createdAt":"2025-06-14T22:06:50.031Z","updatedAt":"2025-06-16T18:45:43.058Z"},{"id":73,"ipAddress":"10.63.20.151","hostname":null,"macAddress":null,"vendor":null,"deviceType":null,"purpose":null,"location":null,"subnetId":2,"status":"online","lastSeen":"2025-06-16T18:45:43.111Z","openPorts":["22","80"],"assignmentType":"static","createdAt":"2025-06-14T22:06:50.086Z","updatedAt":"2025-06-16T18:45:43.111Z"},{"id":74,"ipAddress":"10.63.20.154","hostname":null,"macAddress":null,"vendor":null,"deviceType":null,"purpose":null,"location":null,"subnetId":2,"status":"online","lastSeen":"2025-06-16T18:45:43.112Z","openPorts":["22","80"],"assignmentType":"static","createdAt":"2025-06-14T22:06:50.088Z","updatedAt":"2025-06-16T18:45:43.112Z"},{"id":75,"ipAddress":"10.63.20.156","hostname":null,"macAddress":null,"vendor":null,"deviceType":null,"purpose":null,"location":null,"subnetId":2,"status":"online","lastSeen":"2025-06-16T18:45:43.113Z","openPorts":["80"],"assignmentType":"static","createdAt":"2025-06-14T22:06:50.089Z","updatedAt":"2025-06-16T18:45:43.113Z"},{"id":76,"ipAddress":"10.63.20.158","hostname":null,"macAddress":null,"vendor":null,"deviceType":null,"purpose":null,"location":null,"subnetId":2,"status":"online","lastSeen":"2025-06-16T18:45:43.115Z","openPorts":["22","80"],"assignmentType":"static","createdAt":"2025-06-14T22:06:50.091Z","updatedAt":"2025-06-16T18:45:43.115Z"},{"id":77,"ipAddress":"10.63.20.159","hostname":null,"macAddress":null,"vendor":null,"deviceType":null,"purpose":null,"location":null,"subnetId":2,"status":"online","lastSeen":"2025-06-16T18:45:43.116Z","openPorts":["22","80"],"assignmentType":"static","createdAt":"2025-06-14T22:06:50.092Z","updatedAt":"2025-06-16T18:45:43.116Z"},{"id":40,"ipAddress":"10.63.20.16","hostname":null,"macAddress":null,"vendor":null,"deviceType":null,"purpose":null,"location":null,"subnetId":2,"status":"online","lastSeen":"2025-06-16T18:45:43.059Z","openPorts":["22"],"assignmentType":"static","createdAt":"2025-06-14T22:06:50.033Z","updatedAt":"2025-06-16T18:45:43.059Z"},{"id":78,"ipAddress":"10.63.20.160","hostname":null,"macAddress":null,"vendor":null,"deviceType":null,"purpose":null,"location":null,"subnetId":2,"status":"online","lastSeen":"2025-06-16T18:45:43.117Z","openPorts":["22","80"],"assignmentType":"static","createdAt":"2025-06-14T22:06:50.095Z","updatedAt":"2025-06-16T18:45:43.117Z"},{"id":79,"ipAddress":"10.63.20.161","hostname":null,"macAddress":null,"vendor":null,"deviceType":null,"purpose":null,"location":null,"subnetId":2,"status":"online","lastSeen":"2025-06-16T18:45:43.119Z","openPorts":["22","80"],"assignmentType":"static","createdAt":"2025-06-14T22:06:50.097Z","updatedAt":"2025-06-16T18:45:43.119Z"},{"id":80,"ipAddress":"10.63.20.162","hostname":null,"macAddress":null,"vendor":null,"deviceType":null,"purpose":null,"location":null,"subnetId":2,"status":"online","lastSeen":"2025-06-16T18:45:43.120Z","openPorts":["22","80"],"assignmentType":"static","createdAt":"2025-06-14T22:06:50.099Z","updatedAt":"2025-06-16T18:45:43.120Z"},{"id":81,"ipAddress":"10.63.20.163","hostname":null,"macAddress":null,"vendor":null,"deviceType":null,"purpose":null,"location":null,"subnetId":2,"status":"online","lastSeen":"2025-06-16T18:45:43.122Z","openPorts":["22","80"],"assignmentType":"static","createdAt":"2025-06-14T22:06:50.101Z","updatedAt":"2025-06-16T18:45:43.122Z"},{"id":82,"ipAddress":"10.63.20.164","hostname":null,"macAddress":null,"vendor":null,"deviceType":null,"purpose":null,"location":null,"subnetId":2,"status":"online","lastSeen":"2025-06-16T18:45:43.123Z","openPorts":["22","80"],"assignmentType":"static","createdAt":"2025-06-14T22:06:50.102Z","updatedAt":"2025-06-16T18:45:43.123Z"},{"id":83,"ipAddress":"10.63.20.165","hostname":null,"macAddress":null,"vendor":null,"deviceType":null,"purpose":null,"location":null,"subnetId":2,"status":"online","lastSeen":"2025-06-16T18:45:43.124Z","openPorts":["22","80"],"assignmentType":"static","createdAt":"2025-06-14T22:06:50.104Z","updatedAt":"2025-06-16T18:45:43.124Z"},{"id":84,"ipAddress":"10.63.20.166","hostname":null,"macAddress":null,"vendor":null,"deviceType":null,"purpose":null,"location":null,"subnetId":2,"status":"online","lastSeen":"2025-06-16T18:45:43.126Z","openPorts":["22","80"],"assignmentType":"static","createdAt":"2025-06-14T22:06:50.106Z","updatedAt":"2025-06-16T18:45:43.126Z"},{"id":85,"ipAddress":"10.63.20.167","hostname":null,"macAddress":null,"vendor":null,"deviceType":null,"purpose":null,"location":null,"subnetId":2,"status":"online","lastSeen":"2025-06-16T18:45:43.127Z","openPorts":["22","80"],"assignmentType":"static","createdAt":"2025-06-14T22:06:50.107Z","updatedAt":"2025-06-16T18:45:43.127Z"},{"id":86,"ipAddress":"10.63.20.168","hostname":null,"macAddress":null,"vendor":null,"deviceType":null,"purpose":null,"location":null,"subnetId":2,"status":"online","lastSeen":"2025-06-16T18:45:43.129Z","openPorts":["22","80"],"assignmentType":"static","createdAt":"2025-06-14T22:06:50.109Z","updatedAt":"2025-06-16T18:45:43.129Z"},{"id":87,"ipAddress":"10.63.20.169","hostname":null,"macAddress":null,"vendor":null,"deviceType":null,"purpose":null,"location":null,"subnetId":2,"status":"online","lastSeen":"2025-06-16T18:45:43.130Z","openPorts":["22","80"],"assignmentType":"static","createdAt":"2025-06-14T22:06:50.111Z","updatedAt":"2025-06-16T18:45:43.130Z"},{"id":41,"ipAddress":"10.63.20.17","hostname":null,"macAddress":null,"vendor":null,"deviceType":null,"purpose":null,"location":null,"subnetId":2,"status":"online","lastSeen":"2025-06-16T18:45:43.060Z","openPorts":["135","139","445"],"assignmentType":"static","createdAt":"2025-06-14T22:06:50.034Z","updatedAt":"2025-06-16T18:45:43.060Z"},{"id":88,"ipAddress":"10.63.20.170","hostname":null,"macAddress":null,"vendor":null,"deviceType":null,"purpose":null,"location":null,"subnetId":2,"status":"online","lastSeen":"2025-06-16T18:45:43.132Z","openPorts":[],"assignmentType":"static","createdAt":"2025-06-14T22:06:50.113Z","updatedAt":"2025-06-16T18:45:43.132Z"},{"id":89,"ipAddress":"10.63.20.171","hostname":null,"macAddress":null,"vendor":null,"deviceType":null,"purpose":null,"location":null,"subnetId":2,"status":"online","lastSeen":"2025-06-16T18:45:43.133Z","openPorts":[],"assignmentType":"static","createdAt":"2025-06-14T22:06:50.115Z","updatedAt":"2025-06-16T18:45:43.133Z"},{"id":90,"ipAddress":"10.63.20.172","hostname":null,"macAddress":null,"vendor":null,"deviceType":null,"purpose":null,"location":null,"subnetId":2,"status":"online","lastSeen":"2025-06-16T18:45:43.135Z","openPorts":[],"assignmentType":"static","createdAt":"2025-06-14T22:06:50.117Z","updatedAt":"2025-06-16T18:45:43.135Z"},{"id":91,"ipAddress":"10.63.20.173","hostname":null,"macAddress":null,"vendor":null,"deviceType":null,"purpose":null,"location":null,"subnetId":2,"status":"online","lastSeen":"2025-06-16T18:45:43.137Z","openPorts":[],"assignmentType":"static","createdAt":"2025-06-14T22:06:50.120Z","updatedAt":"2025-06-16T18:45:43.137Z"},{"id":92,"ipAddress":"10.63.20.174","hostname":null,"macAddress":null,"vendor":null,"deviceType":null,"purpose":null,"location":null,"subnetId":2,"status":"online","lastSeen":"2025-06-16T18:45:43.138Z","openPorts":[],"assignmentType":"static","createdAt":"2025-06-14T22:06:50.122Z","updatedAt":"2025-06-16T18:45:43.138Z"},{"id":93,"ipAddress":"10.63.20.175","hostname":null,"macAddress":null,"vendor":null,"deviceType":null,"purpose":null,"location":null,"subnetId":2,"status":"online","lastSeen":"2025-06-16T18:45:43.140Z","openPorts":[],"assignmentType":"static","createdAt":"2025-06-14T22:06:50.124Z","updatedAt":"2025-06-16T18:45:43.140Z"},{"id":94,"ipAddress":"10.63.20.176","hostname":null,"macAddress":null,"vendor":null,"deviceType":null,"purpose":null,"location":null,"subnetId":2,"status":"online","lastSeen":"2025-06-16T18:45:43.141Z","openPorts":[],"assignmentType":"static","createdAt":"2025-06-14T22:06:50.125Z","updatedAt":"2025-06-16T18:45:43.141Z"},{"id":95,"ipAddress":"10.63.20.177","hostname":null,"macAddress":null,"vendor":null,"deviceType":null,"purpose":null,"location":null,"subnetId":2,"status":"online","lastSeen":"2025-06-16T18:45:43.143Z","openPorts":[],"assignmentType":"static","createdAt":"2025-06-14T22:06:50.127Z","updatedAt":"2025-06-16T18:45:43.143Z"},{"id":96,"ipAddress":"10.63.20.178","hostname":null,"macAddress":null,"vendor":null,"deviceType":null,"purpose":null,"location":null,"subnetId":2,"status":"online","lastSeen":"2025-06-16T18:45:43.144Z","openPorts":[],"assignmentType":"static","createdAt":"2025-06-14T22:06:50.128Z","updatedAt":"2025-06-16T18:45:43.144Z"},{"id":97,"ipAddress":"10.63.20.179","hostname":null,"macAddress":null,"vendor":null,"deviceType":null,"purpose":null,"location":null,"subnetId":2,"status":"online","lastSeen":"2025-06-16T18:45:43.146Z","openPorts":[],"assignmentType":"static","createdAt":"2025-06-14T22:06:50.130Z","updatedAt":"2025-06-16T18:45:43.146Z"},{"id":42,"ipAddress":"10.63.20.18","hostname":null,"macAddress":null,"vendor":null,"deviceType":null,"purpose":null,"location":null,"subnetId":2,"status":"online","lastSeen":"2025-06-16T18:45:43.062Z","openPorts":["22"],"assignmentType":"static","createdAt":"2025-06-14T22:06:50.036Z","updatedAt":"2025-06-16T18:45:43.062Z"},{"id":98,"ipAddress":"10.63.20.180","hostname":null,"macAddress":null,"vendor":null,"deviceType":null,"purpose":null,"location":null,"subnetId":2,"status":"online","lastSeen":"2025-06-16T18:45:43.147Z","openPorts":[],"assignmentType":"static","createdAt":"2025-06-14T22:06:50.131Z","updatedAt":"2025-06-16T18:45:43.147Z"},{"id":99,"ipAddress":"10.63.20.181","hostname":null,"macAddress":null,"vendor":null,"deviceType":null,"purpose":null,"location":null,"subnetId":2,"status":"online","lastSeen":"2025-06-16T18:45:43.149Z","openPorts":[],"assignmentType":"static","createdAt":"2025-06-14T22:06:50.133Z","updatedAt":"2025-06-16T18:45:43.149Z"},{"id":100,"ipAddress":"10.63.20.182","hostname":null,"macAddress":null,"vendor":null,"deviceType":null,"purpose":null,"location":null,"subnetId":2,"status":"online","lastSeen":"2025-06-16T18:45:43.151Z","openPorts":["22","80"],"assignmentType":"static","createdAt":"2025-06-14T22:06:50.134Z","updatedAt":"2025-06-16T18:45:43.151Z"}],"total":123,"page":1,"limit":50,"totalPages":3}obtv-admin@eng-control1:~/ipam-system$