{"data":[{"id":44,"ipAddress":"10.63.20.1","hostname":null,"macAddress":null,"vendor":null,"deviceType":null,"purpose":null,"location":null,"subnetId":11,"status":"online","lastSeen":"2025-06-14T18:15:07.824Z","openPorts":["22","80","443"],"assignmentType":"static","createdAt":"2025-06-14T18:15:07.825Z","updatedAt":"2025-06-14T18:15:07.824Z"},{"id":47,"ipAddress":"10.63.20.10","hostname":null,"macAddress":null,"vendor":null,"deviceType":null,"purpose":null,"location":null,"subnetId":11,"status":"online","lastSeen":"2025-06-14T18:15:07.836Z","openPorts":["80"],"assignmentType":"static","createdAt":"2025-06-14T18:15:07.837Z","updatedAt":"2025-06-14T18:15:07.836Z"},{"id":72,"ipAddress":"10.63.20.101","hostname":null,"macAddress":null,"vendor":null,"deviceType":null,"purpose":null,"location":null,"subnetId":11,"status":"online","lastSeen":"2025-06-14T18:15:07.896Z","openPorts":["22","80","443"],"assignmentType":"static","createdAt":"2025-06-14T18:15:07.896Z","updatedAt":"2025-06-14T18:15:07.896Z"},{"id":73,"ipAddress":"10.63.20.102","hostname":null,"macAddress":null,"vendor":null,"deviceType":null,"purpose":null,"location":null,"subnetId":11,"status":"online","lastSeen":"2025-06-14T18:15:07.899Z","openPorts":[],"assignmentType":"static","createdAt":"2025-06-14T18:15:07.899Z","updatedAt":"2025-06-14T18:15:07.899Z"},{"id":74,"ipAddress":"10.63.20.103","hostname":null,"macAddress":null,"vendor":null,"deviceType":null,"purpose":null,"location":null,"subnetId":11,"status":"online","lastSeen":"2025-06-14T18:15:07.901Z","openPorts":[],"assignmentType":"static","createdAt":"2025-06-14T18:15:07.901Z","updatedAt":"2025-06-14T18:15:07.901Z"},{"id":75,"ipAddress":"10.63.20.105","hostname":null,"macAddress":null,"vendor":null,"deviceType":null,"purpose":null,"location":null,"subnetId":11,"status":"online","lastSeen":"2025-06-14T18:15:07.903Z","openPorts":["22","23","80","443"],"assignmentType":"static","createdAt":"2025-06-14T18:15:07.903Z","updatedAt":"2025-06-14T18:15:07.903Z"},{"id":48,"ipAddress":"10.63.20.11","hostname":null,"macAddress":null,"vendor":null,"deviceType":null,"purpose":null,"location":null,"subnetId":11,"status":"online","lastSeen":"2025-06-14T18:15:07.839Z","openPorts":["80"],"assignmentType":"static","createdAt":"2025-06-14T18:15:07.840Z","updatedAt":"2025-06-14T18:15:07.839Z"},{"id":76,"ipAddress":"10.63.20.110","hostname":null,"macAddress":null,"vendor":null,"deviceType":null,"purpose":null,"location":null,"subnetId":11,"status":"online","lastSeen":"2025-06-14T18:15:07.905Z","openPorts":["22","80","443"],"assignmentType":"static","createdAt":"2025-06-14T18:15:07.905Z","updatedAt":"2025-06-14T18:15:07.905Z"},{"id":77,"ipAddress":"10.63.20.115","hostname":null,"macAddress":null,"vendor":null,"deviceType":null,"purpose":null,"location":null,"subnetId":11,"status":"online","lastSeen":"2025-06-14T18:15:07.907Z","openPorts":[],"assignmentType":"static","createdAt":"2025-06-14T18:15:07.907Z","updatedAt":"2025-06-14T18:15:07.907Z"},{"id":78,"ipAddress":"10.63.20.116","hostname":null,"macAddress":null,"vendor":null,"deviceType":null,"purpose":null,"location":null,"subnetId":11,"status":"online","lastSeen":"2025-06-14T18:15:07.909Z","openPorts":[],"assignmentType":"static","createdAt":"2025-06-14T18:15:07.909Z","updatedAt":"2025-06-14T18:15:07.909Z"},{"id":49,"ipAddress":"10.63.20.12","hostname":null,"macAddress":null,"vendor":null,"deviceType":null,"purpose":null,"location":null,"subnetId":11,"status":"online","lastSeen":"2025-06-14T18:15:07.842Z","openPorts":["80"],"assignmentType":"static","createdAt":"2025-06-14T18:15:07.842Z","updatedAt":"2025-06-14T18:15:07.842Z"},{"id":79,"ipAddress":"10.63.20.122","hostname":null,"macAddress":null,"vendor":null,"deviceType":null,"purpose":null,"location":null,"subnetId":11,"status":"online","lastSeen":"2025-06-14T18:15:07.911Z","openPorts":[],"assignmentType":"static","createdAt":"2025-06-14T18:15:07.912Z","updatedAt":"2025-06-14T18:15:07.911Z"},{"id":80,"ipAddress":"10.63.20.129","hostname":null,"macAddress":null,"vendor":null,"deviceType":null,"purpose":null,"location":null,"subnetId":11,"status":"online","lastSeen":"2025-06-14T18:15:07.913Z","openPorts":["80","443"],"assignmentType":"static","createdAt":"2025-06-14T18:15:07.914Z","updatedAt":"2025-06-14T18:15:07.913Z"},{"id":81,"ipAddress":"10.63.20.130","hostname":null,"macAddress":null,"vendor":null,"deviceType":null,"purpose":null,"location":null,"subnetId":11,"status":"online","lastSeen":"2025-06-14T18:15:07.915Z","openPorts":["80","443"],"assignmentType":"static","createdAt":"2025-06-14T18:15:07.916Z","updatedAt":"2025-06-14T18:15:07.915Z"},{"id":82,"ipAddress":"10.63.20.131","hostname":null,"macAddress":null,"vendor":null,"deviceType":null,"purpose":null,"location":null,"subnetId":11,"status":"online","lastSeen":"2025-06-14T18:15:07.918Z","openPorts":["22"],"assignmentType":"static","createdAt":"2025-06-14T18:15:07.918Z","updatedAt":"2025-06-14T18:15:07.918Z"},{"id":50,"ipAddress":"10.63.20.14","hostname":null,"macAddress":null,"vendor":null,"deviceType":null,"purpose":null,"location":null,"subnetId":11,"status":"online","lastSeen":"2025-06-14T18:15:07.845Z","openPorts":["80"],"assignmentType":"static","createdAt":"2025-06-14T18:15:07.845Z","updatedAt":"2025-06-14T18:15:07.845Z"},{"id":83,"ipAddress":"10.63.20.140","hostname":null,"macAddress":null,"vendor":null,"deviceType":null,"purpose":null,"location":null,"subnetId":11,"status":"online","lastSeen":"2025-06-14T18:15:07.920Z","openPorts":[],"assignmentType":"static","createdAt":"2025-06-14T18:15:07.920Z","updatedAt":"2025-06-14T18:15:07.920Z"},{"id":84,"ipAddress":"10.63.20.141","hostname":null,"macAddress":null,"vendor":null,"deviceType":null,"purpose":null,"location":null,"subnetId":11,"status":"online","lastSeen":"2025-06-14T18:15:07.922Z","openPorts":[],"assignmentType":"static","createdAt":"2025-06-14T18:15:07.922Z","updatedAt":"2025-06-14T18:15:07.922Z"},{"id":51,"ipAddress":"10.63.20.15","hostname":null,"macAddress":null,"vendor":null,"deviceType":null,"purpose":null,"location":null,"subnetId":11,"status":"online","lastSeen":"2025-06-14T18:15:07.847Z","openPorts":[],"assignmentType":"static","createdAt":"2025-06-14T18:15:07.848Z","updatedAt":"2025-06-14T18:15:07.847Z"},{"id":85,"ipAddress":"10.63.20.151","hostname":null,"macAddress":null,"vendor":null,"deviceType":null,"purpose":null,"location":null,"subnetId":11,"status":"online","lastSeen":"2025-06-14T18:15:07.924Z","openPorts":["22","80","554"],"assignmentType":"static","createdAt":"2025-06-14T18:15:07.924Z","updatedAt":"2025-06-14T18:15:07.924Z"},{"id":86,"ipAddress":"10.63.20.154","hostname":null,"macAddress":null,"vendor":null,"deviceType":null,"purpose":null,"location":null,"subnetId":11,"status":"online","lastSeen":"2025-06-14T18:15:07.926Z","openPorts":["22","80","554"],"assignmentType":"static","createdAt":"2025-06-14T18:15:07.927Z","updatedAt":"2025-06-14T18:15:07.926Z"},{"id":87,"ipAddress":"10.63.20.156","hostname":null,"macAddress":null,"vendor":null,"deviceType":null,"purpose":null,"location":null,"subnetId":11,"status":"online","lastSeen":"2025-06-14T18:15:07.929Z","openPorts":["80"],"assignmentType":"static","createdAt":"2025-06-14T18:15:07.929Z","updatedAt":"2025-06-14T18:15:07.929Z"},{"id":88,"ipAddress":"10.63.20.158","hostname":null,"macAddress":null,"vendor":null,"deviceType":null,"purpose":null,"location":null,"subnetId":11,"status":"online","lastSeen":"2025-06-14T18:15:07.931Z","openPorts":["22","80","554"],"assignmentType":"static","createdAt":"2025-06-14T18:15:07.931Z","updatedAt":"2025-06-14T18:15:07.931Z"},{"id":89,"ipAddress":"10.63.20.159","hostname":null,"macAddress":null,"vendor":null,"deviceType":null,"purpose":null,"location":null,"subnetId":11,"status":"online","lastSeen":"2025-06-14T18:15:07.933Z","openPorts":["22","80","554"],"assignmentType":"static","createdAt":"2025-06-14T18:15:07.933Z","updatedAt":"2025-06-14T18:15:07.933Z"},{"id":52,"ipAddress":"10.63.20.16","hostname":null,"macAddress":null,"vendor":null,"deviceType":null,"purpose":null,"location":null,"subnetId":11,"status":"online","lastSeen":"2025-06-14T18:15:07.850Z","openPorts":["22"],"assignmentType":"static","createdAt":"2025-06-14T18:15:07.851Z","updatedAt":"2025-06-14T18:15:07.850Z"},{"id":90,"ipAddress":"10.63.20.160","hostname":null,"macAddress":null,"vendor":null,"deviceType":null,"purpose":null,"location":null,"subnetId":11,"status":"online","lastSeen":"2025-06-14T18:15:07.935Z","openPorts":["22","80","554"],"assignmentType":"static","createdAt":"2025-06-14T18:15:07.935Z","updatedAt":"2025-06-14T18:15:07.935Z"},{"id":91,"ipAddress":"10.63.20.161","hostname":null,"macAddress":null,"vendor":null,"deviceType":null,"purpose":null,"location":null,"subnetId":11,"status":"online","lastSeen":"2025-06-14T18:15:07.937Z","openPorts":["22","80","554"],"assignmentType":"static","createdAt":"2025-06-14T18:15:07.938Z","updatedAt":"2025-06-14T18:15:07.938Z"},{"id":92,"ipAddress":"10.63.20.162","hostname":null,"macAddress":null,"vendor":null,"deviceType":null,"purpose":null,"location":null,"subnetId":11,"status":"online","lastSeen":"2025-06-14T18:15:07.940Z","openPorts":["22","80","554"],"assignmentType":"static","createdAt":"2025-06-14T18:15:07.940Z","updatedAt":"2025-06-14T18:15:07.940Z"},{"id":93,"ipAddress":"10.63.20.163","hostname":null,"macAddress":null,"vendor":null,"deviceType":null,"purpose":null,"location":null,"subnetId":11,"status":"online","lastSeen":"2025-06-14T18:15:07.942Z","openPorts":["22","80","554"],"assignmentType":"static","createdAt":"2025-06-14T18:15:07.942Z","updatedAt":"2025-06-14T18:15:07.942Z"},{"id":94,"ipAddress":"10.63.20.164","hostname":null,"macAddress":null,"vendor":null,"deviceType":null,"purpose":null,"location":null,"subnetId":11,"status":"online","lastSeen":"2025-06-14T18:15:07.944Z","openPorts":["22","80","554"],"assignmentType":"static","createdAt":"2025-06-14T18:15:07.944Z","updatedAt":"2025-06-14T18:15:07.944Z"},{"id":95,"ipAddress":"10.63.20.165","hostname":null,"macAddress":null,"vendor":null,"deviceType":null,"purpose":null,"location":null,"subnetId":11,"status":"online","lastSeen":"2025-06-14T18:15:07.946Z","openPorts":["22","80","554"],"assignmentType":"static","createdAt":"2025-06-14T18:15:07.946Z","updatedAt":"2025-06-14T18:15:07.946Z"},{"id":96,"ipAddress":"10.63.20.166","hostname":null,"macAddress":null,"vendor":null,"deviceType":null,"purpose":null,"location":null,"subnetId":11,"status":"online","lastSeen":"2025-06-14T18:15:07.948Z","openPorts":["22","80","554"],"assignmentType":"static","createdAt":"2025-06-14T18:15:07.948Z","updatedAt":"2025-06-14T18:15:07.948Z"},{"id":97,"ipAddress":"10.63.20.167","hostname":null,"macAddress":null,"vendor":null,"deviceType":null,"purpose":null,"location":null,"subnetId":11,"status":"online","lastSeen":"2025-06-14T18:15:07.950Z","openPorts":["22","80","554"],"assignmentType":"static","createdAt":"2025-06-14T18:15:07.951Z","updatedAt":"2025-06-14T18:15:07.950Z"},{"id":98,"ipAddress":"10.63.20.168","hostname":null,"macAddress":null,"vendor":null,"deviceType":null,"purpose":null,"location":null,"subnetId":11,"status":"online","lastSeen":"2025-06-14T18:15:07.952Z","openPorts":["22","80","554"],"assignmentType":"static","createdAt":"2025-06-14T18:15:07.953Z","updatedAt":"2025-06-14T18:15:07.952Z"},{"id":99,"ipAddress":"10.63.20.169","hostname":null,"macAddress":null,"vendor":null,"deviceType":null,"purpose":null,"location":null,"subnetId":11,"status":"online","lastSeen":"2025-06-14T18:15:07.955Z","openPorts":["22","80","554"],"assignmentType":"static","createdAt":"2025-06-14T18:15:07.956Z","updatedAt":"2025-06-14T18:15:07.955Z"},{"id":53,"ipAddress":"10.63.20.17","hostname":null,"macAddress":null,"vendor":null,"deviceType":null,"purpose":null,"location":null,"subnetId":11,"status":"online","lastSeen":"2025-06-14T18:15:07.853Z","openPorts":[],"assignmentType":"static","createdAt":"2025-06-14T18:15:07.853Z","updatedAt":"2025-06-14T18:15:07.853Z"},{"id":100,"ipAddress":"10.63.20.170","hostname":null,"macAddress":null,"vendor":null,"deviceType":null,"purpose":null,"location":null,"subnetId":11,"status":"online","lastSeen":"2025-06-14T18:15:07.958Z","openPorts":[],"assignmentType":"static","createdAt":"2025-06-14T18:15:07.959Z","updatedAt":"2025-06-14T18:15:07.958Z"},{"id":101,"ipAddress":"10.63.20.171","hostname":null,"macAddress":null,"vendor":null,"deviceType":null,"purpose":null,"location":null,"subnetId":11,"status":"online","lastSeen":"2025-06-14T18:15:07.960Z","openPorts":[],"assignmentType":"static","createdAt":"2025-06-14T18:15:07.961Z","updatedAt":"2025-06-14T18:15:07.960Z"},{"id":102,"ipAddress":"10.63.20.172","hostname":null,"macAddress":null,"vendor":null,"deviceType":null,"purpose":null,"location":null,"subnetId":11,"status":"online","lastSeen":"2025-06-14T18:15:07.962Z","openPorts":[],"assignmentType":"static","createdAt":"2025-06-14T18:15:07.963Z","updatedAt":"2025-06-14T18:15:07.962Z"},{"id":103,"ipAddress":"10.63.20.173","hostname":null,"macAddress":null,"vendor":null,"deviceType":null,"purpose":null,"location":null,"subnetId":11,"status":"online","lastSeen":"2025-06-14T18:15:07.964Z","openPorts":[],"assignmentType":"static","createdAt":"2025-06-14T18:15:07.965Z","updatedAt":"2025-06-14T18:15:07.964Z"},{"id":104,"ipAddress":"10.63.20.174","hostname":null,"macAddress":null,"vendor":null,"deviceType":null,"purpose":null,"location":null,"subnetId":11,"status":"online","lastSeen":"2025-06-14T18:15:07.967Z","openPorts":[],"assignmentType":"static","createdAt":"2025-06-14T18:15:07.967Z","updatedAt":"2025-06-14T18:15:07.967Z"},{"id":105,"ipAddress":"10.63.20.175","hostname":null,"macAddress":null,"vendor":null,"deviceType":null,"purpose":null,"location":null,"subnetId":11,"status":"online","lastSeen":"2025-06-14T18:15:07.969Z","openPorts":[],"assignmentType":"static","createdAt":"2025-06-14T18:15:07.969Z","updatedAt":"2025-06-14T18:15:07.969Z"},{"id":106,"ipAddress":"10.63.20.176","hostname":null,"macAddress":null,"vendor":null,"deviceType":null,"purpose":null,"location":null,"subnetId":11,"status":"online","lastSeen":"2025-06-14T18:15:07.971Z","openPorts":[],"assignmentType":"static","createdAt":"2025-06-14T18:15:07.971Z","updatedAt":"2025-06-14T18:15:07.971Z"},{"id":107,"ipAddress":"10.63.20.177","hostname":null,"macAddress":null,"vendor":null,"deviceType":null,"purpose":null,"location":null,"subnetId":11,"status":"online","lastSeen":"2025-06-14T18:15:07.973Z","openPorts":[],"assignmentType":"static","createdAt":"2025-06-14T18:15:07.973Z","updatedAt":"2025-06-14T18:15:07.973Z"},{"id":108,"ipAddress":"10.63.20.178","hostname":null,"macAddress":null,"vendor":null,"deviceType":null,"purpose":null,"location":null,"subnetId":11,"status":"online","lastSeen":"2025-06-14T18:15:07.975Z","openPorts":[],"assignmentType":"static","createdAt":"2025-06-14T18:15:07.976Z","updatedAt":"2025-06-14T18:15:07.975Z"},{"id":109,"ipAddress":"10.63.20.179","hostname":null,"macAddress":null,"vendor":null,"deviceType":null,"purpose":null,"location":null,"subnetId":11,"status":"online","lastSeen":"2025-06-14T18:15:07.978Z","openPorts":[],"assignmentType":"static","createdAt":"2025-06-14T18:15:07.978Z","updatedAt":"2025-06-14T18:15:07.978Z"},{"id":54,"ipAddress":"10.63.20.18","hostname":null,"macAddress":null,"vendor":null,"deviceType":null,"purpose":null,"location":null,"subnetId":11,"status":"online","lastSeen":"2025-06-14T18:15:07.856Z","openPorts":["22"],"assignmentType":"static","createdAt":"2025-06-14T18:15:07.856Z","updatedAt":"2025-06-14T18:15:07.856Z"},{"id":110,"ipAddress":"10.63.20.180","hostname":null,"macAddress":null,"vendor":null,"deviceType":null,"purpose":null,"location":null,"subnetId":11,"status":"online","lastSeen":"2025-06-14T18:15:07.980Z","openPorts":[],"assignmentType":"static","createdAt":"2025-06-14T18:15:07.981Z","updatedAt":"2025-06-14T18:15:07.980Z"},{"id":111,"ipAddress":"10.63.20.181","hostname":null,"macAddress":null,"vendor":null,"deviceType":null,"purpose":null,"location":null,"subnetId":11,"status":"online","lastSeen":"2025-06-14T18:15:07.982Z","openPorts":[],"assignmentType":"static","createdAt":"2025-06-14T18:15:07.983Z","updatedAt":"2025-06-14T18:15:07.983Z"},{"id":112,"ipAddress":"10.63.20.182","hostname":null,"macAddress":null,"vendor":null,"deviceType":null,"purpose":null,"location":null,"subnetId":11,"status":"online","lastSeen":"2025-06-14T18:15:07.985Z","openPorts":["22","80","554"],"assignmentType":"static","createdAt":"2025-06-14T18:15:07.985Z","updatedAt":"2025-06-14T18:15:07.985Z"}],"total":123,"page":1,"limit":50,"totalPages":3}