obtv-admin@eng-control1:~/ipam-system$ curl -s "http://localhost:5000/api/devices" | jq '.total'
"123"
obtv-admin@eng-control1:~/ipam-system$ curl -s "http://localhost:5000/api/devices"
{"data":[{"id":1253,"ipAddress":"10.63.20.1","hostname":null,"macAddress":null,"vendor":null,"deviceType":null,"purpose":null,"location":null,"subnetId":22,"status":"online","lastSeen":"2025-06-14T17:21:57.890Z","openPorts":["22","80","443"],"assignmentType":"dhcp","createdAt":"2025-06-14T10:24:02.144Z","updatedAt":"2025-06-14T17:21:57.890Z"},{"id":1256,"ipAddress":"10.63.20.10","hostname":null,"macAddress":null,"vendor":null,"deviceType":null,"purpose":null,"location":null,"subnetId":22,"status":"online","lastSeen":"2025-06-14T17:21:57.902Z","openPorts":["80"],"assignmentType":"dhcp","createdAt":"2025-06-14T10:24:02.152Z","updatedAt":"2025-06-14T17:21:57.902Z"},{"id":1281,"ipAddress":"10.63.20.101","hostname":null,"macAddress":null,"vendor":null,"deviceType":null,"purpose":null,"location":null,"subnetId":22,"status":"online","lastSeen":"2025-06-14T17:21:57.958Z","openPorts":["22","80","443"],"assignmentType":"dhcp","createdAt":"2025-06-14T10:24:02.214Z","updatedAt":"2025-06-14T17:21:57.958Z"},{"id":1282,"ipAddress":"10.63.20.102","hostname":null,"macAddress":null,"vendor":null,"deviceType":null,"purpose":null,"location":null,"subnetId":22,"status":"online","lastSeen":"2025-06-14T17:21:57.961Z","openPorts":[],"assignmentType":"dhcp","createdAt":"2025-06-14T10:24:02.217Z","updatedAt":"2025-06-14T17:21:57.961Z"},{"id":1283,"ipAddress":"10.63.20.103","hostname":null,"macAddress":null,"vendor":null,"deviceType":null,"purpose":null,"location":null,"subnetId":22,"status":"online","lastSeen":"2025-06-14T17:21:57.963Z","openPorts":[],"assignmentType":"dhcp","createdAt":"2025-06-14T10:24:02.219Z","updatedAt":"2025-06-14T17:21:57.963Z"},{"id":1284,"ipAddress":"10.63.20.105","hostname":null,"macAddress":null,"vendor":null,"deviceType":null,"purpose":null,"location":null,"subnetId":22,"status":"online","lastSeen":"2025-06-14T17:21:57.965Z","openPorts":["22","23","80","443"],"assignmentType":"dhcp","createdAt":"2025-06-14T10:24:02.221Z","updatedAt":"2025-06-14T17:21:57.965Z"},{"id":1257,"ipAddress":"10.63.20.11","hostname":null,"macAddress":null,"vendor":null,"deviceType":null,"purpose":null,"location":null,"subnetId":22,"status":"online","lastSeen":"2025-06-14T17:21:57.904Z","openPorts":["80"],"assignmentType":"dhcp","createdAt":"2025-06-14T10:24:02.155Z","updatedAt":"2025-06-14T17:21:57.904Z"},{"id":1285,"ipAddress":"10.63.20.110","hostname":null,"macAddress":null,"vendor":null,"deviceType":null,"purpose":null,"location":null,"subnetId":22,"status":"online","lastSeen":"2025-06-14T17:21:57.967Z","openPorts":["22","80","443"],"assignmentType":"dhcp","createdAt":"2025-06-14T10:24:02.223Z","updatedAt":"2025-06-14T17:21:57.967Z"},{"id":1286,"ipAddress":"10.63.20.115","hostname":null,"macAddress":null,"vendor":null,"deviceType":null,"purpose":null,"location":null,"subnetId":22,"status":"online","lastSeen":"2025-06-14T17:21:57.969Z","openPorts":[],"assignmentType":"dhcp","createdAt":"2025-06-14T10:24:02.226Z","updatedAt":"2025-06-14T17:21:57.969Z"},{"id":1287,"ipAddress":"10.63.20.116","hostname":null,"macAddress":null,"vendor":null,"deviceType":null,"purpose":null,"location":null,"subnetId":22,"status":"online","lastSeen":"2025-06-14T17:21:57.971Z","openPorts":[],"assignmentType":"dhcp","createdAt":"2025-06-14T10:24:02.228Z","updatedAt":"2025-06-14T17:21:57.971Z"},{"id":1258,"ipAddress":"10.63.20.12","hostname":null,"macAddress":null,"vendor":null,"deviceType":null,"purpose":null,"location":null,"subnetId":22,"status":"online","lastSeen":"2025-06-14T17:21:57.906Z","openPorts":["80"],"assignmentType":"dhcp","createdAt":"2025-06-14T10:24:02.157Z","updatedAt":"2025-06-14T17:21:57.906Z"},{"id":1288,"ipAddress":"10.63.20.122","hostname":null,"macAddress":null,"vendor":null,"deviceType":null,"purpose":null,"location":null,"subnetId":22,"status":"online","lastSeen":"2025-06-14T17:21:57.973Z","openPorts":[],"assignmentType":"dhcp","createdAt":"2025-06-14T10:24:02.230Z","updatedAt":"2025-06-14T17:21:57.973Z"},{"id":1289,"ipAddress":"10.63.20.129","hostname":null,"macAddress":null,"vendor":null,"deviceType":null,"purpose":null,"location":null,"subnetId":22,"status":"online","lastSeen":"2025-06-14T17:21:57.975Z","openPorts":["80","443"],"assignmentType":"dhcp","createdAt":"2025-06-14T10:24:02.232Z","updatedAt":"2025-06-14T17:21:57.975Z"},{"id":1290,"ipAddress":"10.63.20.130","hostname":null,"macAddress":null,"vendor":null,"deviceType":null,"purpose":null,"location":null,"subnetId":22,"status":"online","lastSeen":"2025-06-14T17:21:57.977Z","openPorts":["80","443"],"assignmentType":"dhcp","createdAt":"2025-06-14T10:24:02.234Z","updatedAt":"2025-06-14T17:21:57.977Z"},{"id":1291,"ipAddress":"10.63.20.131","hostname":null,"macAddress":null,"vendor":null,"deviceType":null,"purpose":null,"location":null,"subnetId":22,"status":"online","lastSeen":"2025-06-14T17:21:57.979Z","openPorts":["22"],"assignmentType":"dhcp","createdAt":"2025-06-14T10:24:02.237Z","updatedAt":"2025-06-14T17:21:57.979Z"},{"id":1259,"ipAddress":"10.63.20.14","hostname":null,"macAddress":null,"vendor":null,"deviceType":null,"purpose":null,"location":null,"subnetId":22,"status":"online","lastSeen":"2025-06-14T17:21:57.908Z","openPorts":["80"],"assignmentType":"dhcp","createdAt":"2025-06-14T10:24:02.160Z","updatedAt":"2025-06-14T17:21:57.908Z"},{"id":1292,"ipAddress":"10.63.20.140","hostname":null,"macAddress":null,"vendor":null,"deviceType":null,"purpose":null,"location":null,"subnetId":22,"status":"online","lastSeen":"2025-06-14T17:21:57.981Z","openPorts":[],"assignmentType":"dhcp","createdAt":"2025-06-14T10:24:02.239Z","updatedAt":"2025-06-14T17:21:57.981Z"},{"id":1293,"ipAddress":"10.63.20.141","hostname":null,"macAddress":null,"vendor":null,"deviceType":null,"purpose":null,"location":null,"subnetId":22,"status":"online","lastSeen":"2025-06-14T17:21:57.983Z","openPorts":[],"assignmentType":"dhcp","createdAt":"2025-06-14T10:24:02.241Z","updatedAt":"2025-06-14T17:21:57.983Z"},{"id":1260,"ipAddress":"10.63.20.15","hostname":null,"macAddress":null,"vendor":null,"deviceType":null,"purpose":null,"location":null,"subnetId":22,"status":"online","lastSeen":"2025-06-14T17:21:57.911Z","openPorts":[],"assignmentType":"dhcp","createdAt":"2025-06-14T10:24:02.162Z","updatedAt":"2025-06-14T17:21:57.911Z"},{"id":1294,"ipAddress":"10.63.20.151","hostname":null,"macAddress":null,"vendor":null,"deviceType":null,"purpose":null,"location":null,"subnetId":22,"status":"online","lastSeen":"2025-06-14T17:21:57.985Z","openPorts":["22","80","554"],"assignmentType":"dhcp","createdAt":"2025-06-14T10:24:02.243Z","updatedAt":"2025-06-14T17:21:57.985Z"},{"id":1295,"ipAddress":"10.63.20.154","hostname":null,"macAddress":null,"vendor":null,"deviceType":null,"purpose":null,"location":null,"subnetId":22,"status":"online","lastSeen":"2025-06-14T17:21:57.987Z","openPorts":["22","80","554"],"assignmentType":"dhcp","createdAt":"2025-06-14T10:24:02.245Z","updatedAt":"2025-06-14T17:21:57.987Z"},{"id":1296,"ipAddress":"10.63.20.156","hostname":null,"macAddress":null,"vendor":null,"deviceType":null,"purpose":null,"location":null,"subnetId":22,"status":"online","lastSeen":"2025-06-14T17:21:57.989Z","openPorts":["80"],"assignmentType":"dhcp","createdAt":"2025-06-14T10:24:02.247Z","updatedAt":"2025-06-14T17:21:57.989Z"},{"id":1297,"ipAddress":"10.63.20.158","hostname":null,"macAddress":null,"vendor":null,"deviceType":null,"purpose":null,"location":null,"subnetId":22,"status":"online","lastSeen":"2025-06-14T17:21:57.991Z","openPorts":["22","80","554"],"assignmentType":"dhcp","createdAt":"2025-06-14T10:24:02.249Z","updatedAt":"2025-06-14T17:21:57.991Z"},{"id":1298,"ipAddress":"10.63.20.159","hostname":null,"macAddress":null,"vendor":null,"deviceType":null,"purpose":null,"location":null,"subnetId":22,"status":"online","lastSeen":"2025-06-14T17:21:57.993Z","openPorts":["22","80","554"],"assignmentType":"dhcp","createdAt":"2025-06-14T10:24:02.251Z","updatedAt":"2025-06-14T17:21:57.993Z"},{"id":1261,"ipAddress":"10.63.20.16","hostname":null,"macAddress":null,"vendor":null,"deviceType":null,"purpose":null,"location":null,"subnetId":22,"status":"online","lastSeen":"2025-06-14T17:21:57.913Z","openPorts":["22"],"assignmentType":"dhcp","createdAt":"2025-06-14T10:24:02.165Z","updatedAt":"2025-06-14T17:21:57.913Z"},{"id":1299,"ipAddress":"10.63.20.160","hostname":null,"macAddress":null,"vendor":null,"deviceType":null,"purpose":null,"location":null,"subnetId":22,"status":"online","lastSeen":"2025-06-14T17:21:57.996Z","openPorts":["22","80","554"],"assignmentType":"dhcp","createdAt":"2025-06-14T10:24:02.254Z","updatedAt":"2025-06-14T17:21:57.996Z"},{"id":1300,"ipAddress":"10.63.20.161","hostname":null,"macAddress":null,"vendor":null,"deviceType":null,"purpose":null,"location":null,"subnetId":22,"status":"online","lastSeen":"2025-06-14T17:21:57.998Z","openPorts":["22","80","554"],"assignmentType":"dhcp","createdAt":"2025-06-14T10:24:02.256Z","updatedAt":"2025-06-14T17:21:57.998Z"},{"id":1301,"ipAddress":"10.63.20.162","hostname":null,"macAddress":null,"vendor":null,"deviceType":null,"purpose":null,"location":null,"subnetId":22,"status":"online","lastSeen":"2025-06-14T17:21:58.000Z","openPorts":["22","80","554"],"assignmentType":"dhcp","createdAt":"2025-06-14T10:24:02.258Z","updatedAt":"2025-06-14T17:21:58.000Z"},{"id":1302,"ipAddress":"10.63.20.163","hostname":null,"macAddress":null,"vendor":null,"deviceType":null,"purpose":null,"location":null,"subnetId":22,"status":"online","lastSeen":"2025-06-14T17:21:58.002Z","openPorts":["22","80","554"],"assignmentType":"dhcp","createdAt":"2025-06-14T10:24:02.260Z","updatedAt":"2025-06-14T17:21:58.002Z"},{"id":1303,"ipAddress":"10.63.20.164","hostname":null,"macAddress":null,"vendor":null,"deviceType":null,"purpose":null,"location":null,"subnetId":22,"status":"online","lastSeen":"2025-06-14T17:21:58.004Z","openPorts":["22","80","554"],"assignmentType":"dhcp","createdAt":"2025-06-14T10:24:02.262Z","updatedAt":"2025-06-14T17:21:58.004Z"},{"id":1304,"ipAddress":"10.63.20.165","hostname":null,"macAddress":null,"vendor":null,"deviceType":null,"purpose":null,"location":null,"subnetId":22,"status":"online","lastSeen":"2025-06-14T17:21:58.007Z","openPorts":["22","80","554"],"assignmentType":"dhcp","createdAt":"2025-06-14T10:24:02.264Z","updatedAt":"2025-06-14T17:21:58.007Z"},{"id":1305,"ipAddress":"10.63.20.166","hostname":null,"macAddress":null,"vendor":null,"deviceType":null,"purpose":null,"location":null,"subnetId":22,"status":"online","lastSeen":"2025-06-14T17:21:58.009Z","openPorts":["22","80","554"],"assignmentType":"dhcp","createdAt":"2025-06-14T10:24:02.267Z","updatedAt":"2025-06-14T17:21:58.009Z"},{"id":1306,"ipAddress":"10.63.20.167","hostname":null,"macAddress":null,"vendor":null,"deviceType":null,"purpose":null,"location":null,"subnetId":22,"status":"online","lastSeen":"2025-06-14T17:21:58.011Z","openPorts":["22","80","554"],"assignmentType":"dhcp","createdAt":"2025-06-14T10:24:02.269Z","updatedAt":"2025-06-14T17:21:58.011Z"},{"id":1307,"ipAddress":"10.63.20.168","hostname":null,"macAddress":null,"vendor":null,"deviceType":null,"purpose":null,"location":null,"subnetId":22,"status":"online","lastSeen":"2025-06-14T17:21:58.013Z","openPorts":["22","80","554"],"assignmentType":"dhcp","createdAt":"2025-06-14T10:24:02.271Z","updatedAt":"2025-06-14T17:21:58.013Z"},{"id":1308,"ipAddress":"10.63.20.169","hostname":null,"macAddress":null,"vendor":null,"deviceType":null,"purpose":null,"location":null,"subnetId":22,"status":"online","lastSeen":"2025-06-14T17:21:58.015Z","openPorts":["22","80","554"],"assignmentType":"dhcp","createdAt":"2025-06-14T10:24:02.274Z","updatedAt":"2025-06-14T17:21:58.015Z"},{"id":1262,"ipAddress":"10.63.20.17","hostname":null,"macAddress":null,"vendor":null,"deviceType":null,"purpose":null,"location":null,"subnetId":22,"status":"online","lastSeen":"2025-06-14T17:21:57.916Z","openPorts":[],"assignmentType":"dhcp","createdAt":"2025-06-14T10:24:02.167Z","updatedAt":"2025-06-14T17:21:57.916Z"},{"id":1309,"ipAddress":"10.63.20.170","hostname":null,"macAddress":null,"vendor":null,"deviceType":null,"purpose":null,"location":null,"subnetId":22,"status":"online","lastSeen":"2025-06-14T17:21:58.017Z","openPorts":[],"assignmentType":"dhcp","createdAt":"2025-06-14T10:24:02.276Z","updatedAt":"2025-06-14T17:21:58.017Z"},{"id":1310,"ipAddress":"10.63.20.171","hostname":null,"macAddress":null,"vendor":null,"deviceType":null,"purpose":null,"location":null,"subnetId":22,"status":"online","lastSeen":"2025-06-14T17:21:58.020Z","openPorts":[],"assignmentType":"dhcp","createdAt":"2025-06-14T10:24:02.278Z","updatedAt":"2025-06-14T17:21:58.020Z"},{"id":1311,"ipAddress":"10.63.20.172","hostname":null,"macAddress":null,"vendor":null,"deviceType":null,"purpose":null,"location":null,"subnetId":22,"status":"online","lastSeen":"2025-06-14T17:21:58.022Z","openPorts":[],"assignmentType":"dhcp","createdAt":"2025-06-14T10:24:02.280Z","updatedAt":"2025-06-14T17:21:58.022Z"},{"id":1312,"ipAddress":"10.63.20.173","hostname":null,"macAddress":null,"vendor":null,"deviceType":null,"purpose":null,"location":null,"subnetId":22,"status":"online","lastSeen":"2025-06-14T17:21:58.024Z","openPorts":[],"assignmentType":"dhcp","createdAt":"2025-06-14T10:24:02.282Z","updatedAt":"2025-06-14T17:21:58.024Z"},{"id":1313,"ipAddress":"10.63.20.174","hostname":null,"macAddress":null,"vendor":null,"deviceType":null,"purpose":null,"location":null,"subnetId":22,"status":"online","lastSeen":"2025-06-14T17:21:58.026Z","openPorts":[],"assignmentType":"dhcp","createdAt":"2025-06-14T10:24:02.284Z","updatedAt":"2025-06-14T17:21:58.026Z"},{"id":1314,"ipAddress":"10.63.20.175","hostname":null,"macAddress":null,"vendor":null,"deviceType":null,"purpose":null,"location":null,"subnetId":22,"status":"online","lastSeen":"2025-06-14T17:21:58.028Z","openPorts":[],"assignmentType":"dhcp","createdAt":"2025-06-14T10:24:02.286Z","updatedAt":"2025-06-14T17:21:58.028Z"},{"id":1315,"ipAddress":"10.63.20.176","hostname":null,"macAddress":null,"vendor":null,"deviceType":null,"purpose":null,"location":null,"subnetId":22,"status":"online","lastSeen":"2025-06-14T17:21:58.030Z","openPorts":[],"assignmentType":"dhcp","createdAt":"2025-06-14T10:24:02.288Z","updatedAt":"2025-06-14T17:21:58.030Z"},{"id":1316,"ipAddress":"10.63.20.177","hostname":null,"macAddress":null,"vendor":null,"deviceType":null,"purpose":null,"location":null,"subnetId":22,"status":"online","lastSeen":"2025-06-14T17:21:58.031Z","openPorts":[],"assignmentType":"dhcp","createdAt":"2025-06-14T10:24:02.290Z","updatedAt":"2025-06-14T17:21:58.031Z"},{"id":1317,"ipAddress":"10.63.20.178","hostname":null,"macAddress":null,"vendor":null,"deviceType":null,"purpose":null,"location":null,"subnetId":22,"status":"online","lastSeen":"2025-06-14T17:21:58.033Z","openPorts":[],"assignmentType":"dhcp","createdAt":"2025-06-14T10:24:02.292Z","updatedAt":"2025-06-14T17:21:58.033Z"},{"id":1318,"ipAddress":"10.63.20.179","hostname":null,"macAddress":null,"vendor":null,"deviceType":null,"purpose":null,"location":null,"subnetId":22,"status":"online","lastSeen":"2025-06-14T17:21:58.035Z","openPorts":[],"assignmentType":"dhcp","createdAt":"2025-06-14T10:24:02.294Z","updatedAt":"2025-06-14T17:21:58.035Z"},{"id":1263,"ipAddress":"10.63.20.18","hostname":null,"macAddress":null,"vendor":null,"deviceType":null,"purpose":null,"location":null,"subnetId":22,"status":"online","lastSeen":"2025-06-14T17:21:57.918Z","openPorts":["22"],"assignmentType":"dhcp","createdAt":"2025-06-14T10:24:02.169Z","updatedAt":"2025-06-14T17:21:57.918Z"},{"id":1319,"ipAddress":"10.63.20.180","hostname":null,"macAddress":null,"vendor":null,"deviceType":null,"purpose":null,"location":null,"subnetId":22,"status":"online","lastSeen":"2025-06-14T17:21:58.037Z","openPorts":[],"assignmentType":"dhcp","createdAt":"2025-06-14T10:24:02.296Z","updatedAt":"2025-06-14T17:21:58.037Z"},{"id":1320,"ipAddress":"10.63.20.181","hostname":null,"macAddress":null,"vendor":null,"deviceType":null,"purpose":null,"location":null,"subnetId":22,"status":"online","lastSeen":"2025-06-14T17:21:58.039Z","openPorts":[],"assignmentType":"dhcp","createdAt":"2025-06-14T10:24:02.298Z","updatedAt":"2025-06-14T17:21:58.039Z"},{"id":1321,"ipAddress":"10.63.20.182","hostname":null,"macAddress":null,"vendor":null,"deviceType":null,"purpose":null,"location":null,"subnetId":22,"status":"online","lastSeen":"2025-06-14T17:21:58.041Z","openPorts":["22","80","554"],"assignmentType":"dhcp","createdAt":"2025-06-14T10:24:02.300Z","updatedAt":"2025-06-14T17:21:58.041Z"}],"total":"123","page":1,"limit":50,"totalPages":3}obtv-admin@eng-control1:~/ipam-system$