{"data":[{"id":1,"ipAddress":"10.63.21.10","hostname":"gs724tpp.trinity.local","macAddress":null,"vendor":null,"deviceType":null,"purpose":null,"location":null,"subnetId":1,"status":"online","lastSeen":"2025-06-16T19:55:26.272Z","openPorts":["80"],"assignmentType":"static","createdAt":"2025-06-16T19:08:43.692Z","updatedAt":"2025-06-16T19:55:26.272Z"},{"id":2,"ipAddress":"10.63.21.11","hostname":null,"macAddress":null,"vendor":null,"deviceType":null,"purpose":null,"location":null,"subnetId":1,"status":"online","lastSeen":"2025-06-16T19:55:26.275Z","openPorts":["80"],"assignmentType":"static","createdAt":"2025-06-16T19:08:43.701Z","updatedAt":"2025-06-16T19:55:26.275Z"},{"id":3,"ipAddress":"10.63.21.12","hostname":null,"macAddress":null,"vendor":null,"deviceType":null,"purpose":null,"location":null,"subnetId":1,"status":"online","lastSeen":"2025-06-16T19:55:26.277Z","openPorts":["80"],"assignmentType":"static","createdAt":"2025-06-16T19:08:43.704Z","updatedAt":"2025-06-16T19:55:26.277Z"},{"id":4,"ipAddress":"10.63.21.13","hostname":"rokud1.trinity.local","macAddress":null,"vendor":null,"deviceType":null,"purpose":null,"location":null,"subnetId":1,"status":"online","lastSeen":"2025-06-16T19:55:26.279Z","openPorts":[],"assignmentType":"static","createdAt":"2025-06-16T19:08:43.707Z","updatedAt":"2025-06-16T19:55:26.279Z"},{"id":5,"ipAddress":"10.63.21.14","hostname":"obtv-obs1.trinity.local","macAddress":null,"vendor":null,"deviceType":null,"purpose":null,"location":null,"subnetId":1,"status":"online","lastSeen":"2025-06-16T19:55:26.281Z","openPorts":["22"],"assignmentType":"static","createdAt":"2025-06-16T19:08:43.709Z","updatedAt":"2025-06-16T19:55:26.281Z"},{"id":28,"ipAddress":"10.63.21.149","hostname":null,"macAddress":null,"vendor":null,"deviceType":null,"purpose":null,"location":null,"subnetId":1,"status":"online","lastSeen":"2025-06-16T19:55:26.326Z","openPorts":["80"],"assignmentType":"static","createdAt":"2025-06-16T19:08:43.755Z","updatedAt":"2025-06-16T19:55:26.326Z"},{"id":6,"ipAddress":"10.63.21.15","hostname":"tinypilot6.trinity.local","macAddress":null,"vendor":null,"deviceType":null,"purpose":null,"location":null,"subnetId":1,"status":"online","lastSeen":"2025-06-16T19:55:26.284Z","openPorts":["22","80"],"assignmentType":"static","createdAt":"2025-06-16T19:08:43.712Z","updatedAt":"2025-06-16T19:55:26.284Z"},{"id":29,"ipAddress":"10.63.21.150","hostname":null,"macAddress":null,"vendor":null,"deviceType":null,"purpose":null,"location":null,"subnetId":1,"status":"online","lastSeen":"2025-06-16T19:55:26.328Z","openPorts":["80"],"assignmentType":"static","createdAt":"2025-06-16T19:08:43.757Z","updatedAt":"2025-06-16T19:55:26.328Z"},{"id":30,"ipAddress":"10.63.21.151","hostname":null,"macAddress":null,"vendor":null,"deviceType":null,"purpose":null,"location":null,"subnetId":1,"status":"online","lastSeen":"2025-06-16T19:55:26.329Z","openPorts":["80"],"assignmentType":"static","createdAt":"2025-06-16T19:08:43.759Z","updatedAt":"2025-06-16T19:55:26.329Z"},{"id":7,"ipAddress":"10.63.21.16","hostname":"gs305ep.trinity.local","macAddress":null,"vendor":null,"deviceType":null,"purpose":null,"location":null,"subnetId":1,"status":"online","lastSeen":"2025-06-16T19:55:26.286Z","openPorts":["80"],"assignmentType":"static","createdAt":"2025-06-16T19:08:43.714Z","updatedAt":"2025-06-16T19:55:26.286Z"},{"id":8,"ipAddress":"10.63.21.20","hostname":"mnu-1a50b0.trinity.local","macAddress":null,"vendor":null,"deviceType":null,"purpose":null,"location":null,"subnetId":1,"status":"online","lastSeen":"2025-06-16T19:55:26.288Z","openPorts":["23","80","443"],"assignmentType":"static","createdAt":"2025-06-16T19:08:43.716Z","updatedAt":"2025-06-16T19:55:26.288Z"},{"id":9,"ipAddress":"10.63.21.21","hostname":"tinypilot.trinity.local","macAddress":null,"vendor":null,"deviceType":null,"purpose":null,"location":null,"subnetId":1,"status":"online","lastSeen":"2025-06-16T19:55:26.291Z","openPorts":["80","443"],"assignmentType":"static","createdAt":"2025-06-16T19:08:43.718Z","updatedAt":"2025-06-16T19:55:26.291Z"},{"id":10,"ipAddress":"10.63.21.22","hostname":"polycom64167f1f351f.trinity.local","macAddress":null,"vendor":null,"deviceType":null,"purpose":null,"location":null,"subnetId":1,"status":"online","lastSeen":"2025-06-16T19:55:26.293Z","openPorts":["443"],"assignmentType":"static","createdAt":"2025-06-16T19:08:43.720Z","updatedAt":"2025-06-16T19:55:26.293Z"},{"id":11,"ipAddress":"10.63.21.23","hostname":"rokud2.trinity.local","macAddress":null,"vendor":null,"deviceType":null,"purpose":null,"location":null,"subnetId":1,"status":"online","lastSeen":"2025-06-16T19:55:26.295Z","openPorts":[],"assignmentType":"static","createdAt":"2025-06-16T19:08:43.722Z","updatedAt":"2025-06-16T19:55:26.295Z"},{"id":12,"ipAddress":"10.63.21.24","hostname":null,"macAddress":null,"vendor":null,"deviceType":null,"purpose":null,"location":null,"subnetId":1,"status":"online","lastSeen":"2025-06-16T19:55:26.297Z","openPorts":["80"],"assignmentType":"static","createdAt":"2025-06-16T19:08:43.725Z","updatedAt":"2025-06-16T19:55:26.297Z"},{"id":13,"ipAddress":"10.63.21.25","hostname":"polycom64167f1f352d.trinity.local","macAddress":null,"vendor":null,"deviceType":null,"purpose":null,"location":null,"subnetId":1,"status":"online","lastSeen":"2025-06-16T19:55:26.299Z","openPorts":["443"],"assignmentType":"static","createdAt":"2025-06-16T19:08:43.727Z","updatedAt":"2025-06-16T19:55:26.299Z"},{"id":14,"ipAddress":"10.63.21.26","hostname":"encoder41906.trinity.local","macAddress":null,"vendor":null,"deviceType":null,"purpose":null,"location":null,"subnetId":1,"status":"online","lastSeen":"2025-06-16T19:55:26.302Z","openPorts":["23","80"],"assignmentType":"static","createdAt":"2025-06-16T19:08:43.730Z","updatedAt":"2025-06-16T19:55:26.302Z"},{"id":15,"ipAddress":"10.63.21.28","hostname":"encoder41906.trinity.local","macAddress":null,"vendor":null,"deviceType":null,"purpose":null,"location":null,"subnetId":1,"status":"online","lastSeen":"2025-06-16T19:55:26.303Z","openPorts":["23","80"],"assignmentType":"static","createdAt":"2025-06-16T19:08:43.732Z","updatedAt":"2025-06-16T19:55:26.303Z"},{"id":16,"ipAddress":"10.63.21.29","hostname":"obtv-uhdsvr2.trinity.local","macAddress":null,"vendor":null,"deviceType":null,"purpose":null,"location":null,"subnetId":1,"status":"online","lastSeen":"2025-06-16T19:55:26.305Z","openPorts":[],"assignmentType":"static","createdAt":"2025-06-16T19:08:43.734Z","updatedAt":"2025-06-16T19:55:26.305Z"},{"id":17,"ipAddress":"10.63.21.30","hostname":"hfe-lan-004.trinity.local","macAddress":null,"vendor":null,"deviceType":null,"purpose":null,"location":null,"subnetId":1,"status":"online","lastSeen":"2025-06-16T19:55:26.307Z","openPorts":["23","80"],"assignmentType":"static","createdAt":"2025-06-16T19:08:43.736Z","updatedAt":"2025-06-16T19:55:26.307Z"},{"id":18,"ipAddress":"10.63.21.33","hostname":"eng-util20.trinity.local","macAddress":null,"vendor":null,"deviceType":null,"purpose":null,"location":null,"subnetId":1,"status":"online","lastSeen":"2025-06-16T19:55:26.308Z","openPorts":["135","139","445"],"assignmentType":"static","createdAt":"2025-06-16T19:08:43.738Z","updatedAt":"2025-06-16T19:55:26.308Z"},{"id":19,"ipAddress":"10.63.21.34","hostname":"plex-gfx-11.meritstreet.local","macAddress":null,"vendor":null,"deviceType":null,"purpose":null,"location":null,"subnetId":1,"status":"online","lastSeen":"2025-06-16T19:55:26.310Z","openPorts":["135","139","445"],"assignmentType":"static","createdAt":"2025-06-16T19:08:43.740Z","updatedAt":"2025-06-16T19:55:26.310Z"},{"id":20,"ipAddress":"10.63.21.35","hostname":"tpuhd1.trinity.local","macAddress":null,"vendor":null,"deviceType":null,"purpose":null,"location":null,"subnetId":1,"status":"online","lastSeen":"2025-06-16T19:55:26.312Z","openPorts":["80","443"],"assignmentType":"static","createdAt":"2025-06-16T19:08:43.742Z","updatedAt":"2025-06-16T19:55:26.312Z"},{"id":21,"ipAddress":"10.63.21.36","hostname":null,"macAddress":null,"vendor":null,"deviceType":null,"purpose":null,"location":null,"subnetId":1,"status":"online","lastSeen":"2025-06-16T19:55:26.313Z","openPorts":["80"],"assignmentType":"static","createdAt":"2025-06-16T19:08:43.743Z","updatedAt":"2025-06-16T19:55:26.313Z"},{"id":22,"ipAddress":"10.63.21.61","hostname":null,"macAddress":null,"vendor":null,"deviceType":null,"purpose":null,"location":null,"subnetId":1,"status":"online","lastSeen":"2025-06-16T19:55:26.315Z","openPorts":["22"],"assignmentType":"static","createdAt":"2025-06-16T19:08:43.745Z","updatedAt":"2025-06-16T19:55:26.315Z"},{"id":23,"ipAddress":"10.63.21.62","hostname":null,"macAddress":null,"vendor":null,"deviceType":null,"purpose":null,"location":null,"subnetId":1,"status":"online","lastSeen":"2025-06-16T19:55:26.317Z","openPorts":["22"],"assignmentType":"static","createdAt":"2025-06-16T19:08:43.747Z","updatedAt":"2025-06-16T19:55:26.317Z"},{"id":24,"ipAddress":"10.63.21.63","hostname":null,"macAddress":null,"vendor":null,"deviceType":null,"purpose":null,"location":null,"subnetId":1,"status":"online","lastSeen":"2025-06-16T19:55:26.319Z","openPorts":["22"],"assignmentType":"static","createdAt":"2025-06-16T19:08:43.748Z","updatedAt":"2025-06-16T19:55:26.319Z"},{"id":25,"ipAddress":"10.63.21.64","hostname":null,"macAddress":null,"vendor":null,"deviceType":null,"purpose":null,"location":null,"subnetId":1,"status":"online","lastSeen":"2025-06-16T19:55:26.321Z","openPorts":["22"],"assignmentType":"static","createdAt":"2025-06-16T19:08:43.750Z","updatedAt":"2025-06-16T19:55:26.321Z"},{"id":26,"ipAddress":"10.63.21.65","hostname":null,"macAddress":null,"vendor":null,"deviceType":null,"purpose":null,"location":null,"subnetId":1,"status":"online","lastSeen":"2025-06-16T19:55:26.322Z","openPorts":["22"],"assignmentType":"static","createdAt":"2025-06-16T19:08:43.752Z","updatedAt":"2025-06-16T19:55:26.322Z"},{"id":27,"ipAddress":"10.63.21.66","hostname":null,"macAddress":null,"vendor":null,"deviceType":null,"purpose":null,"location":null,"subnetId":1,"status":"online","lastSeen":"2025-06-16T19:55:26.324Z","openPorts":["23","80","443"],"assignmentType":"static","createdAt":"2025-06-16T19:08:43.754Z","updatedAt":"2025-06-16T19:55:26.324Z"},{"id":31,"ipAddress":"10.63.20.1","hostname":null,"macAddress":null,"vendor":null,"deviceType":null,"purpose":null,"location":null,"subnetId":2,"status":"online","lastSeen":"2025-06-16T19:53:32.522Z","openPorts":["22","80","443"],"assignmentType":"static","createdAt":"2025-06-16T19:13:10.947Z","updatedAt":"2025-06-16T19:53:32.523Z"},{"id":34,"ipAddress":"10.63.20.10","hostname":null,"macAddress":null,"vendor":null,"deviceType":null,"purpose":null,"location":null,"subnetId":2,"status":"online","lastSeen":"2025-06-16T19:53:32.532Z","openPorts":["80"],"assignmentType":"static","createdAt":"2025-06-16T19:13:10.957Z","updatedAt":"2025-06-16T19:53:32.532Z"},{"id":59,"ipAddress":"10.63.20.101","hostname":null,"macAddress":null,"vendor":null,"deviceType":null,"purpose":null,"location":null,"subnetId":2,"status":"online","lastSeen":"2025-06-16T19:53:32.582Z","openPorts":["22","80","139","443","445"],"assignmentType":"static","createdAt":"2025-06-16T19:13:11.000Z","updatedAt":"2025-06-16T19:53:32.582Z"},{"id":60,"ipAddress":"10.63.20.102","hostname":null,"macAddress":null,"vendor":null,"deviceType":null,"purpose":null,"location":null,"subnetId":2,"status":"online","lastSeen":"2025-06-16T19:53:32.583Z","openPorts":["135","139","445"],"assignmentType":"static","createdAt":"2025-06-16T19:13:11.002Z","updatedAt":"2025-06-16T19:53:32.583Z"},{"id":61,"ipAddress":"10.63.20.103","hostname":null,"macAddress":null,"vendor":null,"deviceType":null,"purpose":null,"location":null,"subnetId":2,"status":"online","lastSeen":"2025-06-16T19:53:32.585Z","openPorts":[],"assignmentType":"static","createdAt":"2025-06-16T19:13:11.004Z","updatedAt":"2025-06-16T19:53:32.585Z"},{"id":62,"ipAddress":"10.63.20.105","hostname":null,"macAddress":null,"vendor":null,"deviceType":null,"purpose":null,"location":null,"subnetId":2,"status":"online","lastSeen":"2025-06-16T19:53:32.587Z","openPorts":["22","23","80","443"],"assignmentType":"static","createdAt":"2025-06-16T19:13:11.006Z","updatedAt":"2025-06-16T19:53:32.587Z"},{"id":35,"ipAddress":"10.63.20.11","hostname":null,"macAddress":null,"vendor":null,"deviceType":null,"purpose":null,"location":null,"subnetId":2,"status":"online","lastSeen":"2025-06-16T19:53:32.534Z","openPorts":["80"],"assignmentType":"static","createdAt":"2025-06-16T19:13:10.958Z","updatedAt":"2025-06-16T19:53:32.534Z"},{"id":63,"ipAddress":"10.63.20.110","hostname":null,"macAddress":null,"vendor":null,"deviceType":null,"purpose":null,"location":null,"subnetId":2,"status":"online","lastSeen":"2025-06-16T19:53:32.592Z","openPorts":["22","80","139","443","445"],"assignmentType":"static","createdAt":"2025-06-16T19:13:11.007Z","updatedAt":"2025-06-16T19:53:32.592Z"},{"id":64,"ipAddress":"10.63.20.115","hostname":null,"macAddress":null,"vendor":null,"deviceType":null,"purpose":null,"location":null,"subnetId":2,"status":"online","lastSeen":"2025-06-16T19:53:32.596Z","openPorts":[],"assignmentType":"static","createdAt":"2025-06-16T19:13:11.009Z","updatedAt":"2025-06-16T19:53:32.596Z"},{"id":65,"ipAddress":"10.63.20.116","hostname":null,"macAddress":null,"vendor":null,"deviceType":null,"purpose":null,"location":null,"subnetId":2,"status":"online","lastSeen":"2025-06-16T19:53:32.599Z","openPorts":[],"assignmentType":"static","createdAt":"2025-06-16T19:13:11.011Z","updatedAt":"2025-06-16T19:53:32.599Z"},{"id":36,"ipAddress":"10.63.20.12","hostname":null,"macAddress":null,"vendor":null,"deviceType":null,"purpose":null,"location":null,"subnetId":2,"status":"online","lastSeen":"2025-06-16T19:53:32.536Z","openPorts":["80"],"assignmentType":"static","createdAt":"2025-06-16T19:13:10.960Z","updatedAt":"2025-06-16T19:53:32.536Z"},{"id":66,"ipAddress":"10.63.20.122","hostname":null,"macAddress":null,"vendor":null,"deviceType":null,"purpose":null,"location":null,"subnetId":2,"status":"online","lastSeen":"2025-06-16T19:53:32.602Z","openPorts":["135","139","445"],"assignmentType":"static","createdAt":"2025-06-16T19:13:11.012Z","updatedAt":"2025-06-16T19:53:32.602Z"},{"id":67,"ipAddress":"10.63.20.129","hostname":null,"macAddress":null,"vendor":null,"deviceType":null,"purpose":null,"location":null,"subnetId":2,"status":"online","lastSeen":"2025-06-16T19:53:32.605Z","openPorts":["80","443"],"assignmentType":"static","createdAt":"2025-06-16T19:13:11.014Z","updatedAt":"2025-06-16T19:53:32.605Z"},{"id":68,"ipAddress":"10.63.20.130","hostname":null,"macAddress":null,"vendor":null,"deviceType":null,"purpose":null,"location":null,"subnetId":2,"status":"online","lastSeen":"2025-06-16T19:53:32.607Z","openPorts":["80","443"],"assignmentType":"static","createdAt":"2025-06-16T19:13:11.015Z","updatedAt":"2025-06-16T19:53:32.607Z"},{"id":69,"ipAddress":"10.63.20.131","hostname":null,"macAddress":null,"vendor":null,"deviceType":null,"purpose":null,"location":null,"subnetId":2,"status":"online","lastSeen":"2025-06-16T19:53:32.609Z","openPorts":["22"],"assignmentType":"static","createdAt":"2025-06-16T19:13:11.017Z","updatedAt":"2025-06-16T19:53:32.609Z"},{"id":37,"ipAddress":"10.63.20.14","hostname":null,"macAddress":null,"vendor":null,"deviceType":null,"purpose":null,"location":null,"subnetId":2,"status":"online","lastSeen":"2025-06-16T19:53:32.538Z","openPorts":["80"],"assignmentType":"static","createdAt":"2025-06-16T19:13:10.962Z","updatedAt":"2025-06-16T19:53:32.538Z"},{"id":70,"ipAddress":"10.63.20.140","hostname":null,"macAddress":null,"vendor":null,"deviceType":null,"purpose":null,"location":null,"subnetId":2,"status":"online","lastSeen":"2025-06-16T19:53:32.611Z","openPorts":[],"assignmentType":"static","createdAt":"2025-06-16T19:13:11.019Z","updatedAt":"2025-06-16T19:53:32.611Z"},{"id":71,"ipAddress":"10.63.20.141","hostname":null,"macAddress":null,"vendor":null,"deviceType":null,"purpose":null,"location":null,"subnetId":2,"status":"online","lastSeen":"2025-06-16T19:53:32.612Z","openPorts":[],"assignmentType":"static","createdAt":"2025-06-16T19:13:11.021Z","updatedAt":"2025-06-16T19:53:32.612Z"},{"id":38,"ipAddress":"10.63.20.15","hostname":null,"macAddress":null,"vendor":null,"deviceType":null,"purpose":null,"location":null,"subnetId":2,"status":"online","lastSeen":"2025-06-16T19:53:32.540Z","openPorts":["135","139","445"],"assignmentType":"static","createdAt":"2025-06-16T19:13:10.964Z","updatedAt":"2025-06-16T19:53:32.540Z"},{"id":72,"ipAddress":"10.63.20.151","hostname":null,"macAddress":null,"vendor":null,"deviceType":null,"purpose":null,"location":null,"subnetId":2,"status":"online","lastSeen":"2025-06-16T19:53:32.614Z","openPorts":["22","80"],"assignmentType":"static","createdAt":"2025-06-16T19:13:11.022Z","updatedAt":"2025-06-16T19:53:32.614Z"}],"total":122,"page":1,"limit":50,"totalPages":3}