obtv-admin@eng-control1:~/ipam-system$ curl -s "http://localhost:5000/api/devices"
{"data":[{"id":1130,"ipAddress":"10.63.20.1","hostname":null,"macAddress":null,"vendor":null,"deviceType":null,"purpose":null,"location":null,"subnetId":21,"status":"online","lastSeen":"2025-06-14T10:08:49.112Z","openPorts":["22","80","443"],"assignmentType":"dhcp","createdAt":"2025-06-14T10:08:49.113Z","updatedAt":"2025-06-14T10:08:49.112Z"},{"id":1133,"ipAddress":"10.63.20.10","hostname":null,"macAddress":null,"vendor":null,"deviceType":null,"purpose":null,"location":null,"subnetId":21,"status":"online","lastSeen":"2025-06-14T10:08:49.120Z","openPorts":["80"],"assignmentType":"dhcp","createdAt":"2025-06-14T10:08:49.121Z","updatedAt":"2025-06-14T10:08:49.120Z"},{"id":1158,"ipAddress":"10.63.20.101","hostname":null,"macAddress":null,"vendor":null,"deviceType":null,"purpose":null,"location":null,"subnetId":21,"status":"online","lastSeen":"2025-06-14T10:08:49.174Z","openPorts":["22","80","443"],"assignmentType":"dhcp","createdAt":"2025-06-14T10:08:49.175Z","updatedAt":"2025-06-14T10:08:49.174Z"},{"id":1159,"ipAddress":"10.63.20.102","hostname":null,"macAddress":null,"vendor":null,"deviceType":null,"purpose":null,"location":null,"subnetId":21,"status":"online","lastSeen":"2025-06-14T10:08:49.177Z","openPorts":[],"assignmentType":"dhcp","createdAt":"2025-06-14T10:08:49.177Z","updatedAt":"2025-06-14T10:08:49.177Z"},{"id":1160,"ipAddress":"10.63.20.103","hostname":null,"macAddress":null,"vendor":null,"deviceType":null,"purpose":null,"location":null,"subnetId":21,"status":"online","lastSeen":"2025-06-14T10:08:49.179Z","openPorts":[],"assignmentType":"dhcp","createdAt":"2025-06-14T10:08:49.179Z","updatedAt":"2025-06-14T10:08:49.179Z"},{"id":1161,"ipAddress":"10.63.20.105","hostname":null,"macAddress":null,"vendor":null,"deviceType":null,"purpose":null,"location":null,"subnetId":21,"status":"online","lastSeen":"2025-06-14T10:08:49.181Z","openPorts":["22","23","80","443"],"assignmentType":"dhcp","createdAt":"2025-06-14T10:08:49.182Z","updatedAt":"2025-06-14T10:08:49.181Z"},{"id":1134,"ipAddress":"10.63.20.11","hostname":null,"macAddress":null,"vendor":null,"deviceType":null,"purpose":null,"location":null,"subnetId":21,"status":"online","lastSeen":"2025-06-14T10:08:49.122Z","openPorts":["80"],"assignmentType":"dhcp","createdAt":"2025-06-14T10:08:49.123Z","updatedAt":"2025-06-14T10:08:49.122Z"},{"id":1162,"ipAddress":"10.63.20.110","hostname":null,"macAddress":null,"vendor":null,"deviceType":null,"purpose":null,"location":null,"subnetId":21,"status":"online","lastSeen":"2025-06-14T10:08:49.184Z","openPorts":["22","80","443"],"assignmentType":"dhcp","createdAt":"2025-06-14T10:08:49.184Z","updatedAt":"2025-06-14T10:08:49.184Z"},{"id":1163,"ipAddress":"10.63.20.115","hostname":null,"macAddress":null,"vendor":null,"deviceType":null,"purpose":null,"location":null,"subnetId":21,"status":"online","lastSeen":"2025-06-14T10:08:49.186Z","openPorts":[],"assignmentType":"dhcp","createdAt":"2025-06-14T10:08:49.186Z","updatedAt":"2025-06-14T10:08:49.186Z"},{"id":1164,"ipAddress":"10.63.20.116","hostname":null,"macAddress":null,"vendor":null,"deviceType":null,"purpose":null,"location":null,"subnetId":21,"status":"online","lastSeen":"2025-06-14T10:08:49.188Z","openPorts":[],"assignmentType":"dhcp","createdAt":"2025-06-14T10:08:49.188Z","updatedAt":"2025-06-14T10:08:49.188Z"},{"id":1135,"ipAddress":"10.63.20.12","hostname":null,"macAddress":null,"vendor":null,"deviceType":null,"purpose":null,"location":null,"subnetId":21,"status":"online","lastSeen":"2025-06-14T10:08:49.125Z","openPorts":["80"],"assignmentType":"dhcp","createdAt":"2025-06-14T10:08:49.125Z","updatedAt":"2025-06-14T10:08:49.125Z"},{"id":1165,"ipAddress":"10.63.20.122","hostname":null,"macAddress":null,"vendor":null,"deviceType":null,"purpose":null,"location":null,"subnetId":21,"status":"online","lastSeen":"2025-06-14T10:08:49.193Z","openPorts":[],"assignmentType":"dhcp","createdAt":"2025-06-14T10:08:49.193Z","updatedAt":"2025-06-14T10:08:49.193Z"},{"id":1166,"ipAddress":"10.63.20.129","hostname":null,"macAddress":null,"vendor":null,"deviceType":null,"purpose":null,"location":null,"subnetId":21,"status":"online","lastSeen":"2025-06-14T10:08:49.195Z","openPorts":["80","443"],"assignmentType":"dhcp","createdAt":"2025-06-14T10:08:49.195Z","updatedAt":"2025-06-14T10:08:49.195Z"},{"id":1167,"ipAddress":"10.63.20.130","hostname":null,"macAddress":null,"vendor":null,"deviceType":null,"purpose":null,"location":null,"subnetId":21,"status":"online","lastSeen":"2025-06-14T10:08:49.197Z","openPorts":["80","443"],"assignmentType":"dhcp","createdAt":"2025-06-14T10:08:49.197Z","updatedAt":"2025-06-14T10:08:49.197Z"},{"id":1168,"ipAddress":"10.63.20.131","hostname":null,"macAddress":null,"vendor":null,"deviceType":null,"purpose":null,"location":null,"subnetId":21,"status":"online","lastSeen":"2025-06-14T10:08:49.199Z","openPorts":["22"],"assignmentType":"dhcp","createdAt":"2025-06-14T10:08:49.199Z","updatedAt":"2025-06-14T10:08:49.199Z"},{"id":1136,"ipAddress":"10.63.20.14","hostname":null,"macAddress":null,"vendor":null,"deviceType":null,"purpose":null,"location":null,"subnetId":21,"status":"online","lastSeen":"2025-06-14T10:08:49.127Z","openPorts":["80"],"assignmentType":"dhcp","createdAt":"2025-06-14T10:08:49.127Z","updatedAt":"2025-06-14T10:08:49.127Z"},{"id":1169,"ipAddress":"10.63.20.140","hostname":null,"macAddress":null,"vendor":null,"deviceType":null,"purpose":null,"location":null,"subnetId":21,"status":"online","lastSeen":"2025-06-14T10:08:49.201Z","openPorts":[],"assignmentType":"dhcp","createdAt":"2025-06-14T10:08:49.201Z","updatedAt":"2025-06-14T10:08:49.201Z"},{"id":1170,"ipAddress":"10.63.20.141","hostname":null,"macAddress":null,"vendor":null,"deviceType":null,"purpose":null,"location":null,"subnetId":21,"status":"online","lastSeen":"2025-06-14T10:08:49.203Z","openPorts":[],"assignmentType":"dhcp","createdAt":"2025-06-14T10:08:49.204Z","updatedAt":"2025-06-14T10:08:49.203Z"},{"id":1137,"ipAddress":"10.63.20.15","hostname":null,"macAddress":null,"vendor":null,"deviceType":null,"purpose":null,"location":null,"subnetId":21,"status":"online","lastSeen":"2025-06-14T10:08:49.129Z","openPorts":[],"assignmentType":"dhcp","createdAt":"2025-06-14T10:08:49.129Z","updatedAt":"2025-06-14T10:08:49.129Z"},{"id":1171,"ipAddress":"10.63.20.151","hostname":null,"macAddress":null,"vendor":null,"deviceType":null,"purpose":null,"location":null,"subnetId":21,"status":"online","lastSeen":"2025-06-14T10:08:49.205Z","openPorts":["22","80","554"],"assignmentType":"dhcp","createdAt":"2025-06-14T10:08:49.206Z","updatedAt":"2025-06-14T10:08:49.205Z"},{"id":1172,"ipAddress":"10.63.20.154","hostname":null,"macAddress":null,"vendor":null,"deviceType":null,"purpose":null,"location":null,"subnetId":21,"status":"online","lastSeen":"2025-06-14T10:08:49.207Z","openPorts":["22","80","554"],"assignmentType":"dhcp","createdAt":"2025-06-14T10:08:49.207Z","updatedAt":"2025-06-14T10:08:49.207Z"},{"id":1173,"ipAddress":"10.63.20.156","hostname":null,"macAddress":null,"vendor":null,"deviceType":null,"purpose":null,"location":null,"subnetId":21,"status":"online","lastSeen":"2025-06-14T10:08:49.209Z","openPorts":["80"],"assignmentType":"dhcp","createdAt":"2025-06-14T10:08:49.209Z","updatedAt":"2025-06-14T10:08:49.209Z"},{"id":1174,"ipAddress":"10.63.20.158","hostname":null,"macAddress":null,"vendor":null,"deviceType":null,"purpose":null,"location":null,"subnetId":21,"status":"online","lastSeen":"2025-06-14T10:08:49.211Z","openPorts":["22","80","554"],"assignmentType":"dhcp","createdAt":"2025-06-14T10:08:49.211Z","updatedAt":"2025-06-14T10:08:49.211Z"},{"id":1175,"ipAddress":"10.63.20.159","hostname":null,"macAddress":null,"vendor":null,"deviceType":null,"purpose":null,"location":null,"subnetId":21,"status":"online","lastSeen":"2025-06-14T10:08:49.213Z","openPorts":["22","80","554"],"assignmentType":"dhcp","createdAt":"2025-06-14T10:08:49.213Z","updatedAt":"2025-06-14T10:08:49.213Z"},{"id":1138,"ipAddress":"10.63.20.16","hostname":null,"macAddress":null,"vendor":null,"deviceType":null,"purpose":null,"location":null,"subnetId":21,"status":"online","lastSeen":"2025-06-14T10:08:49.131Z","openPorts":["22"],"assignmentType":"dhcp","createdAt":"2025-06-14T10:08:49.132Z","updatedAt":"2025-06-14T10:08:49.131Z"},{"id":1176,"ipAddress":"10.63.20.160","hostname":null,"macAddress":null,"vendor":null,"deviceType":null,"purpose":null,"location":null,"subnetId":21,"status":"online","lastSeen":"2025-06-14T10:08:49.215Z","openPorts":["22","80","554"],"assignmentType":"dhcp","createdAt":"2025-06-14T10:08:49.215Z","updatedAt":"2025-06-14T10:08:49.215Z"},{"id":1177,"ipAddress":"10.63.20.161","hostname":null,"macAddress":null,"vendor":null,"deviceType":null,"purpose":null,"location":null,"subnetId":21,"status":"online","lastSeen":"2025-06-14T10:08:49.217Z","openPorts":["22","80","554"],"assignmentType":"dhcp","createdAt":"2025-06-14T10:08:49.217Z","updatedAt":"2025-06-14T10:08:49.217Z"},{"id":1178,"ipAddress":"10.63.20.162","hostname":null,"macAddress":null,"vendor":null,"deviceType":null,"purpose":null,"location":null,"subnetId":21,"status":"online","lastSeen":"2025-06-14T10:08:49.219Z","openPorts":["22","80","554"],"assignmentType":"dhcp","createdAt":"2025-06-14T10:08:49.220Z","updatedAt":"2025-06-14T10:08:49.219Z"},{"id":1179,"ipAddress":"10.63.20.163","hostname":null,"macAddress":null,"vendor":null,"deviceType":null,"purpose":null,"location":null,"subnetId":21,"status":"online","lastSeen":"2025-06-14T10:08:49.221Z","openPorts":["22","80","554"],"assignmentType":"dhcp","createdAt":"2025-06-14T10:08:49.222Z","updatedAt":"2025-06-14T10:08:49.221Z"},{"id":1180,"ipAddress":"10.63.20.164","hostname":null,"macAddress":null,"vendor":null,"deviceType":null,"purpose":null,"location":null,"subnetId":21,"status":"online","lastSeen":"2025-06-14T10:08:49.223Z","openPorts":["22","80","554"],"assignmentType":"dhcp","createdAt":"2025-06-14T10:08:49.224Z","updatedAt":"2025-06-14T10:08:49.223Z"},{"id":1181,"ipAddress":"10.63.20.165","hostname":null,"macAddress":null,"vendor":null,"deviceType":null,"purpose":null,"location":null,"subnetId":21,"status":"online","lastSeen":"2025-06-14T10:08:49.225Z","openPorts":["22","80","554"],"assignmentType":"dhcp","createdAt":"2025-06-14T10:08:49.227Z","updatedAt":"2025-06-14T10:08:49.225Z"},{"id":1182,"ipAddress":"10.63.20.166","hostname":null,"macAddress":null,"vendor":null,"deviceType":null,"purpose":null,"location":null,"subnetId":21,"status":"online","lastSeen":"2025-06-14T10:08:49.229Z","openPorts":["22","80","554"],"assignmentType":"dhcp","createdAt":"2025-06-14T10:08:49.229Z","updatedAt":"2025-06-14T10:08:49.229Z"},{"id":1183,"ipAddress":"10.63.20.167","hostname":null,"macAddress":null,"vendor":null,"deviceType":null,"purpose":null,"location":null,"subnetId":21,"status":"online","lastSeen":"2025-06-14T10:08:49.231Z","openPorts":["22","80","554"],"assignmentType":"dhcp","createdAt":"2025-06-14T10:08:49.231Z","updatedAt":"2025-06-14T10:08:49.231Z"},{"id":1184,"ipAddress":"10.63.20.168","hostname":null,"macAddress":null,"vendor":null,"deviceType":null,"purpose":null,"location":null,"subnetId":21,"status":"online","lastSeen":"2025-06-14T10:08:49.232Z","openPorts":["22","80","554"],"assignmentType":"dhcp","createdAt":"2025-06-14T10:08:49.233Z","updatedAt":"2025-06-14T10:08:49.232Z"},{"id":1185,"ipAddress":"10.63.20.169","hostname":null,"macAddress":null,"vendor":null,"deviceType":null,"purpose":null,"location":null,"subnetId":21,"status":"online","lastSeen":"2025-06-14T10:08:49.234Z","openPorts":["22","80","554"],"assignmentType":"dhcp","createdAt":"2025-06-14T10:08:49.235Z","updatedAt":"2025-06-14T10:08:49.234Z"},{"id":1139,"ipAddress":"10.63.20.17","hostname":null,"macAddress":null,"vendor":null,"deviceType":null,"purpose":null,"location":null,"subnetId":21,"status":"online","lastSeen":"2025-06-14T10:08:49.133Z","openPorts":[],"assignmentType":"dhcp","createdAt":"2025-06-14T10:08:49.134Z","updatedAt":"2025-06-14T10:08:49.133Z"},{"id":1186,"ipAddress":"10.63.20.170","hostname":null,"macAddress":null,"vendor":null,"deviceType":null,"purpose":null,"location":null,"subnetId":21,"status":"online","lastSeen":"2025-06-14T10:08:49.236Z","openPorts":[],"assignmentType":"dhcp","createdAt":"2025-06-14T10:08:49.236Z","updatedAt":"2025-06-14T10:08:49.236Z"},{"id":1187,"ipAddress":"10.63.20.171","hostname":null,"macAddress":null,"vendor":null,"deviceType":null,"purpose":null,"location":null,"subnetId":21,"status":"online","lastSeen":"2025-06-14T10:08:49.238Z","openPorts":[],"assignmentType":"dhcp","createdAt":"2025-06-14T10:08:49.238Z","updatedAt":"2025-06-14T10:08:49.238Z"},{"id":1188,"ipAddress":"10.63.20.172","hostname":null,"macAddress":null,"vendor":null,"deviceType":null,"purpose":null,"location":null,"subnetId":21,"status":"online","lastSeen":"2025-06-14T10:08:49.240Z","openPorts":[],"assignmentType":"dhcp","createdAt":"2025-06-14T10:08:49.240Z","updatedAt":"2025-06-14T10:08:49.240Z"},{"id":1189,"ipAddress":"10.63.20.173","hostname":null,"macAddress":null,"vendor":null,"deviceType":null,"purpose":null,"location":null,"subnetId":21,"status":"online","lastSeen":"2025-06-14T10:08:49.242Z","openPorts":[],"assignmentType":"dhcp","createdAt":"2025-06-14T10:08:49.242Z","updatedAt":"2025-06-14T10:08:49.242Z"},{"id":1190,"ipAddress":"10.63.20.174","hostname":null,"macAddress":null,"vendor":null,"deviceType":null,"purpose":null,"location":null,"subnetId":21,"status":"online","lastSeen":"2025-06-14T10:08:49.244Z","openPorts":[],"assignmentType":"dhcp","createdAt":"2025-06-14T10:08:49.244Z","updatedAt":"2025-06-14T10:08:49.244Z"},{"id":1191,"ipAddress":"10.63.20.175","hostname":null,"macAddress":null,"vendor":null,"deviceType":null,"purpose":null,"location":null,"subnetId":21,"status":"online","lastSeen":"2025-06-14T10:08:49.245Z","openPorts":[],"assignmentType":"dhcp","createdAt":"2025-06-14T10:08:49.246Z","updatedAt":"2025-06-14T10:08:49.245Z"},{"id":1192,"ipAddress":"10.63.20.176","hostname":null,"macAddress":null,"vendor":null,"deviceType":null,"purpose":null,"location":null,"subnetId":21,"status":"online","lastSeen":"2025-06-14T10:08:49.248Z","openPorts":[],"assignmentType":"dhcp","createdAt":"2025-06-14T10:08:49.248Z","updatedAt":"2025-06-14T10:08:49.248Z"},{"id":1193,"ipAddress":"10.63.20.177","hostname":null,"macAddress":null,"vendor":null,"deviceType":null,"purpose":null,"location":null,"subnetId":21,"status":"online","lastSeen":"2025-06-14T10:08:49.250Z","openPorts":[],"assignmentType":"dhcp","createdAt":"2025-06-14T10:08:49.250Z","updatedAt":"2025-06-14T10:08:49.250Z"},{"id":1194,"ipAddress":"10.63.20.178","hostname":null,"macAddress":null,"vendor":null,"deviceType":null,"purpose":null,"location":null,"subnetId":21,"status":"online","lastSeen":"2025-06-14T10:08:49.251Z","openPorts":[],"assignmentType":"dhcp","createdAt":"2025-06-14T10:08:49.252Z","updatedAt":"2025-06-14T10:08:49.251Z"},{"id":1195,"ipAddress":"10.63.20.179","hostname":null,"macAddress":null,"vendor":null,"deviceType":null,"purpose":null,"location":null,"subnetId":21,"status":"online","lastSeen":"2025-06-14T10:08:49.253Z","openPorts":[],"assignmentType":"dhcp","createdAt":"2025-06-14T10:08:49.254Z","updatedAt":"2025-06-14T10:08:49.253Z"},{"id":1140,"ipAddress":"10.63.20.18","hostname":null,"macAddress":null,"vendor":null,"deviceType":null,"purpose":null,"location":null,"subnetId":21,"status":"online","lastSeen":"2025-06-14T10:08:49.136Z","openPorts":["22"],"assignmentType":"dhcp","createdAt":"2025-06-14T10:08:49.136Z","updatedAt":"2025-06-14T10:08:49.136Z"},{"id":1196,"ipAddress":"10.63.20.180","hostname":null,"macAddress":null,"vendor":null,"deviceType":null,"purpose":null,"location":null,"subnetId":21,"status":"online","lastSeen":"2025-06-14T10:08:49.255Z","openPorts":[],"assignmentType":"dhcp","createdAt":"2025-06-14T10:08:49.256Z","updatedAt":"2025-06-14T10:08:49.255Z"},{"id":1197,"ipAddress":"10.63.20.181","hostname":null,"macAddress":null,"vendor":null,"deviceType":null,"purpose":null,"location":null,"subnetId":21,"status":"online","lastSeen":"2025-06-14T10:08:49.257Z","openPorts":[],"assignmentType":"dhcp","createdAt":"2025-06-14T10:08:49.258Z","updatedAt":"2025-06-14T10:08:49.257Z"},{"id":1198,"ipAddress":"10.63.20.182","hostname":null,"macAddress":null,"vendor":null,"deviceType":null,"purpose":null,"location":null,"subnetId":21,"status":"online","lastSeen":"2025-06-14T10:08:49.259Z","openPorts":["22","80","554"],"assignmentType":"dhcp","createdAt":"2025-06-14T10:08:49.259Z","updatedAt":"2025-06-14T10:08:49.259Z"}],"total":"123","page":1,"limit":50,"totalPages":3}obtv-admin@eng-control1:~/ipam-system$