obtv-admin@eng-control1:~/ipam-system$ curl -s http://localhost:5000/api/devices
{"data":[{"id":31,"ipAddress":"10.63.20.1","hostname":null,"macAddress":null,"vendor":null,"deviceType":null,"purpose":null,"location":null,"subnetId":2,"status":"online","lastSeen":"2025-06-16T19:13:10.947Z","openPorts":["22","80","443"],"assignmentType":"static","createdAt":"2025-06-16T19:13:10.947Z","updatedAt":"2025-06-16T19:13:10.947Z"},{"id":34,"ipAddress":"10.63.20.10","hostname":null,"macAddress":null,"vendor":null,"deviceType":null,"purpose":null,"location":null,"subnetId":2,"status":"online","lastSeen":"2025-06-16T19:13:10.956Z","openPorts":["80"],"assignmentType":"static","createdAt":"2025-06-16T19:13:10.957Z","updatedAt":"2025-06-16T19:13:10.957Z"},{"id":59,"ipAddress":"10.63.20.101","hostname":null,"macAddress":null,"vendor":null,"deviceType":null,"purpose":null,"location":null,"subnetId":2,"status":"online","lastSeen":"2025-06-16T19:13:11.000Z","openPorts":["22","80","139","443","445"],"assignmentType":"static","createdAt":"2025-06-16T19:13:11.000Z","updatedAt":"2025-06-16T19:13:11.000Z"},{"id":60,"ipAddress":"10.63.20.102","hostname":null,"macAddress":null,"vendor":null,"deviceType":null,"purpose":null,"location":null,"subnetId":2,"status":"online","lastSeen":"2025-06-16T19:13:11.002Z","openPorts":["135","139","445"],"assignmentType":"static","createdAt":"2025-06-16T19:13:11.002Z","updatedAt":"2025-06-16T19:13:11.002Z"},{"id":61,"ipAddress":"10.63.20.103","hostname":null,"macAddress":null,"vendor":null,"deviceType":null,"purpose":null,"location":null,"subnetId":2,"status":"online","lastSeen":"2025-06-16T19:13:11.003Z","openPorts":[],"assignmentType":"static","createdAt":"2025-06-16T19:13:11.004Z","updatedAt":"2025-06-16T19:13:11.004Z"},{"id":62,"ipAddress":"10.63.20.105","hostname":null,"macAddress":null,"vendor":null,"deviceType":null,"purpose":null,"location":null,"subnetId":2,"status":"online","lastSeen":"2025-06-16T19:13:11.005Z","openPorts":["22","23","80","443"],"assignmentType":"static","createdAt":"2025-06-16T19:13:11.006Z","updatedAt":"2025-06-16T19:13:11.006Z"},{"id":35,"ipAddress":"10.63.20.11","hostname":null,"macAddress":null,"vendor":null,"deviceType":null,"purpose":null,"location":null,"subnetId":2,"status":"online","lastSeen":"2025-06-16T19:13:10.958Z","openPorts":["80"],"assignmentType":"static","createdAt":"2025-06-16T19:13:10.958Z","updatedAt":"2025-06-16T19:13:10.958Z"},{"id":63,"ipAddress":"10.63.20.110","hostname":null,"macAddress":null,"vendor":null,"deviceType":null,"purpose":null,"location":null,"subnetId":2,"status":"online","lastSeen":"2025-06-16T19:13:11.007Z","openPorts":["22","80","139","443","445"],"assignmentType":"static","createdAt":"2025-06-16T19:13:11.007Z","updatedAt":"2025-06-16T19:13:11.007Z"},{"id":64,"ipAddress":"10.63.20.115","hostname":null,"macAddress":null,"vendor":null,"deviceType":null,"purpose":null,"location":null,"subnetId":2,"status":"online","lastSeen":"2025-06-16T19:13:11.009Z","openPorts":[],"assignmentType":"static","createdAt":"2025-06-16T19:13:11.009Z","updatedAt":"2025-06-16T19:13:11.009Z"},{"id":65,"ipAddress":"10.63.20.116","hostname":null,"macAddress":null,"vendor":null,"deviceType":null,"purpose":null,"location":null,"subnetId":2,"status":"online","lastSeen":"2025-06-16T19:13:11.010Z","openPorts":[],"assignmentType":"static","createdAt":"2025-06-16T19:13:11.011Z","updatedAt":"2025-06-16T19:13:11.011Z"},{"id":36,"ipAddress":"10.63.20.12","hostname":null,"macAddress":null,"vendor":null,"deviceType":null,"purpose":null,"location":null,"subnetId":2,"status":"online","lastSeen":"2025-06-16T19:13:10.960Z","openPorts":["80"],"assignmentType":"static","createdAt":"2025-06-16T19:13:10.960Z","updatedAt":"2025-06-16T19:13:10.960Z"},{"id":66,"ipAddress":"10.63.20.122","hostname":null,"macAddress":null,"vendor":null,"deviceType":null,"purpose":null,"location":null,"subnetId":2,"status":"online","lastSeen":"2025-06-16T19:13:11.012Z","openPorts":["135","139","445"],"assignmentType":"static","createdAt":"2025-06-16T19:13:11.012Z","updatedAt":"2025-06-16T19:13:11.012Z"},{"id":67,"ipAddress":"10.63.20.129","hostname":null,"macAddress":null,"vendor":null,"deviceType":null,"purpose":null,"location":null,"subnetId":2,"status":"online","lastSeen":"2025-06-16T19:13:11.014Z","openPorts":["80","443"],"assignmentType":"static","createdAt":"2025-06-16T19:13:11.014Z","updatedAt":"2025-06-16T19:13:11.014Z"},{"id":68,"ipAddress":"10.63.20.130","hostname":null,"macAddress":null,"vendor":null,"deviceType":null,"purpose":null,"location":null,"subnetId":2,"status":"online","lastSeen":"2025-06-16T19:13:11.015Z","openPorts":["80","443"],"assignmentType":"static","createdAt":"2025-06-16T19:13:11.015Z","updatedAt":"2025-06-16T19:13:11.015Z"},{"id":69,"ipAddress":"10.63.20.131","hostname":null,"macAddress":null,"vendor":null,"deviceType":null,"purpose":null,"location":null,"subnetId":2,"status":"online","lastSeen":"2025-06-16T19:13:11.017Z","openPorts":["22"],"assignmentType":"static","createdAt":"2025-06-16T19:13:11.017Z","updatedAt":"2025-06-16T19:13:11.017Z"},{"id":37,"ipAddress":"10.63.20.14","hostname":null,"macAddress":null,"vendor":null,"deviceType":null,"purpose":null,"location":null,"subnetId":2,"status":"online","lastSeen":"2025-06-16T19:13:10.961Z","openPorts":["80"],"assignmentType":"static","createdAt":"2025-06-16T19:13:10.962Z","updatedAt":"2025-06-16T19:13:10.962Z"},{"id":70,"ipAddress":"10.63.20.140","hostname":null,"macAddress":null,"vendor":null,"deviceType":null,"purpose":null,"location":null,"subnetId":2,"status":"online","lastSeen":"2025-06-16T19:13:11.018Z","openPorts":[],"assignmentType":"static","createdAt":"2025-06-16T19:13:11.019Z","updatedAt":"2025-06-16T19:13:11.019Z"},{"id":71,"ipAddress":"10.63.20.141","hostname":null,"macAddress":null,"vendor":null,"deviceType":null,"purpose":null,"location":null,"subnetId":2,"status":"online","lastSeen":"2025-06-16T19:13:11.020Z","openPorts":[],"assignmentType":"static","createdAt":"2025-06-16T19:13:11.021Z","updatedAt":"2025-06-16T19:13:11.021Z"},{"id":38,"ipAddress":"10.63.20.15","hostname":null,"macAddress":null,"vendor":null,"deviceType":null,"purpose":null,"location":null,"subnetId":2,"status":"online","lastSeen":"2025-06-16T19:13:10.963Z","openPorts":["135","139","445"],"assignmentType":"static","createdAt":"2025-06-16T19:13:10.964Z","updatedAt":"2025-06-16T19:13:10.964Z"},{"id":72,"ipAddress":"10.63.20.151","hostname":null,"macAddress":null,"vendor":null,"deviceType":null,"purpose":null,"location":null,"subnetId":2,"status":"online","lastSeen":"2025-06-16T19:13:11.022Z","openPorts":["22","80"],"assignmentType":"static","createdAt":"2025-06-16T19:13:11.022Z","updatedAt":"2025-06-16T19:13:11.022Z"},{"id":73,"ipAddress":"10.63.20.154","hostname":null,"macAddress":null,"vendor":null,"deviceType":null,"purpose":null,"location":null,"subnetId":2,"status":"online","lastSeen":"2025-06-16T19:13:11.024Z","openPorts":["22","80"],"assignmentType":"static","createdAt":"2025-06-16T19:13:11.024Z","updatedAt":"2025-06-16T19:13:11.024Z"},{"id":74,"ipAddress":"10.63.20.156","hostname":null,"macAddress":null,"vendor":null,"deviceType":null,"purpose":null,"location":null,"subnetId":2,"status":"online","lastSeen":"2025-06-16T19:13:11.025Z","openPorts":["80"],"assignmentType":"static","createdAt":"2025-06-16T19:13:11.025Z","updatedAt":"2025-06-16T19:13:11.025Z"},{"id":75,"ipAddress":"10.63.20.158","hostname":null,"macAddress":null,"vendor":null,"deviceType":null,"purpose":null,"location":null,"subnetId":2,"status":"online","lastSeen":"2025-06-16T19:13:11.027Z","openPorts":["22","80"],"assignmentType":"static","createdAt":"2025-06-16T19:13:11.027Z","updatedAt":"2025-06-16T19:13:11.027Z"},{"id":76,"ipAddress":"10.63.20.159","hostname":null,"macAddress":null,"vendor":null,"deviceType":null,"purpose":null,"location":null,"subnetId":2,"status":"online","lastSeen":"2025-06-16T19:13:11.028Z","openPorts":["22","80"],"assignmentType":"static","createdAt":"2025-06-16T19:13:11.028Z","updatedAt":"2025-06-16T19:13:11.028Z"},{"id":39,"ipAddress":"10.63.20.16","hostname":null,"macAddress":null,"vendor":null,"deviceType":null,"purpose":null,"location":null,"subnetId":2,"status":"online","lastSeen":"2025-06-16T19:13:10.965Z","openPorts":["22"],"assignmentType":"static","createdAt":"2025-06-16T19:13:10.966Z","updatedAt":"2025-06-16T19:13:10.966Z"},{"id":77,"ipAddress":"10.63.20.160","hostname":null,"macAddress":null,"vendor":null,"deviceType":null,"purpose":null,"location":null,"subnetId":2,"status":"online","lastSeen":"2025-06-16T19:13:11.030Z","openPorts":["22","80"],"assignmentType":"static","createdAt":"2025-06-16T19:13:11.030Z","updatedAt":"2025-06-16T19:13:11.030Z"},{"id":78,"ipAddress":"10.63.20.161","hostname":null,"macAddress":null,"vendor":null,"deviceType":null,"purpose":null,"location":null,"subnetId":2,"status":"online","lastSeen":"2025-06-16T19:13:11.031Z","openPorts":["22","80"],"assignmentType":"static","createdAt":"2025-06-16T19:13:11.031Z","updatedAt":"2025-06-16T19:13:11.031Z"},{"id":79,"ipAddress":"10.63.20.162","hostname":null,"macAddress":null,"vendor":null,"deviceType":null,"purpose":null,"location":null,"subnetId":2,"status":"online","lastSeen":"2025-06-16T19:13:11.033Z","openPorts":["22","80"],"assignmentType":"static","createdAt":"2025-06-16T19:13:11.033Z","updatedAt":"2025-06-16T19:13:11.033Z"},{"id":80,"ipAddress":"10.63.20.163","hostname":null,"macAddress":null,"vendor":null,"deviceType":null,"purpose":null,"location":null,"subnetId":2,"status":"online","lastSeen":"2025-06-16T19:13:11.034Z","openPorts":["22","80"],"assignmentType":"static","createdAt":"2025-06-16T19:13:11.035Z","updatedAt":"2025-06-16T19:13:11.035Z"},{"id":81,"ipAddress":"10.63.20.164","hostname":null,"macAddress":null,"vendor":null,"deviceType":null,"purpose":null,"location":null,"subnetId":2,"status":"online","lastSeen":"2025-06-16T19:13:11.036Z","openPorts":["22","80"],"assignmentType":"static","createdAt":"2025-06-16T19:13:11.036Z","updatedAt":"2025-06-16T19:13:11.036Z"},{"id":82,"ipAddress":"10.63.20.165","hostname":null,"macAddress":null,"vendor":null,"deviceType":null,"purpose":null,"location":null,"subnetId":2,"status":"online","lastSeen":"2025-06-16T19:13:11.038Z","openPorts":["22","80"],"assignmentType":"static","createdAt":"2025-06-16T19:13:11.038Z","updatedAt":"2025-06-16T19:13:11.038Z"},{"id":83,"ipAddress":"10.63.20.166","hostname":null,"macAddress":null,"vendor":null,"deviceType":null,"purpose":null,"location":null,"subnetId":2,"status":"online","lastSeen":"2025-06-16T19:13:11.039Z","openPorts":["22","80"],"assignmentType":"static","createdAt":"2025-06-16T19:13:11.039Z","updatedAt":"2025-06-16T19:13:11.039Z"},{"id":84,"ipAddress":"10.63.20.167","hostname":null,"macAddress":null,"vendor":null,"deviceType":null,"purpose":null,"location":null,"subnetId":2,"status":"online","lastSeen":"2025-06-16T19:13:11.041Z","openPorts":["22","80"],"assignmentType":"static","createdAt":"2025-06-16T19:13:11.041Z","updatedAt":"2025-06-16T19:13:11.041Z"},{"id":85,"ipAddress":"10.63.20.168","hostname":null,"macAddress":null,"vendor":null,"deviceType":null,"purpose":null,"location":null,"subnetId":2,"status":"online","lastSeen":"2025-06-16T19:13:11.042Z","openPorts":["22","80"],"assignmentType":"static","createdAt":"2025-06-16T19:13:11.043Z","updatedAt":"2025-06-16T19:13:11.043Z"},{"id":86,"ipAddress":"10.63.20.169","hostname":null,"macAddress":null,"vendor":null,"deviceType":null,"purpose":null,"location":null,"subnetId":2,"status":"online","lastSeen":"2025-06-16T19:13:11.044Z","openPorts":["22","80"],"assignmentType":"static","createdAt":"2025-06-16T19:13:11.044Z","updatedAt":"2025-06-16T19:13:11.044Z"},{"id":40,"ipAddress":"10.63.20.17","hostname":null,"macAddress":null,"vendor":null,"deviceType":null,"purpose":null,"location":null,"subnetId":2,"status":"online","lastSeen":"2025-06-16T19:13:10.967Z","openPorts":["135","139","445"],"assignmentType":"static","createdAt":"2025-06-16T19:13:10.968Z","updatedAt":"2025-06-16T19:13:10.968Z"},{"id":87,"ipAddress":"10.63.20.170","hostname":null,"macAddress":null,"vendor":null,"deviceType":null,"purpose":null,"location":null,"subnetId":2,"status":"online","lastSeen":"2025-06-16T19:13:11.045Z","openPorts":[],"assignmentType":"static","createdAt":"2025-06-16T19:13:11.046Z","updatedAt":"2025-06-16T19:13:11.046Z"},{"id":88,"ipAddress":"10.63.20.171","hostname":null,"macAddress":null,"vendor":null,"deviceType":null,"purpose":null,"location":null,"subnetId":2,"status":"online","lastSeen":"2025-06-16T19:13:11.047Z","openPorts":[],"assignmentType":"static","createdAt":"2025-06-16T19:13:11.048Z","updatedAt":"2025-06-16T19:13:11.048Z"},{"id":89,"ipAddress":"10.63.20.172","hostname":null,"macAddress":null,"vendor":null,"deviceType":null,"purpose":null,"location":null,"subnetId":2,"status":"online","lastSeen":"2025-06-16T19:13:11.049Z","openPorts":[],"assignmentType":"static","createdAt":"2025-06-16T19:13:11.049Z","updatedAt":"2025-06-16T19:13:11.049Z"},{"id":90,"ipAddress":"10.63.20.173","hostname":null,"macAddress":null,"vendor":null,"deviceType":null,"purpose":null,"location":null,"subnetId":2,"status":"online","lastSeen":"2025-06-16T19:13:11.050Z","openPorts":[],"assignmentType":"static","createdAt":"2025-06-16T19:13:11.051Z","updatedAt":"2025-06-16T19:13:11.051Z"},{"id":91,"ipAddress":"10.63.20.174","hostname":null,"macAddress":null,"vendor":null,"deviceType":null,"purpose":null,"location":null,"subnetId":2,"status":"online","lastSeen":"2025-06-16T19:13:11.052Z","openPorts":[],"assignmentType":"static","createdAt":"2025-06-16T19:13:11.052Z","updatedAt":"2025-06-16T19:13:11.052Z"},{"id":92,"ipAddress":"10.63.20.175","hostname":null,"macAddress":null,"vendor":null,"deviceType":null,"purpose":null,"location":null,"subnetId":2,"status":"online","lastSeen":"2025-06-16T19:13:11.053Z","openPorts":[],"assignmentType":"static","createdAt":"2025-06-16T19:13:11.054Z","updatedAt":"2025-06-16T19:13:11.054Z"},{"id":93,"ipAddress":"10.63.20.176","hostname":null,"macAddress":null,"vendor":null,"deviceType":null,"purpose":null,"location":null,"subnetId":2,"status":"online","lastSeen":"2025-06-16T19:13:11.055Z","openPorts":[],"assignmentType":"static","createdAt":"2025-06-16T19:13:11.055Z","updatedAt":"2025-06-16T19:13:11.055Z"},{"id":94,"ipAddress":"10.63.20.177","hostname":null,"macAddress":null,"vendor":null,"deviceType":null,"purpose":null,"location":null,"subnetId":2,"status":"online","lastSeen":"2025-06-16T19:13:11.056Z","openPorts":[],"assignmentType":"static","createdAt":"2025-06-16T19:13:11.057Z","updatedAt":"2025-06-16T19:13:11.057Z"},{"id":95,"ipAddress":"10.63.20.178","hostname":null,"macAddress":null,"vendor":null,"deviceType":null,"purpose":null,"location":null,"subnetId":2,"status":"online","lastSeen":"2025-06-16T19:13:11.058Z","openPorts":[],"assignmentType":"static","createdAt":"2025-06-16T19:13:11.058Z","updatedAt":"2025-06-16T19:13:11.058Z"},{"id":96,"ipAddress":"10.63.20.179","hostname":null,"macAddress":null,"vendor":null,"deviceType":null,"purpose":null,"location":null,"subnetId":2,"status":"online","lastSeen":"2025-06-16T19:13:11.059Z","openPorts":[],"assignmentType":"static","createdAt":"2025-06-16T19:13:11.060Z","updatedAt":"2025-06-16T19:13:11.060Z"},{"id":41,"ipAddress":"10.63.20.18","hostname":null,"macAddress":null,"vendor":null,"deviceType":null,"purpose":null,"location":null,"subnetId":2,"status":"online","lastSeen":"2025-06-16T19:13:10.970Z","openPorts":["22"],"assignmentType":"static","createdAt":"2025-06-16T19:13:10.970Z","updatedAt":"2025-06-16T19:13:10.970Z"},{"id":97,"ipAddress":"10.63.20.180","hostname":null,"macAddress":null,"vendor":null,"deviceType":null,"purpose":null,"location":null,"subnetId":2,"status":"online","lastSeen":"2025-06-16T19:13:11.061Z","openPorts":[],"assignmentType":"static","createdAt":"2025-06-16T19:13:11.061Z","updatedAt":"2025-06-16T19:13:11.061Z"},{"id":98,"ipAddress":"10.63.20.181","hostname":null,"macAddress":null,"vendor":null,"deviceType":null,"purpose":null,"location":null,"subnetId":2,"status":"online","lastSeen":"2025-06-16T19:13:11.063Z","openPorts":[],"assignmentType":"static","createdAt":"2025-06-16T19:13:11.063Z","updatedAt":"2025-06-16T19:13:11.063Z"},{"id":99,"ipAddress":"10.63.20.182","hostname":null,"macAddress":null,"vendor":null,"deviceType":null,"purpose":null,"location":null,"subnetId":2,"status":"online","lastSeen":"2025-06-16T19:13:11.064Z","openPorts":["22","80"],"assignmentType":"static","createdAt":"2025-06-16T19:13:11.064Z","updatedAt":"2025-06-16T19:13:11.064Z"}],"total":122,"page":1,"limit":50,"totalPages":3}obtv-admin@eng-control1:~/ipam-system$