obtv-admin@eng-control1:~/ipam-system$ curl -s "http://localhost:5000/api/devices"
{"data":[{"id":32,"ipAddress":"10.63.20.1","hostname":null,"macAddress":null,"vendor":null,"deviceType":null,"purpose":null,"location":null,"subnetId":2,"status":"online","lastSeen":"2025-06-14T22:07:11.827Z","openPorts":["22","80","443"],"assignmentType":"static","createdAt":"2025-06-14T22:06:50.016Z","updatedAt":"2025-06-14T22:07:11.827Z"},{"id":35,"ipAddress":"10.63.20.10","hostname":null,"macAddress":null,"vendor":null,"deviceType":null,"purpose":null,"location":null,"subnetId":2,"status":"online","lastSeen":"2025-06-14T22:07:11.833Z","openPorts":["80"],"assignmentType":"static","createdAt":"2025-06-14T22:06:50.025Z","updatedAt":"2025-06-14T22:07:11.833Z"},{"id":60,"ipAddress":"10.63.20.101","hostname":null,"macAddress":null,"vendor":null,"deviceType":null,"purpose":null,"location":null,"subnetId":2,"status":"online","lastSeen":"2025-06-14T22:07:11.871Z","openPorts":["22","80","139","443","445"],"assignmentType":"static","createdAt":"2025-06-14T22:06:50.065Z","updatedAt":"2025-06-14T22:07:11.871Z"},{"id":61,"ipAddress":"10.63.20.102","hostname":null,"macAddress":null,"vendor":null,"deviceType":null,"purpose":null,"location":null,"subnetId":2,"status":"online","lastSeen":"2025-06-14T22:07:11.872Z","openPorts":["135","139","445"],"assignmentType":"static","createdAt":"2025-06-14T22:06:50.067Z","updatedAt":"2025-06-14T22:07:11.872Z"},{"id":62,"ipAddress":"10.63.20.103","hostname":null,"macAddress":null,"vendor":null,"deviceType":null,"purpose":null,"location":null,"subnetId":2,"status":"online","lastSeen":"2025-06-14T22:07:11.874Z","openPorts":[],"assignmentType":"static","createdAt":"2025-06-14T22:06:50.069Z","updatedAt":"2025-06-14T22:07:11.874Z"},{"id":63,"ipAddress":"10.63.20.105","hostname":null,"macAddress":null,"vendor":null,"deviceType":null,"purpose":null,"location":null,"subnetId":2,"status":"online","lastSeen":"2025-06-14T22:07:11.875Z","openPorts":["22","23","80","443"],"assignmentType":"static","createdAt":"2025-06-14T22:06:50.070Z","updatedAt":"2025-06-14T22:07:11.875Z"},{"id":36,"ipAddress":"10.63.20.11","hostname":null,"macAddress":null,"vendor":null,"deviceType":null,"purpose":null,"location":null,"subnetId":2,"status":"online","lastSeen":"2025-06-14T22:07:11.834Z","openPorts":["80"],"assignmentType":"static","createdAt":"2025-06-14T22:06:50.026Z","updatedAt":"2025-06-14T22:07:11.834Z"},{"id":64,"ipAddress":"10.63.20.110","hostname":null,"macAddress":null,"vendor":null,"deviceType":null,"purpose":null,"location":null,"subnetId":2,"status":"online","lastSeen":"2025-06-14T22:07:11.877Z","openPorts":["22","80","139","443","445"],"assignmentType":"static","createdAt":"2025-06-14T22:06:50.072Z","updatedAt":"2025-06-14T22:07:11.877Z"},{"id":65,"ipAddress":"10.63.20.115","hostname":null,"macAddress":null,"vendor":null,"deviceType":null,"purpose":null,"location":null,"subnetId":2,"status":"online","lastSeen":"2025-06-14T22:07:11.878Z","openPorts":[],"assignmentType":"static","createdAt":"2025-06-14T22:06:50.073Z","updatedAt":"2025-06-14T22:07:11.878Z"},{"id":66,"ipAddress":"10.63.20.116","hostname":null,"macAddress":null,"vendor":null,"deviceType":null,"purpose":null,"location":null,"subnetId":2,"status":"online","lastSeen":"2025-06-14T22:07:11.880Z","openPorts":[],"assignmentType":"static","createdAt":"2025-06-14T22:06:50.075Z","updatedAt":"2025-06-14T22:07:11.880Z"},{"id":37,"ipAddress":"10.63.20.12","hostname":null,"macAddress":null,"vendor":null,"deviceType":null,"purpose":null,"location":null,"subnetId":2,"status":"online","lastSeen":"2025-06-14T22:07:11.836Z","openPorts":["80"],"assignmentType":"static","createdAt":"2025-06-14T22:06:50.028Z","updatedAt":"2025-06-14T22:07:11.836Z"},{"id":67,"ipAddress":"10.63.20.122","hostname":null,"macAddress":null,"vendor":null,"deviceType":null,"purpose":null,"location":null,"subnetId":2,"status":"online","lastSeen":"2025-06-14T22:07:11.881Z","openPorts":["135","139","445"],"assignmentType":"static","createdAt":"2025-06-14T22:06:50.076Z","updatedAt":"2025-06-14T22:07:11.881Z"},{"id":68,"ipAddress":"10.63.20.129","hostname":null,"macAddress":null,"vendor":null,"deviceType":null,"purpose":null,"location":null,"subnetId":2,"status":"online","lastSeen":"2025-06-14T22:07:11.883Z","openPorts":["80","443"],"assignmentType":"static","createdAt":"2025-06-14T22:06:50.078Z","updatedAt":"2025-06-14T22:07:11.883Z"},{"id":69,"ipAddress":"10.63.20.130","hostname":null,"macAddress":null,"vendor":null,"deviceType":null,"purpose":null,"location":null,"subnetId":2,"status":"online","lastSeen":"2025-06-14T22:07:11.884Z","openPorts":["80","443"],"assignmentType":"static","createdAt":"2025-06-14T22:06:50.080Z","updatedAt":"2025-06-14T22:07:11.884Z"},{"id":70,"ipAddress":"10.63.20.131","hostname":null,"macAddress":null,"vendor":null,"deviceType":null,"purpose":null,"location":null,"subnetId":2,"status":"online","lastSeen":"2025-06-14T22:07:11.886Z","openPorts":["22"],"assignmentType":"static","createdAt":"2025-06-14T22:06:50.081Z","updatedAt":"2025-06-14T22:07:11.886Z"},{"id":38,"ipAddress":"10.63.20.14","hostname":null,"macAddress":null,"vendor":null,"deviceType":null,"purpose":null,"location":null,"subnetId":2,"status":"online","lastSeen":"2025-06-14T22:07:11.837Z","openPorts":["80"],"assignmentType":"static","createdAt":"2025-06-14T22:06:50.030Z","updatedAt":"2025-06-14T22:07:11.837Z"},{"id":71,"ipAddress":"10.63.20.140","hostname":null,"macAddress":null,"vendor":null,"deviceType":null,"purpose":null,"location":null,"subnetId":2,"status":"online","lastSeen":"2025-06-14T22:07:11.888Z","openPorts":[],"assignmentType":"static","createdAt":"2025-06-14T22:06:50.083Z","updatedAt":"2025-06-14T22:07:11.888Z"},{"id":72,"ipAddress":"10.63.20.141","hostname":null,"macAddress":null,"vendor":null,"deviceType":null,"purpose":null,"location":null,"subnetId":2,"status":"online","lastSeen":"2025-06-14T22:07:11.889Z","openPorts":[],"assignmentType":"static","createdAt":"2025-06-14T22:06:50.084Z","updatedAt":"2025-06-14T22:07:11.889Z"},{"id":39,"ipAddress":"10.63.20.15","hostname":null,"macAddress":null,"vendor":null,"deviceType":null,"purpose":null,"location":null,"subnetId":2,"status":"online","lastSeen":"2025-06-14T22:07:11.839Z","openPorts":["135","139","445"],"assignmentType":"static","createdAt":"2025-06-14T22:06:50.031Z","updatedAt":"2025-06-14T22:07:11.839Z"},{"id":73,"ipAddress":"10.63.20.151","hostname":null,"macAddress":null,"vendor":null,"deviceType":null,"purpose":null,"location":null,"subnetId":2,"status":"online","lastSeen":"2025-06-14T22:07:11.891Z","openPorts":["22","80"],"assignmentType":"static","createdAt":"2025-06-14T22:06:50.086Z","updatedAt":"2025-06-14T22:07:11.891Z"},{"id":74,"ipAddress":"10.63.20.154","hostname":null,"macAddress":null,"vendor":null,"deviceType":null,"purpose":null,"location":null,"subnetId":2,"status":"online","lastSeen":"2025-06-14T22:07:11.892Z","openPorts":["22","80"],"assignmentType":"static","createdAt":"2025-06-14T22:06:50.088Z","updatedAt":"2025-06-14T22:07:11.892Z"},{"id":75,"ipAddress":"10.63.20.156","hostname":null,"macAddress":null,"vendor":null,"deviceType":null,"purpose":null,"location":null,"subnetId":2,"status":"online","lastSeen":"2025-06-14T22:07:11.894Z","openPorts":["80"],"assignmentType":"static","createdAt":"2025-06-14T22:06:50.089Z","updatedAt":"2025-06-14T22:07:11.894Z"},{"id":76,"ipAddress":"10.63.20.158","hostname":null,"macAddress":null,"vendor":null,"deviceType":null,"purpose":null,"location":null,"subnetId":2,"status":"online","lastSeen":"2025-06-14T22:07:11.895Z","openPorts":["22","80"],"assignmentType":"static","createdAt":"2025-06-14T22:06:50.091Z","updatedAt":"2025-06-14T22:07:11.895Z"},{"id":77,"ipAddress":"10.63.20.159","hostname":null,"macAddress":null,"vendor":null,"deviceType":null,"purpose":null,"location":null,"subnetId":2,"status":"online","lastSeen":"2025-06-14T22:07:11.897Z","openPorts":["22","80"],"assignmentType":"static","createdAt":"2025-06-14T22:06:50.092Z","updatedAt":"2025-06-14T22:07:11.897Z"},{"id":40,"ipAddress":"10.63.20.16","hostname":null,"macAddress":null,"vendor":null,"deviceType":null,"purpose":null,"location":null,"subnetId":2,"status":"online","lastSeen":"2025-06-14T22:07:11.840Z","openPorts":["22"],"assignmentType":"static","createdAt":"2025-06-14T22:06:50.033Z","updatedAt":"2025-06-14T22:07:11.840Z"},{"id":78,"ipAddress":"10.63.20.160","hostname":null,"macAddress":null,"vendor":null,"deviceType":null,"purpose":null,"location":null,"subnetId":2,"status":"online","lastSeen":"2025-06-14T22:07:11.898Z","openPorts":["22","80"],"assignmentType":"static","createdAt":"2025-06-14T22:06:50.095Z","updatedAt":"2025-06-14T22:07:11.898Z"},{"id":79,"ipAddress":"10.63.20.161","hostname":null,"macAddress":null,"vendor":null,"deviceType":null,"purpose":null,"location":null,"subnetId":2,"status":"online","lastSeen":"2025-06-14T22:07:11.899Z","openPorts":["22","80"],"assignmentType":"static","createdAt":"2025-06-14T22:06:50.097Z","updatedAt":"2025-06-14T22:07:11.899Z"},{"id":80,"ipAddress":"10.63.20.162","hostname":null,"macAddress":null,"vendor":null,"deviceType":null,"purpose":null,"location":null,"subnetId":2,"status":"online","lastSeen":"2025-06-14T22:07:11.901Z","openPorts":["22","80"],"assignmentType":"static","createdAt":"2025-06-14T22:06:50.099Z","updatedAt":"2025-06-14T22:07:11.901Z"},{"id":81,"ipAddress":"10.63.20.163","hostname":null,"macAddress":null,"vendor":null,"deviceType":null,"purpose":null,"location":null,"subnetId":2,"status":"online","lastSeen":"2025-06-14T22:07:11.902Z","openPorts":["22","80"],"assignmentType":"static","createdAt":"2025-06-14T22:06:50.101Z","updatedAt":"2025-06-14T22:07:11.902Z"},{"id":82,"ipAddress":"10.63.20.164","hostname":null,"macAddress":null,"vendor":null,"deviceType":null,"purpose":null,"location":null,"subnetId":2,"status":"online","lastSeen":"2025-06-14T22:07:11.904Z","openPorts":["22","80"],"assignmentType":"static","createdAt":"2025-06-14T22:06:50.102Z","updatedAt":"2025-06-14T22:07:11.904Z"},{"id":83,"ipAddress":"10.63.20.165","hostname":null,"macAddress":null,"vendor":null,"deviceType":null,"purpose":null,"location":null,"subnetId":2,"status":"online","lastSeen":"2025-06-14T22:07:11.905Z","openPorts":["22","80"],"assignmentType":"static","createdAt":"2025-06-14T22:06:50.104Z","updatedAt":"2025-06-14T22:07:11.905Z"},{"id":84,"ipAddress":"10.63.20.166","hostname":null,"macAddress":null,"vendor":null,"deviceType":null,"purpose":null,"location":null,"subnetId":2,"status":"online","lastSeen":"2025-06-14T22:07:11.907Z","openPorts":["22","80"],"assignmentType":"static","createdAt":"2025-06-14T22:06:50.106Z","updatedAt":"2025-06-14T22:07:11.907Z"},{"id":85,"ipAddress":"10.63.20.167","hostname":null,"macAddress":null,"vendor":null,"deviceType":null,"purpose":null,"location":null,"subnetId":2,"status":"online","lastSeen":"2025-06-14T22:07:11.909Z","openPorts":["22","80"],"assignmentType":"static","createdAt":"2025-06-14T22:06:50.107Z","updatedAt":"2025-06-14T22:07:11.909Z"},{"id":86,"ipAddress":"10.63.20.168","hostname":null,"macAddress":null,"vendor":null,"deviceType":null,"purpose":null,"location":null,"subnetId":2,"status":"online","lastSeen":"2025-06-14T22:07:11.910Z","openPorts":["22","80"],"assignmentType":"static","createdAt":"2025-06-14T22:06:50.109Z","updatedAt":"2025-06-14T22:07:11.910Z"},{"id":87,"ipAddress":"10.63.20.169","hostname":null,"macAddress":null,"vendor":null,"deviceType":null,"purpose":null,"location":null,"subnetId":2,"status":"online","lastSeen":"2025-06-14T22:07:11.912Z","openPorts":["22","80"],"assignmentType":"static","createdAt":"2025-06-14T22:06:50.111Z","updatedAt":"2025-06-14T22:07:11.912Z"},{"id":41,"ipAddress":"10.63.20.17","hostname":null,"macAddress":null,"vendor":null,"deviceType":null,"purpose":null,"location":null,"subnetId":2,"status":"online","lastSeen":"2025-06-14T22:07:11.842Z","openPorts":["135","139","445"],"assignmentType":"static","createdAt":"2025-06-14T22:06:50.034Z","updatedAt":"2025-06-14T22:07:11.842Z"},{"id":88,"ipAddress":"10.63.20.170","hostname":null,"macAddress":null,"vendor":null,"deviceType":null,"purpose":null,"location":null,"subnetId":2,"status":"online","lastSeen":"2025-06-14T22:07:11.915Z","openPorts":[],"assignmentType":"static","createdAt":"2025-06-14T22:06:50.113Z","updatedAt":"2025-06-14T22:07:11.915Z"},{"id":89,"ipAddress":"10.63.20.171","hostname":null,"macAddress":null,"vendor":null,"deviceType":null,"purpose":null,"location":null,"subnetId":2,"status":"online","lastSeen":"2025-06-14T22:07:11.917Z","openPorts":[],"assignmentType":"static","createdAt":"2025-06-14T22:06:50.115Z","updatedAt":"2025-06-14T22:07:11.917Z"},{"id":90,"ipAddress":"10.63.20.172","hostname":null,"macAddress":null,"vendor":null,"deviceType":null,"purpose":null,"location":null,"subnetId":2,"status":"online","lastSeen":"2025-06-14T22:07:11.918Z","openPorts":[],"assignmentType":"static","createdAt":"2025-06-14T22:06:50.117Z","updatedAt":"2025-06-14T22:07:11.918Z"},{"id":91,"ipAddress":"10.63.20.173","hostname":null,"macAddress":null,"vendor":null,"deviceType":null,"purpose":null,"location":null,"subnetId":2,"status":"online","lastSeen":"2025-06-14T22:07:11.920Z","openPorts":[],"assignmentType":"static","createdAt":"2025-06-14T22:06:50.120Z","updatedAt":"2025-06-14T22:07:11.920Z"},{"id":92,"ipAddress":"10.63.20.174","hostname":null,"macAddress":null,"vendor":null,"deviceType":null,"purpose":null,"location":null,"subnetId":2,"status":"online","lastSeen":"2025-06-14T22:07:11.921Z","openPorts":[],"assignmentType":"static","createdAt":"2025-06-14T22:06:50.122Z","updatedAt":"2025-06-14T22:07:11.921Z"},{"id":93,"ipAddress":"10.63.20.175","hostname":null,"macAddress":null,"vendor":null,"deviceType":null,"purpose":null,"location":null,"subnetId":2,"status":"online","lastSeen":"2025-06-14T22:07:11.923Z","openPorts":[],"assignmentType":"static","createdAt":"2025-06-14T22:06:50.124Z","updatedAt":"2025-06-14T22:07:11.923Z"},{"id":94,"ipAddress":"10.63.20.176","hostname":null,"macAddress":null,"vendor":null,"deviceType":null,"purpose":null,"location":null,"subnetId":2,"status":"online","lastSeen":"2025-06-14T22:07:11.924Z","openPorts":[],"assignmentType":"static","createdAt":"2025-06-14T22:06:50.125Z","updatedAt":"2025-06-14T22:07:11.924Z"},{"id":95,"ipAddress":"10.63.20.177","hostname":null,"macAddress":null,"vendor":null,"deviceType":null,"purpose":null,"location":null,"subnetId":2,"status":"online","lastSeen":"2025-06-14T22:07:11.926Z","openPorts":[],"assignmentType":"static","createdAt":"2025-06-14T22:06:50.127Z","updatedAt":"2025-06-14T22:07:11.926Z"},{"id":96,"ipAddress":"10.63.20.178","hostname":null,"macAddress":null,"vendor":null,"deviceType":null,"purpose":null,"location":null,"subnetId":2,"status":"online","lastSeen":"2025-06-14T22:07:11.927Z","openPorts":[],"assignmentType":"static","createdAt":"2025-06-14T22:06:50.128Z","updatedAt":"2025-06-14T22:07:11.927Z"},{"id":97,"ipAddress":"10.63.20.179","hostname":null,"macAddress":null,"vendor":null,"deviceType":null,"purpose":null,"location":null,"subnetId":2,"status":"online","lastSeen":"2025-06-14T22:07:11.928Z","openPorts":[],"assignmentType":"static","createdAt":"2025-06-14T22:06:50.130Z","updatedAt":"2025-06-14T22:07:11.928Z"},{"id":42,"ipAddress":"10.63.20.18","hostname":null,"macAddress":null,"vendor":null,"deviceType":null,"purpose":null,"location":null,"subnetId":2,"status":"online","lastSeen":"2025-06-14T22:07:11.843Z","openPorts":["22"],"assignmentType":"static","createdAt":"2025-06-14T22:06:50.036Z","updatedAt":"2025-06-14T22:07:11.843Z"},{"id":98,"ipAddress":"10.63.20.180","hostname":null,"macAddress":null,"vendor":null,"deviceType":null,"purpose":null,"location":null,"subnetId":2,"status":"online","lastSeen":"2025-06-14T22:07:11.930Z","openPorts":[],"assignmentType":"static","createdAt":"2025-06-14T22:06:50.131Z","updatedAt":"2025-06-14T22:07:11.930Z"},{"id":99,"ipAddress":"10.63.20.181","hostname":null,"macAddress":null,"vendor":null,"deviceType":null,"purpose":null,"location":null,"subnetId":2,"status":"online","lastSeen":"2025-06-14T22:07:11.931Z","openPorts":[],"assignmentType":"static","createdAt":"2025-06-14T22:06:50.133Z","updatedAt":"2025-06-14T22:07:11.931Z"},{"id":100,"ipAddress":"10.63.20.182","hostname":null,"macAddress":null,"vendor":null,"deviceType":null,"purpose":null,"location":null,"subnetId":2,"status":"online","lastSeen":"2025-06-14T22:07:11.932Z","openPorts":["22","80"],"assignmentType":"static","createdAt":"2025-06-14T22:06:50.134Z","updatedAt":"2025-06-14T22:07:11.932Z"}],"total":123,"page":1,"limit":50,"totalPages":3}obtv-admin@eng-control1:~/ipam-system$