obtv-admin@eng-control1:~/ipam-system$ curl -s http://localhost:5000/api/devices
{"data":[{"id":31,"ipAddress":"10.63.20.1","hostname":null,"macAddress":null,"vendor":null,"deviceType":null,"purpose":null,"location":null,"subnetId":2,"status":"online","lastSeen":"2025-06-16T19:22:45.036Z","openPorts":["22","80","443"],"assignmentType":"static","createdAt":"2025-06-16T19:13:10.947Z","updatedAt":"2025-06-16T19:22:45.036Z"},{"id":34,"ipAddress":"10.63.20.10","hostname":null,"macAddress":null,"vendor":null,"deviceType":null,"purpose":null,"location":null,"subnetId":2,"status":"online","lastSeen":"2025-06-16T19:22:45.046Z","openPorts":["80"],"assignmentType":"static","createdAt":"2025-06-16T19:13:10.957Z","updatedAt":"2025-06-16T19:22:45.046Z"},{"id":59,"ipAddress":"10.63.20.101","hostname":null,"macAddress":null,"vendor":null,"deviceType":null,"purpose":null,"location":null,"subnetId":2,"status":"online","lastSeen":"2025-06-16T19:22:45.094Z","openPorts":["22","80","139","443","445"],"assignmentType":"static","createdAt":"2025-06-16T19:13:11.000Z","updatedAt":"2025-06-16T19:22:45.094Z"},{"id":60,"ipAddress":"10.63.20.102","hostname":null,"macAddress":null,"vendor":null,"deviceType":null,"purpose":null,"location":null,"subnetId":2,"status":"online","lastSeen":"2025-06-16T19:22:45.096Z","openPorts":["135","139","445"],"assignmentType":"static","createdAt":"2025-06-16T19:13:11.002Z","updatedAt":"2025-06-16T19:22:45.096Z"},{"id":61,"ipAddress":"10.63.20.103","hostname":null,"macAddress":null,"vendor":null,"deviceType":null,"purpose":null,"location":null,"subnetId":2,"status":"online","lastSeen":"2025-06-16T19:22:45.098Z","openPorts":[],"assignmentType":"static","createdAt":"2025-06-16T19:13:11.004Z","updatedAt":"2025-06-16T19:22:45.098Z"},{"id":62,"ipAddress":"10.63.20.105","hostname":null,"macAddress":null,"vendor":null,"deviceType":null,"purpose":null,"location":null,"subnetId":2,"status":"online","lastSeen":"2025-06-16T19:22:45.100Z","openPorts":["22","23","80","443"],"assignmentType":"static","createdAt":"2025-06-16T19:13:11.006Z","updatedAt":"2025-06-16T19:22:45.100Z"},{"id":35,"ipAddress":"10.63.20.11","hostname":null,"macAddress":null,"vendor":null,"deviceType":null,"purpose":null,"location":null,"subnetId":2,"status":"online","lastSeen":"2025-06-16T19:22:45.048Z","openPorts":["80"],"assignmentType":"static","createdAt":"2025-06-16T19:13:10.958Z","updatedAt":"2025-06-16T19:22:45.048Z"},{"id":63,"ipAddress":"10.63.20.110","hostname":null,"macAddress":null,"vendor":null,"deviceType":null,"purpose":null,"location":null,"subnetId":2,"status":"online","lastSeen":"2025-06-16T19:22:45.102Z","openPorts":["22","80","139","443","445"],"assignmentType":"static","createdAt":"2025-06-16T19:13:11.007Z","updatedAt":"2025-06-16T19:22:45.102Z"},{"id":64,"ipAddress":"10.63.20.115","hostname":null,"macAddress":null,"vendor":null,"deviceType":null,"purpose":null,"location":null,"subnetId":2,"status":"online","lastSeen":"2025-06-16T19:22:45.104Z","openPorts":[],"assignmentType":"static","createdAt":"2025-06-16T19:13:11.009Z","updatedAt":"2025-06-16T19:22:45.104Z"},{"id":65,"ipAddress":"10.63.20.116","hostname":null,"macAddress":null,"vendor":null,"deviceType":null,"purpose":null,"location":null,"subnetId":2,"status":"online","lastSeen":"2025-06-16T19:22:45.105Z","openPorts":[],"assignmentType":"static","createdAt":"2025-06-16T19:13:11.011Z","updatedAt":"2025-06-16T19:22:45.105Z"},{"id":36,"ipAddress":"10.63.20.12","hostname":null,"macAddress":null,"vendor":null,"deviceType":null,"purpose":null,"location":null,"subnetId":2,"status":"online","lastSeen":"2025-06-16T19:22:45.050Z","openPorts":["80"],"assignmentType":"static","createdAt":"2025-06-16T19:13:10.960Z","updatedAt":"2025-06-16T19:22:45.050Z"},{"id":66,"ipAddress":"10.63.20.122","hostname":null,"macAddress":null,"vendor":null,"deviceType":null,"purpose":null,"location":null,"subnetId":2,"status":"online","lastSeen":"2025-06-16T19:22:45.107Z","openPorts":["135","139","445"],"assignmentType":"static","createdAt":"2025-06-16T19:13:11.012Z","updatedAt":"2025-06-16T19:22:45.107Z"},{"id":67,"ipAddress":"10.63.20.129","hostname":null,"macAddress":null,"vendor":null,"deviceType":null,"purpose":null,"location":null,"subnetId":2,"status":"online","lastSeen":"2025-06-16T19:22:45.109Z","openPorts":["80","443"],"assignmentType":"static","createdAt":"2025-06-16T19:13:11.014Z","updatedAt":"2025-06-16T19:22:45.109Z"},{"id":68,"ipAddress":"10.63.20.130","hostname":null,"macAddress":null,"vendor":null,"deviceType":null,"purpose":null,"location":null,"subnetId":2,"status":"online","lastSeen":"2025-06-16T19:22:45.110Z","openPorts":["80","443"],"assignmentType":"static","createdAt":"2025-06-16T19:13:11.015Z","updatedAt":"2025-06-16T19:22:45.110Z"},{"id":69,"ipAddress":"10.63.20.131","hostname":null,"macAddress":null,"vendor":null,"deviceType":null,"purpose":null,"location":null,"subnetId":2,"status":"online","lastSeen":"2025-06-16T19:22:45.112Z","openPorts":["22"],"assignmentType":"static","createdAt":"2025-06-16T19:13:11.017Z","updatedAt":"2025-06-16T19:22:45.112Z"},{"id":37,"ipAddress":"10.63.20.14","hostname":null,"macAddress":null,"vendor":null,"deviceType":null,"purpose":null,"location":null,"subnetId":2,"status":"online","lastSeen":"2025-06-16T19:22:45.053Z","openPorts":["80"],"assignmentType":"static","createdAt":"2025-06-16T19:13:10.962Z","updatedAt":"2025-06-16T19:22:45.053Z"},{"id":70,"ipAddress":"10.63.20.140","hostname":null,"macAddress":null,"vendor":null,"deviceType":null,"purpose":null,"location":null,"subnetId":2,"status":"online","lastSeen":"2025-06-16T19:22:45.114Z","openPorts":[],"assignmentType":"static","createdAt":"2025-06-16T19:13:11.019Z","updatedAt":"2025-06-16T19:22:45.114Z"},{"id":71,"ipAddress":"10.63.20.141","hostname":null,"macAddress":null,"vendor":null,"deviceType":null,"purpose":null,"location":null,"subnetId":2,"status":"online","lastSeen":"2025-06-16T19:22:45.116Z","openPorts":[],"assignmentType":"static","createdAt":"2025-06-16T19:13:11.021Z","updatedAt":"2025-06-16T19:22:45.116Z"},{"id":38,"ipAddress":"10.63.20.15","hostname":null,"macAddress":null,"vendor":null,"deviceType":null,"purpose":null,"location":null,"subnetId":2,"status":"online","lastSeen":"2025-06-16T19:22:45.055Z","openPorts":["135","139","445"],"assignmentType":"static","createdAt":"2025-06-16T19:13:10.964Z","updatedAt":"2025-06-16T19:22:45.055Z"},{"id":72,"ipAddress":"10.63.20.151","hostname":null,"macAddress":null,"vendor":null,"deviceType":null,"purpose":null,"location":null,"subnetId":2,"status":"online","lastSeen":"2025-06-16T19:22:45.117Z","openPorts":["22","80"],"assignmentType":"static","createdAt":"2025-06-16T19:13:11.022Z","updatedAt":"2025-06-16T19:22:45.117Z"},{"id":73,"ipAddress":"10.63.20.154","hostname":null,"macAddress":null,"vendor":null,"deviceType":null,"purpose":null,"location":null,"subnetId":2,"status":"online","lastSeen":"2025-06-16T19:22:45.119Z","openPorts":["22","80"],"assignmentType":"static","createdAt":"2025-06-16T19:13:11.024Z","updatedAt":"2025-06-16T19:22:45.119Z"},{"id":74,"ipAddress":"10.63.20.156","hostname":null,"macAddress":null,"vendor":null,"deviceType":null,"purpose":null,"location":null,"subnetId":2,"status":"online","lastSeen":"2025-06-16T19:22:45.121Z","openPorts":["80"],"assignmentType":"static","createdAt":"2025-06-16T19:13:11.025Z","updatedAt":"2025-06-16T19:22:45.121Z"},{"id":75,"ipAddress":"10.63.20.158","hostname":null,"macAddress":null,"vendor":null,"deviceType":null,"purpose":null,"location":null,"subnetId":2,"status":"online","lastSeen":"2025-06-16T19:22:45.123Z","openPorts":["22","80"],"assignmentType":"static","createdAt":"2025-06-16T19:13:11.027Z","updatedAt":"2025-06-16T19:22:45.123Z"},{"id":76,"ipAddress":"10.63.20.159","hostname":null,"macAddress":null,"vendor":null,"deviceType":null,"purpose":null,"location":null,"subnetId":2,"status":"online","lastSeen":"2025-06-16T19:22:45.125Z","openPorts":["22","80"],"assignmentType":"static","createdAt":"2025-06-16T19:13:11.028Z","updatedAt":"2025-06-16T19:22:45.125Z"},{"id":39,"ipAddress":"10.63.20.16","hostname":null,"macAddress":null,"vendor":null,"deviceType":null,"purpose":null,"location":null,"subnetId":2,"status":"online","lastSeen":"2025-06-16T19:22:45.056Z","openPorts":["22"],"assignmentType":"static","createdAt":"2025-06-16T19:13:10.966Z","updatedAt":"2025-06-16T19:22:45.056Z"},{"id":77,"ipAddress":"10.63.20.160","hostname":null,"macAddress":null,"vendor":null,"deviceType":null,"purpose":null,"location":null,"subnetId":2,"status":"online","lastSeen":"2025-06-16T19:22:45.127Z","openPorts":["22","80"],"assignmentType":"static","createdAt":"2025-06-16T19:13:11.030Z","updatedAt":"2025-06-16T19:22:45.127Z"},{"id":78,"ipAddress":"10.63.20.161","hostname":null,"macAddress":null,"vendor":null,"deviceType":null,"purpose":null,"location":null,"subnetId":2,"status":"online","lastSeen":"2025-06-16T19:22:45.128Z","openPorts":["22","80"],"assignmentType":"static","createdAt":"2025-06-16T19:13:11.031Z","updatedAt":"2025-06-16T19:22:45.128Z"},{"id":79,"ipAddress":"10.63.20.162","hostname":null,"macAddress":null,"vendor":null,"deviceType":null,"purpose":null,"location":null,"subnetId":2,"status":"online","lastSeen":"2025-06-16T19:22:45.130Z","openPorts":["22","80"],"assignmentType":"static","createdAt":"2025-06-16T19:13:11.033Z","updatedAt":"2025-06-16T19:22:45.130Z"},{"id":80,"ipAddress":"10.63.20.163","hostname":null,"macAddress":null,"vendor":null,"deviceType":null,"purpose":null,"location":null,"subnetId":2,"status":"online","lastSeen":"2025-06-16T19:22:45.136Z","openPorts":["22","80"],"assignmentType":"static","createdAt":"2025-06-16T19:13:11.035Z","updatedAt":"2025-06-16T19:22:45.136Z"},{"id":81,"ipAddress":"10.63.20.164","hostname":null,"macAddress":null,"vendor":null,"deviceType":null,"purpose":null,"location":null,"subnetId":2,"status":"online","lastSeen":"2025-06-16T19:22:45.138Z","openPorts":["22","80"],"assignmentType":"static","createdAt":"2025-06-16T19:13:11.036Z","updatedAt":"2025-06-16T19:22:45.138Z"},{"id":82,"ipAddress":"10.63.20.165","hostname":null,"macAddress":null,"vendor":null,"deviceType":null,"purpose":null,"location":null,"subnetId":2,"status":"online","lastSeen":"2025-06-16T19:22:45.140Z","openPorts":["22","80"],"assignmentType":"static","createdAt":"2025-06-16T19:13:11.038Z","updatedAt":"2025-06-16T19:22:45.140Z"},{"id":83,"ipAddress":"10.63.20.166","hostname":null,"macAddress":null,"vendor":null,"deviceType":null,"purpose":null,"location":null,"subnetId":2,"status":"online","lastSeen":"2025-06-16T19:22:45.142Z","openPorts":["22","80"],"assignmentType":"static","createdAt":"2025-06-16T19:13:11.039Z","updatedAt":"2025-06-16T19:22:45.142Z"},{"id":84,"ipAddress":"10.63.20.167","hostname":null,"macAddress":null,"vendor":null,"deviceType":null,"purpose":null,"location":null,"subnetId":2,"status":"online","lastSeen":"2025-06-16T19:22:45.143Z","openPorts":["22","80"],"assignmentType":"static","createdAt":"2025-06-16T19:13:11.041Z","updatedAt":"2025-06-16T19:22:45.143Z"},{"id":85,"ipAddress":"10.63.20.168","hostname":null,"macAddress":null,"vendor":null,"deviceType":null,"purpose":null,"location":null,"subnetId":2,"status":"online","lastSeen":"2025-06-16T19:22:45.145Z","openPorts":["22","80"],"assignmentType":"static","createdAt":"2025-06-16T19:13:11.043Z","updatedAt":"2025-06-16T19:22:45.145Z"},{"id":86,"ipAddress":"10.63.20.169","hostname":null,"macAddress":null,"vendor":null,"deviceType":null,"purpose":null,"location":null,"subnetId":2,"status":"online","lastSeen":"2025-06-16T19:22:45.147Z","openPorts":["22","80"],"assignmentType":"static","createdAt":"2025-06-16T19:13:11.044Z","updatedAt":"2025-06-16T19:22:45.147Z"},{"id":40,"ipAddress":"10.63.20.17","hostname":null,"macAddress":null,"vendor":null,"deviceType":null,"purpose":null,"location":null,"subnetId":2,"status":"online","lastSeen":"2025-06-16T19:22:45.059Z","openPorts":["135","139","445"],"assignmentType":"static","createdAt":"2025-06-16T19:13:10.968Z","updatedAt":"2025-06-16T19:22:45.059Z"},{"id":87,"ipAddress":"10.63.20.170","hostname":null,"macAddress":null,"vendor":null,"deviceType":null,"purpose":null,"location":null,"subnetId":2,"status":"online","lastSeen":"2025-06-16T19:22:45.149Z","openPorts":[],"assignmentType":"static","createdAt":"2025-06-16T19:13:11.046Z","updatedAt":"2025-06-16T19:22:45.149Z"},{"id":88,"ipAddress":"10.63.20.171","hostname":null,"macAddress":null,"vendor":null,"deviceType":null,"purpose":null,"location":null,"subnetId":2,"status":"online","lastSeen":"2025-06-16T19:22:45.150Z","openPorts":[],"assignmentType":"static","createdAt":"2025-06-16T19:13:11.048Z","updatedAt":"2025-06-16T19:22:45.150Z"},{"id":89,"ipAddress":"10.63.20.172","hostname":null,"macAddress":null,"vendor":null,"deviceType":null,"purpose":null,"location":null,"subnetId":2,"status":"online","lastSeen":"2025-06-16T19:22:45.152Z","openPorts":[],"assignmentType":"static","createdAt":"2025-06-16T19:13:11.049Z","updatedAt":"2025-06-16T19:22:45.152Z"},{"id":90,"ipAddress":"10.63.20.173","hostname":null,"macAddress":null,"vendor":null,"deviceType":null,"purpose":null,"location":null,"subnetId":2,"status":"online","lastSeen":"2025-06-16T19:22:45.154Z","openPorts":[],"assignmentType":"static","createdAt":"2025-06-16T19:13:11.051Z","updatedAt":"2025-06-16T19:22:45.154Z"},{"id":91,"ipAddress":"10.63.20.174","hostname":null,"macAddress":null,"vendor":null,"deviceType":null,"purpose":null,"location":null,"subnetId":2,"status":"online","lastSeen":"2025-06-16T19:22:45.155Z","openPorts":[],"assignmentType":"static","createdAt":"2025-06-16T19:13:11.052Z","updatedAt":"2025-06-16T19:22:45.155Z"},{"id":92,"ipAddress":"10.63.20.175","hostname":null,"macAddress":null,"vendor":null,"deviceType":null,"purpose":null,"location":null,"subnetId":2,"status":"online","lastSeen":"2025-06-16T19:22:45.157Z","openPorts":[],"assignmentType":"static","createdAt":"2025-06-16T19:13:11.054Z","updatedAt":"2025-06-16T19:22:45.157Z"},{"id":93,"ipAddress":"10.63.20.176","hostname":null,"macAddress":null,"vendor":null,"deviceType":null,"purpose":null,"location":null,"subnetId":2,"status":"online","lastSeen":"2025-06-16T19:22:45.159Z","openPorts":[],"assignmentType":"static","createdAt":"2025-06-16T19:13:11.055Z","updatedAt":"2025-06-16T19:22:45.159Z"},{"id":94,"ipAddress":"10.63.20.177","hostname":null,"macAddress":null,"vendor":null,"deviceType":null,"purpose":null,"location":null,"subnetId":2,"status":"online","lastSeen":"2025-06-16T19:22:45.160Z","openPorts":[],"assignmentType":"static","createdAt":"2025-06-16T19:13:11.057Z","updatedAt":"2025-06-16T19:22:45.160Z"},{"id":95,"ipAddress":"10.63.20.178","hostname":null,"macAddress":null,"vendor":null,"deviceType":null,"purpose":null,"location":null,"subnetId":2,"status":"online","lastSeen":"2025-06-16T19:22:45.162Z","openPorts":[],"assignmentType":"static","createdAt":"2025-06-16T19:13:11.058Z","updatedAt":"2025-06-16T19:22:45.162Z"},{"id":96,"ipAddress":"10.63.20.179","hostname":null,"macAddress":null,"vendor":null,"deviceType":null,"purpose":null,"location":null,"subnetId":2,"status":"online","lastSeen":"2025-06-16T19:22:45.164Z","openPorts":[],"assignmentType":"static","createdAt":"2025-06-16T19:13:11.060Z","updatedAt":"2025-06-16T19:22:45.164Z"},{"id":41,"ipAddress":"10.63.20.18","hostname":null,"macAddress":null,"vendor":null,"deviceType":null,"purpose":null,"location":null,"subnetId":2,"status":"online","lastSeen":"2025-06-16T19:22:45.061Z","openPorts":["22"],"assignmentType":"static","createdAt":"2025-06-16T19:13:10.970Z","updatedAt":"2025-06-16T19:22:45.061Z"},{"id":97,"ipAddress":"10.63.20.180","hostname":null,"macAddress":null,"vendor":null,"deviceType":null,"purpose":null,"location":null,"subnetId":2,"status":"online","lastSeen":"2025-06-16T19:22:45.166Z","openPorts":[],"assignmentType":"static","createdAt":"2025-06-16T19:13:11.061Z","updatedAt":"2025-06-16T19:22:45.166Z"},{"id":98,"ipAddress":"10.63.20.181","hostname":null,"macAddress":null,"vendor":null,"deviceType":null,"purpose":null,"location":null,"subnetId":2,"status":"online","lastSeen":"2025-06-16T19:22:45.168Z","openPorts":[],"assignmentType":"static","createdAt":"2025-06-16T19:13:11.063Z","updatedAt":"2025-06-16T19:22:45.168Z"},{"id":99,"ipAddress":"10.63.20.182","hostname":null,"macAddress":null,"vendor":null,"deviceType":null,"purpose":null,"location":null,"subnetId":2,"status":"online","lastSeen":"2025-06-16T19:22:45.170Z","openPorts":["22","80"],"assignmentType":"static","createdAt":"2025-06-16T19:13:11.064Z","updatedAt":"2025-06-16T19:22:45.170Z"}],"total":122,"page":1,"limit":50,"totalPages":3}obtv-admin@eng-control1:~/ipam-system$