57:36.686Z"}],"total":"123","page":1,"lcurl -i http://localhost:5000/api/dashboard/subnet-utilizationhost:5000/api/devices
HTTP/1.1 200 OK
X-Powered-By: Express
Content-Type: application/json; charset=utf-8
Content-Length: 191
ETag: W/"bf-fCVbS4sEeaWhGjtmMOR2dBaNFZE"
Date: Sat, 14 Jun 2025 07:59:28 GMT
Connection: keep-alive
Keep-Alive: timeout=5

[{"id":16,"name":"10.63.20.0/24","description":"","utilization":36,"available":162,"total":254},{"id":17,"name":"10.63.21.0/24","description":"","utilization":12,"available":223,"total":254}]obtv-admin@eng-control1:~/ipam-system$ curl -i http://localhost:5000/api/devices
HTTP/1.1 200 OK
X-Powered-By: Express
Content-Type: application/json; charset=utf-8
Content-Length: 16491
ETag: W/"406b-Vn4lRGaQxkoKabOKx+wmIDPWM8g"
Date: Sat, 14 Jun 2025 07:59:31 GMT
Connection: keep-alive
Keep-Alive: timeout=5

{"data":[{"id":700,"ipAddress":"10.63.20.1","hostname":null,"macAddress":null,"vendor":null,"deviceType":null,"purpose":null,"location":null,"subnetId":16,"status":"online","lastSeen":"2025-06-14T07:57:36.531Z","openPorts":["22","80","443"],"assignmentType":"dhcp","createdAt":"2025-06-14T07:57:36.532Z","updatedAt":"2025-06-14T07:57:36.532Z"},{"id":703,"ipAddress":"10.63.20.10","hostname":null,"macAddress":null,"vendor":null,"deviceType":null,"purpose":null,"location":null,"subnetId":16,"status":"online","lastSeen":"2025-06-14T07:57:36.542Z","openPorts":["80"],"assignmentType":"dhcp","createdAt":"2025-06-14T07:57:36.542Z","updatedAt":"2025-06-14T07:57:36.542Z"},{"id":728,"ipAddress":"10.63.20.101","hostname":null,"macAddress":null,"vendor":null,"deviceType":null,"purpose":null,"location":null,"subnetId":16,"status":"online","lastSeen":"2025-06-14T07:57:36.600Z","openPorts":["22","80","443"],"assignmentType":"dhcp","createdAt":"2025-06-14T07:57:36.601Z","updatedAt":"2025-06-14T07:57:36.600Z"},{"id":729,"ipAddress":"10.63.20.102","hostname":null,"macAddress":null,"vendor":null,"deviceType":null,"purpose":null,"location":null,"subnetId":16,"status":"online","lastSeen":"2025-06-14T07:57:36.602Z","openPorts":[],"assignmentType":"dhcp","createdAt":"2025-06-14T07:57:36.603Z","updatedAt":"2025-06-14T07:57:36.602Z"},{"id":730,"ipAddress":"10.63.20.103","hostname":null,"macAddress":null,"vendor":null,"deviceType":null,"purpose":null,"location":null,"subnetId":16,"status":"online","lastSeen":"2025-06-14T07:57:36.604Z","openPorts":[],"assignmentType":"dhcp","createdAt":"2025-06-14T07:57:36.605Z","updatedAt":"2025-06-14T07:57:36.604Z"},{"id":731,"ipAddress":"10.63.20.105","hostname":null,"macAddress":null,"vendor":null,"deviceType":null,"purpose":null,"location":null,"subnetId":16,"status":"online","lastSeen":"2025-06-14T07:57:36.606Z","openPorts":["22","23","80","443"],"assignmentType":"dhcp","createdAt":"2025-06-14T07:57:36.607Z","updatedAt":"2025-06-14T07:57:36.606Z"},{"id":704,"ipAddress":"10.63.20.11","hostname":null,"macAddress":null,"vendor":null,"deviceType":null,"purpose":null,"location":null,"subnetId":16,"status":"online","lastSeen":"2025-06-14T07:57:36.545Z","openPorts":["80"],"assignmentType":"dhcp","createdAt":"2025-06-14T07:57:36.545Z","updatedAt":"2025-06-14T07:57:36.545Z"},{"id":732,"ipAddress":"10.63.20.110","hostname":null,"macAddress":null,"vendor":null,"deviceType":null,"purpose":null,"location":null,"subnetId":16,"status":"online","lastSeen":"2025-06-14T07:57:36.608Z","openPorts":["22","80","443"],"assignmentType":"dhcp","createdAt":"2025-06-14T07:57:36.609Z","updatedAt":"2025-06-14T07:57:36.608Z"},{"id":733,"ipAddress":"10.63.20.115","hostname":null,"macAddress":null,"vendor":null,"deviceType":null,"purpose":null,"location":null,"subnetId":16,"status":"online","lastSeen":"2025-06-14T07:57:36.610Z","openPorts":[],"assignmentType":"dhcp","createdAt":"2025-06-14T07:57:36.610Z","updatedAt":"2025-06-14T07:57:36.610Z"},{"id":734,"ipAddress":"10.63.20.116","hostname":null,"macAddress":null,"vendor":null,"deviceType":null,"purpose":null,"location":null,"subnetId":16,"status":"online","lastSeen":"2025-06-14T07:57:36.612Z","openPorts":[],"assignmentType":"dhcp","createdAt":"2025-06-14T07:57:36.613Z","updatedAt":"2025-06-14T07:57:36.612Z"},{"id":705,"ipAddress":"10.63.20.12","hostname":null,"macAddress":null,"vendor":null,"deviceType":null,"purpose":null,"location":null,"subnetId":16,"status":"online","lastSeen":"2025-06-14T07:57:36.547Z","openPorts":["80"],"assignmentType":"dhcp","createdAt":"2025-06-14T07:57:36.547Z","updatedAt":"2025-06-14T07:57:36.547Z"},{"id":735,"ipAddress":"10.63.20.122","hostname":null,"macAddress":null,"vendor":null,"deviceType":null,"purpose":null,"location":null,"subnetId":16,"status":"online","lastSeen":"2025-06-14T07:57:36.614Z","openPorts":[],"assignmentType":"dhcp","createdAt":"2025-06-14T07:57:36.614Z","updatedAt":"2025-06-14T07:57:36.614Z"},{"id":736,"ipAddress":"10.63.20.129","hostname":null,"macAddress":null,"vendor":null,"deviceType":null,"purpose":null,"location":null,"subnetId":16,"status":"online","lastSeen":"2025-06-14T07:57:36.616Z","openPorts":["80","443"],"assignmentType":"dhcp","createdAt":"2025-06-14T07:57:36.617Z","updatedAt":"2025-06-14T07:57:36.616Z"},{"id":737,"ipAddress":"10.63.20.130","hostname":null,"macAddress":null,"vendor":null,"deviceType":null,"purpose":null,"location":null,"subnetId":16,"status":"online","lastSeen":"2025-06-14T07:57:36.618Z","openPorts":["80","443"],"assignmentType":"dhcp","createdAt":"2025-06-14T07:57:36.619Z","updatedAt":"2025-06-14T07:57:36.618Z"},{"id":738,"ipAddress":"10.63.20.131","hostname":null,"macAddress":null,"vendor":null,"deviceType":null,"purpose":null,"location":null,"subnetId":16,"status":"online","lastSeen":"2025-06-14T07:57:36.621Z","openPorts":["22"],"assignmentType":"dhcp","createdAt":"2025-06-14T07:57:36.621Z","updatedAt":"2025-06-14T07:57:36.621Z"},{"id":706,"ipAddress":"10.63.20.14","hostname":null,"macAddress":null,"vendor":null,"deviceType":null,"purpose":null,"location":null,"subnetId":16,"status":"online","lastSeen":"2025-06-14T07:57:36.550Z","openPorts":["80"],"assignmentType":"dhcp","createdAt":"2025-06-14T07:57:36.550Z","updatedAt":"2025-06-14T07:57:36.550Z"},{"id":739,"ipAddress":"10.63.20.140","hostname":null,"macAddress":null,"vendor":null,"deviceType":null,"purpose":null,"location":null,"subnetId":16,"status":"online","lastSeen":"2025-06-14T07:57:36.623Z","openPorts":[],"assignmentType":"dhcp","createdAt":"2025-06-14T07:57:36.624Z","updatedAt":"2025-06-14T07:57:36.623Z"},{"id":740,"ipAddress":"10.63.20.141","hostname":null,"macAddress":null,"vendor":null,"deviceType":null,"purpose":null,"location":null,"subnetId":16,"status":"online","lastSeen":"2025-06-14T07:57:36.626Z","openPorts":[],"assignmentType":"dhcp","createdAt":"2025-06-14T07:57:36.626Z","updatedAt":"2025-06-14T07:57:36.626Z"},{"id":707,"ipAddress":"10.63.20.15","hostname":null,"macAddress":null,"vendor":null,"deviceType":null,"purpose":null,"location":null,"subnetId":16,"status":"online","lastSeen":"2025-06-14T07:57:36.552Z","openPorts":[],"assignmentType":"dhcp","createdAt":"2025-06-14T07:57:36.552Z","updatedAt":"2025-06-14T07:57:36.552Z"},{"id":741,"ipAddress":"10.63.20.151","hostname":null,"macAddress":null,"vendor":null,"deviceType":null,"purpose":null,"location":null,"subnetId":16,"status":"online","lastSeen":"2025-06-14T07:57:36.628Z","openPorts":["22","80","554"],"assignmentType":"dhcp","createdAt":"2025-06-14T07:57:36.628Z","updatedAt":"2025-06-14T07:57:36.628Z"},{"id":742,"ipAddress":"10.63.20.154","hostname":null,"macAddress":null,"vendor":null,"deviceType":null,"purpose":null,"location":null,"subnetId":16,"status":"online","lastSeen":"2025-06-14T07:57:36.630Z","openPorts":["22","80","554"],"assignmentType":"dhcp","createdAt":"2025-06-14T07:57:36.631Z","updatedAt":"2025-06-14T07:57:36.630Z"},{"id":743,"ipAddress":"10.63.20.156","hostname":null,"macAddress":null,"vendor":null,"deviceType":null,"purpose":null,"location":null,"subnetId":16,"status":"online","lastSeen":"2025-06-14T07:57:36.633Z","openPorts":["80"],"assignmentType":"dhcp","createdAt":"2025-06-14T07:57:36.633Z","updatedAt":"2025-06-14T07:57:36.633Z"},{"id":744,"ipAddress":"10.63.20.158","hostname":null,"macAddress":null,"vendor":null,"deviceType":null,"purpose":null,"location":null,"subnetId":16,"status":"online","lastSeen":"2025-06-14T07:57:36.635Z","openPorts":["22","80","554"],"assignmentType":"dhcp","createdAt":"2025-06-14T07:57:36.635Z","updatedAt":"2025-06-14T07:57:36.635Z"},{"id":745,"ipAddress":"10.63.20.159","hostname":null,"macAddress":null,"vendor":null,"deviceType":null,"purpose":null,"location":null,"subnetId":16,"status":"online","lastSeen":"2025-06-14T07:57:36.637Z","openPorts":["22","80","554"],"assignmentType":"dhcp","createdAt":"2025-06-14T07:57:36.638Z","updatedAt":"2025-06-14T07:57:36.637Z"},{"id":708,"ipAddress":"10.63.20.16","hostname":null,"macAddress":null,"vendor":null,"deviceType":null,"purpose":null,"location":null,"subnetId":16,"status":"online","lastSeen":"2025-06-14T07:57:36.554Z","openPorts":["22"],"assignmentType":"dhcp","createdAt":"2025-06-14T07:57:36.554Z","updatedAt":"2025-06-14T07:57:36.554Z"},{"id":746,"ipAddress":"10.63.20.160","hostname":null,"macAddress":null,"vendor":null,"deviceType":null,"purpose":null,"location":null,"subnetId":16,"status":"online","lastSeen":"2025-06-14T07:57:36.640Z","openPorts":["22","80","554"],"assignmentType":"dhcp","createdAt":"2025-06-14T07:57:36.640Z","updatedAt":"2025-06-14T07:57:36.640Z"},{"id":747,"ipAddress":"10.63.20.161","hostname":null,"macAddress":null,"vendor":null,"deviceType":null,"purpose":null,"location":null,"subnetId":16,"status":"online","lastSeen":"2025-06-14T07:57:36.642Z","openPorts":["22","80","554"],"assignmentType":"dhcp","createdAt":"2025-06-14T07:57:36.642Z","updatedAt":"2025-06-14T07:57:36.642Z"},{"id":748,"ipAddress":"10.63.20.162","hostname":null,"macAddress":null,"vendor":null,"deviceType":null,"purpose":null,"location":null,"subnetId":16,"status":"online","lastSeen":"2025-06-14T07:57:36.645Z","openPorts":["22","80","554"],"assignmentType":"dhcp","createdAt":"2025-06-14T07:57:36.645Z","updatedAt":"2025-06-14T07:57:36.645Z"},{"id":749,"ipAddress":"10.63.20.163","hostname":null,"macAddress":null,"vendor":null,"deviceType":null,"purpose":null,"location":null,"subnetId":16,"status":"online","lastSeen":"2025-06-14T07:57:36.649Z","openPorts":["22","80","554"],"assignmentType":"dhcp","createdAt":"2025-06-14T07:57:36.650Z","updatedAt":"2025-06-14T07:57:36.649Z"},{"id":750,"ipAddress":"10.63.20.164","hostname":null,"macAddress":null,"vendor":null,"deviceType":null,"purpose":null,"location":null,"subnetId":16,"status":"online","lastSeen":"2025-06-14T07:57:36.652Z","openPorts":["22","80","554"],"assignmentType":"dhcp","createdAt":"2025-06-14T07:57:36.652Z","updatedAt":"2025-06-14T07:57:36.652Z"},{"id":751,"ipAddress":"10.63.20.165","hostname":null,"macAddress":null,"vendor":null,"deviceType":null,"purpose":null,"location":null,"subnetId":16,"status":"online","lastSeen":"2025-06-14T07:57:36.653Z","openPorts":["22","80","554"],"assignmentType":"dhcp","createdAt":"2025-06-14T07:57:36.654Z","updatedAt":"2025-06-14T07:57:36.653Z"},{"id":752,"ipAddress":"10.63.20.166","hostname":null,"macAddress":null,"vendor":null,"deviceType":null,"purpose":null,"location":null,"subnetId":16,"status":"online","lastSeen":"2025-06-14T07:57:36.655Z","openPorts":["22","80","554"],"assignmentType":"dhcp","createdAt":"2025-06-14T07:57:36.656Z","updatedAt":"2025-06-14T07:57:36.655Z"},{"id":753,"ipAddress":"10.63.20.167","hostname":null,"macAddress":null,"vendor":null,"deviceType":null,"purpose":null,"location":null,"subnetId":16,"status":"online","lastSeen":"2025-06-14T07:57:36.657Z","openPorts":["22","80","554"],"assignmentType":"dhcp","createdAt":"2025-06-14T07:57:36.658Z","updatedAt":"2025-06-14T07:57:36.657Z"},{"id":754,"ipAddress":"10.63.20.168","hostname":null,"macAddress":null,"vendor":null,"deviceType":null,"purpose":null,"location":null,"subnetId":16,"status":"online","lastSeen":"2025-06-14T07:57:36.659Z","openPorts":["22","80","554"],"assignmentType":"dhcp","createdAt":"2025-06-14T07:57:36.660Z","updatedAt":"2025-06-14T07:57:36.659Z"},{"id":755,"ipAddress":"10.63.20.169","hostname":null,"macAddress":null,"vendor":null,"deviceType":null,"purpose":null,"location":null,"subnetId":16,"status":"online","lastSeen":"2025-06-14T07:57:36.661Z","openPorts":["22","80","554"],"assignmentType":"dhcp","createdAt":"2025-06-14T07:57:36.662Z","updatedAt":"2025-06-14T07:57:36.661Z"},{"id":709,"ipAddress":"10.63.20.17","hostname":null,"macAddress":null,"vendor":null,"deviceType":null,"purpose":null,"location":null,"subnetId":16,"status":"online","lastSeen":"2025-06-14T07:57:36.557Z","openPorts":[],"assignmentType":"dhcp","createdAt":"2025-06-14T07:57:36.558Z","updatedAt":"2025-06-14T07:57:36.557Z"},{"id":756,"ipAddress":"10.63.20.170","hostname":null,"macAddress":null,"vendor":null,"deviceType":null,"purpose":null,"location":null,"subnetId":16,"status":"online","lastSeen":"2025-06-14T07:57:36.663Z","openPorts":[],"assignmentType":"dhcp","createdAt":"2025-06-14T07:57:36.664Z","updatedAt":"2025-06-14T07:57:36.663Z"},{"id":757,"ipAddress":"10.63.20.171","hostname":null,"macAddress":null,"vendor":null,"deviceType":null,"purpose":null,"location":null,"subnetId":16,"status":"online","lastSeen":"2025-06-14T07:57:36.665Z","openPorts":[],"assignmentType":"dhcp","createdAt":"2025-06-14T07:57:36.665Z","updatedAt":"2025-06-14T07:57:36.665Z"},{"id":758,"ipAddress":"10.63.20.172","hostname":null,"macAddress":null,"vendor":null,"deviceType":null,"purpose":null,"location":null,"subnetId":16,"status":"online","lastSeen":"2025-06-14T07:57:36.667Z","openPorts":[],"assignmentType":"dhcp","createdAt":"2025-06-14T07:57:36.668Z","updatedAt":"2025-06-14T07:57:36.667Z"},{"id":759,"ipAddress":"10.63.20.173","hostname":null,"macAddress":null,"vendor":null,"deviceType":null,"purpose":null,"location":null,"subnetId":16,"status":"online","lastSeen":"2025-06-14T07:57:36.670Z","openPorts":[],"assignmentType":"dhcp","createdAt":"2025-06-14T07:57:36.670Z","updatedAt":"2025-06-14T07:57:36.670Z"},{"id":760,"ipAddress":"10.63.20.174","hostname":null,"macAddress":null,"vendor":null,"deviceType":null,"purpose":null,"location":null,"subnetId":16,"status":"online","lastSeen":"2025-06-14T07:57:36.672Z","openPorts":[],"assignmentType":"dhcp","createdAt":"2025-06-14T07:57:36.672Z","updatedAt":"2025-06-14T07:57:36.672Z"},{"id":761,"ipAddress":"10.63.20.175","hostname":null,"macAddress":null,"vendor":null,"deviceType":null,"purpose":null,"location":null,"subnetId":16,"status":"online","lastSeen":"2025-06-14T07:57:36.673Z","openPorts":[],"assignmentType":"dhcp","createdAt":"2025-06-14T07:57:36.674Z","updatedAt":"2025-06-14T07:57:36.673Z"},{"id":762,"ipAddress":"10.63.20.176","hostname":null,"macAddress":null,"vendor":null,"deviceType":null,"purpose":null,"location":null,"subnetId":16,"status":"online","lastSeen":"2025-06-14T07:57:36.675Z","openPorts":[],"assignmentType":"dhcp","createdAt":"2025-06-14T07:57:36.676Z","updatedAt":"2025-06-14T07:57:36.675Z"},{"id":763,"ipAddress":"10.63.20.177","hostname":null,"macAddress":null,"vendor":null,"deviceType":null,"purpose":null,"location":null,"subnetId":16,"status":"online","lastSeen":"2025-06-14T07:57:36.677Z","openPorts":[],"assignmentType":"dhcp","createdAt":"2025-06-14T07:57:36.678Z","updatedAt":"2025-06-14T07:57:36.677Z"},{"id":764,"ipAddress":"10.63.20.178","hostname":null,"macAddress":null,"vendor":null,"deviceType":null,"purpose":null,"location":null,"subnetId":16,"status":"online","lastSeen":"2025-06-14T07:57:36.679Z","openPorts":[],"assignmentType":"dhcp","createdAt":"2025-06-14T07:57:36.679Z","updatedAt":"2025-06-14T07:57:36.679Z"},{"id":765,"ipAddress":"10.63.20.179","hostname":null,"macAddress":null,"vendor":null,"deviceType":null,"purpose":null,"location":null,"subnetId":16,"status":"online","lastSeen":"2025-06-14T07:57:36.681Z","openPorts":[],"assignmentType":"dhcp","createdAt":"2025-06-14T07:57:36.681Z","updatedAt":"2025-06-14T07:57:36.681Z"},{"id":710,"ipAddress":"10.63.20.18","hostname":null,"macAddress":null,"vendor":null,"deviceType":null,"purpose":null,"location":null,"subnetId":16,"status":"online","lastSeen":"2025-06-14T07:57:36.559Z","openPorts":["22"],"assignmentType":"dhcp","createdAt":"2025-06-14T07:57:36.561Z","updatedAt":"2025-06-14T07:57:36.559Z"},{"id":766,"ipAddress":"10.63.20.180","hostname":null,"macAddress":null,"vendor":null,"deviceType":null,"purpose":null,"location":null,"subnetId":16,"status":"online","lastSeen":"2025-06-14T07:57:36.683Z","openPorts":[],"assignmentType":"dhcp","createdAt":"2025-06-14T07:57:36.683Z","updatedAt":"2025-06-14T07:57:36.683Z"},{"id":767,"ipAddress":"10.63.20.181","hostname":null,"macAddress":null,"vendor":null,"deviceType":null,"purpose":null,"location":null,"subnetId":16,"status":"online","lastSeen":"2025-06-14T07:57:36.685Z","openPorts":[],"assignmentType":"dhcp","createdAt":"2025-06-14T07:57:36.685Z","updatedAt":"2025-06-14T07:57:36.685Z"},{"id":768,"ipAddress":"10.63.20.182","hostname":null,"macAddress":null,"vendor":null,"deviceType":null,"purpose":null,"location":null,"subnetId":16,"status":"online","lastSeen":"2025-06-14T07:57:36.686Z","openPorts":["22","80","554"],"assignmentType":"dhcp","createdAt":"2025-06-14T07:57:36.687Z","updatedAt":"2025-06-14T07:57:36.686Z"}],"total":"123","page":1,"limit":50,"totalPages":3}obtv-admin@eng-control1:~/ipam-system$