obtv-admin@eng-control1:~$ curl -s http://localhost:5000/api/devices
{"data":[{"id":31,"ipAddress":"10.63.20.1","hostname":null,"macAddress":null,"vendor":null,"deviceType":null,"purpose":null,"location":null,"subnetId":2,"status":"online","lastSeen":"2025-06-16T19:32:34.291Z","openPorts":["22","80","443"],"assignmentType":"static","createdAt":"2025-06-16T19:13:10.947Z","updatedAt":"2025-06-16T19:32:34.291Z"},{"id":34,"ipAddress":"10.63.20.10","hostname":null,"macAddress":null,"vendor":null,"deviceType":null,"purpose":null,"location":null,"subnetId":2,"status":"online","lastSeen":"2025-06-16T19:32:34.298Z","openPorts":["80"],"assignmentType":"static","createdAt":"2025-06-16T19:13:10.957Z","updatedAt":"2025-06-16T19:32:34.298Z"},{"id":59,"ipAddress":"10.63.20.101","hostname":null,"macAddress":null,"vendor":null,"deviceType":null,"purpose":null,"location":null,"subnetId":2,"status":"online","lastSeen":"2025-06-16T19:32:34.343Z","openPorts":["22","80","139","443","445"],"assignmentType":"static","createdAt":"2025-06-16T19:13:11.000Z","updatedAt":"2025-06-16T19:32:34.343Z"},{"id":60,"ipAddress":"10.63.20.102","hostname":null,"macAddress":null,"vendor":null,"deviceType":null,"purpose":null,"location":null,"subnetId":2,"status":"online","lastSeen":"2025-06-16T19:32:34.345Z","openPorts":["135","139","445"],"assignmentType":"static","createdAt":"2025-06-16T19:13:11.002Z","updatedAt":"2025-06-16T19:32:34.345Z"},{"id":61,"ipAddress":"10.63.20.103","hostname":null,"macAddress":null,"vendor":null,"deviceType":null,"purpose":null,"location":null,"subnetId":2,"status":"online","lastSeen":"2025-06-16T19:32:34.347Z","openPorts":[],"assignmentType":"static","createdAt":"2025-06-16T19:13:11.004Z","updatedAt":"2025-06-16T19:32:34.347Z"},{"id":62,"ipAddress":"10.63.20.105","hostname":null,"macAddress":null,"vendor":null,"deviceType":null,"purpose":null,"location":null,"subnetId":2,"status":"online","lastSeen":"2025-06-16T19:32:34.348Z","openPorts":["22","23","80","443"],"assignmentType":"static","createdAt":"2025-06-16T19:13:11.006Z","updatedAt":"2025-06-16T19:32:34.348Z"},{"id":35,"ipAddress":"10.63.20.11","hostname":null,"macAddress":null,"vendor":null,"deviceType":null,"purpose":null,"location":null,"subnetId":2,"status":"online","lastSeen":"2025-06-16T19:32:34.301Z","openPorts":["80"],"assignmentType":"static","createdAt":"2025-06-16T19:13:10.958Z","updatedAt":"2025-06-16T19:32:34.301Z"},{"id":63,"ipAddress":"10.63.20.110","hostname":null,"macAddress":null,"vendor":null,"deviceType":null,"purpose":null,"location":null,"subnetId":2,"status":"online","lastSeen":"2025-06-16T19:32:34.350Z","openPorts":["22","80","139","443","445"],"assignmentType":"static","createdAt":"2025-06-16T19:13:11.007Z","updatedAt":"2025-06-16T19:32:34.350Z"},{"id":64,"ipAddress":"10.63.20.115","hostname":null,"macAddress":null,"vendor":null,"deviceType":null,"purpose":null,"location":null,"subnetId":2,"status":"online","lastSeen":"2025-06-16T19:32:34.351Z","openPorts":[],"assignmentType":"static","createdAt":"2025-06-16T19:13:11.009Z","updatedAt":"2025-06-16T19:32:34.351Z"},{"id":65,"ipAddress":"10.63.20.116","hostname":null,"macAddress":null,"vendor":null,"deviceType":null,"purpose":null,"location":null,"subnetId":2,"status":"online","lastSeen":"2025-06-16T19:32:34.353Z","openPorts":[],"assignmentType":"static","createdAt":"2025-06-16T19:13:11.011Z","updatedAt":"2025-06-16T19:32:34.353Z"},{"id":36,"ipAddress":"10.63.20.12","hostname":null,"macAddress":null,"vendor":null,"deviceType":null,"purpose":null,"location":null,"subnetId":2,"status":"online","lastSeen":"2025-06-16T19:32:34.302Z","openPorts":["80"],"assignmentType":"static","createdAt":"2025-06-16T19:13:10.960Z","updatedAt":"2025-06-16T19:32:34.302Z"},{"id":66,"ipAddress":"10.63.20.122","hostname":null,"macAddress":null,"vendor":null,"deviceType":null,"purpose":null,"location":null,"subnetId":2,"status":"online","lastSeen":"2025-06-16T19:32:34.355Z","openPorts":["135","139","445"],"assignmentType":"static","createdAt":"2025-06-16T19:13:11.012Z","updatedAt":"2025-06-16T19:32:34.355Z"},{"id":67,"ipAddress":"10.63.20.129","hostname":null,"macAddress":null,"vendor":null,"deviceType":null,"purpose":null,"location":null,"subnetId":2,"status":"online","lastSeen":"2025-06-16T19:32:34.356Z","openPorts":["80","443"],"assignmentType":"static","createdAt":"2025-06-16T19:13:11.014Z","updatedAt":"2025-06-16T19:32:34.356Z"},{"id":68,"ipAddress":"10.63.20.130","hostname":null,"macAddress":null,"vendor":null,"deviceType":null,"purpose":null,"location":null,"subnetId":2,"status":"online","lastSeen":"2025-06-16T19:32:34.358Z","openPorts":["80","443"],"assignmentType":"static","createdAt":"2025-06-16T19:13:11.015Z","updatedAt":"2025-06-16T19:32:34.358Z"},{"id":69,"ipAddress":"10.63.20.131","hostname":null,"macAddress":null,"vendor":null,"deviceType":null,"purpose":null,"location":null,"subnetId":2,"status":"online","lastSeen":"2025-06-16T19:32:34.359Z","openPorts":["22"],"assignmentType":"static","createdAt":"2025-06-16T19:13:11.017Z","updatedAt":"2025-06-16T19:32:34.359Z"},{"id":37,"ipAddress":"10.63.20.14","hostname":null,"macAddress":null,"vendor":null,"deviceType":null,"purpose":null,"location":null,"subnetId":2,"status":"online","lastSeen":"2025-06-16T19:32:34.304Z","openPorts":["80"],"assignmentType":"static","createdAt":"2025-06-16T19:13:10.962Z","updatedAt":"2025-06-16T19:32:34.304Z"},{"id":70,"ipAddress":"10.63.20.140","hostname":null,"macAddress":null,"vendor":null,"deviceType":null,"purpose":null,"location":null,"subnetId":2,"status":"online","lastSeen":"2025-06-16T19:32:34.361Z","openPorts":[],"assignmentType":"static","createdAt":"2025-06-16T19:13:11.019Z","updatedAt":"2025-06-16T19:32:34.361Z"},{"id":71,"ipAddress":"10.63.20.141","hostname":null,"macAddress":null,"vendor":null,"deviceType":null,"purpose":null,"location":null,"subnetId":2,"status":"online","lastSeen":"2025-06-16T19:32:34.362Z","openPorts":[],"assignmentType":"static","createdAt":"2025-06-16T19:13:11.021Z","updatedAt":"2025-06-16T19:32:34.362Z"},{"id":38,"ipAddress":"10.63.20.15","hostname":null,"macAddress":null,"vendor":null,"deviceType":null,"purpose":null,"location":null,"subnetId":2,"status":"online","lastSeen":"2025-06-16T19:32:34.305Z","openPorts":["135","139","445"],"assignmentType":"static","createdAt":"2025-06-16T19:13:10.964Z","updatedAt":"2025-06-16T19:32:34.305Z"},{"id":72,"ipAddress":"10.63.20.151","hostname":null,"macAddress":null,"vendor":null,"deviceType":null,"purpose":null,"location":null,"subnetId":2,"status":"online","lastSeen":"2025-06-16T19:32:34.364Z","openPorts":["22","80"],"assignmentType":"static","createdAt":"2025-06-16T19:13:11.022Z","updatedAt":"2025-06-16T19:32:34.364Z"},{"id":73,"ipAddress":"10.63.20.154","hostname":null,"macAddress":null,"vendor":null,"deviceType":null,"purpose":null,"location":null,"subnetId":2,"status":"online","lastSeen":"2025-06-16T19:32:34.365Z","openPorts":["22","80"],"assignmentType":"static","createdAt":"2025-06-16T19:13:11.024Z","updatedAt":"2025-06-16T19:32:34.365Z"},{"id":74,"ipAddress":"10.63.20.156","hostname":null,"macAddress":null,"vendor":null,"deviceType":null,"purpose":null,"location":null,"subnetId":2,"status":"online","lastSeen":"2025-06-16T19:32:34.367Z","openPorts":["80"],"assignmentType":"static","createdAt":"2025-06-16T19:13:11.025Z","updatedAt":"2025-06-16T19:32:34.367Z"},{"id":75,"ipAddress":"10.63.20.158","hostname":null,"macAddress":null,"vendor":null,"deviceType":null,"purpose":null,"location":null,"subnetId":2,"status":"online","lastSeen":"2025-06-16T19:32:34.368Z","openPorts":["22","80"],"assignmentType":"static","createdAt":"2025-06-16T19:13:11.027Z","updatedAt":"2025-06-16T19:32:34.368Z"},{"id":76,"ipAddress":"10.63.20.159","hostname":null,"macAddress":null,"vendor":null,"deviceType":null,"purpose":null,"location":null,"subnetId":2,"status":"online","lastSeen":"2025-06-16T19:32:34.370Z","openPorts":["22","80"],"assignmentType":"static","createdAt":"2025-06-16T19:13:11.028Z","updatedAt":"2025-06-16T19:32:34.370Z"},{"id":39,"ipAddress":"10.63.20.16","hostname":null,"macAddress":null,"vendor":null,"deviceType":null,"purpose":null,"location":null,"subnetId":2,"status":"online","lastSeen":"2025-06-16T19:32:34.308Z","openPorts":["22"],"assignmentType":"static","createdAt":"2025-06-16T19:13:10.966Z","updatedAt":"2025-06-16T19:32:34.308Z"},{"id":77,"ipAddress":"10.63.20.160","hostname":null,"macAddress":null,"vendor":null,"deviceType":null,"purpose":null,"location":null,"subnetId":2,"status":"online","lastSeen":"2025-06-16T19:32:34.372Z","openPorts":["22","80"],"assignmentType":"static","createdAt":"2025-06-16T19:13:11.030Z","updatedAt":"2025-06-16T19:32:34.372Z"},{"id":78,"ipAddress":"10.63.20.161","hostname":null,"macAddress":null,"vendor":null,"deviceType":null,"purpose":null,"location":null,"subnetId":2,"status":"online","lastSeen":"2025-06-16T19:32:34.373Z","openPorts":["22","80"],"assignmentType":"static","createdAt":"2025-06-16T19:13:11.031Z","updatedAt":"2025-06-16T19:32:34.373Z"},{"id":79,"ipAddress":"10.63.20.162","hostname":null,"macAddress":null,"vendor":null,"deviceType":null,"purpose":null,"location":null,"subnetId":2,"status":"online","lastSeen":"2025-06-16T19:32:34.375Z","openPorts":["22","80"],"assignmentType":"static","createdAt":"2025-06-16T19:13:11.033Z","updatedAt":"2025-06-16T19:32:34.375Z"},{"id":80,"ipAddress":"10.63.20.163","hostname":null,"macAddress":null,"vendor":null,"deviceType":null,"purpose":null,"location":null,"subnetId":2,"status":"online","lastSeen":"2025-06-16T19:32:34.376Z","openPorts":["22","80"],"assignmentType":"static","createdAt":"2025-06-16T19:13:11.035Z","updatedAt":"2025-06-16T19:32:34.376Z"},{"id":81,"ipAddress":"10.63.20.164","hostname":null,"macAddress":null,"vendor":null,"deviceType":null,"purpose":null,"location":null,"subnetId":2,"status":"online","lastSeen":"2025-06-16T19:32:34.378Z","openPorts":["22","80"],"assignmentType":"static","createdAt":"2025-06-16T19:13:11.036Z","updatedAt":"2025-06-16T19:32:34.378Z"},{"id":82,"ipAddress":"10.63.20.165","hostname":null,"macAddress":null,"vendor":null,"deviceType":null,"purpose":null,"location":null,"subnetId":2,"status":"online","lastSeen":"2025-06-16T19:32:34.379Z","openPorts":["22","80"],"assignmentType":"static","createdAt":"2025-06-16T19:13:11.038Z","updatedAt":"2025-06-16T19:32:34.379Z"},{"id":83,"ipAddress":"10.63.20.166","hostname":null,"macAddress":null,"vendor":null,"deviceType":null,"purpose":null,"location":null,"subnetId":2,"status":"online","lastSeen":"2025-06-16T19:32:34.381Z","openPorts":["22","80"],"assignmentType":"static","createdAt":"2025-06-16T19:13:11.039Z","updatedAt":"2025-06-16T19:32:34.381Z"},{"id":84,"ipAddress":"10.63.20.167","hostname":null,"macAddress":null,"vendor":null,"deviceType":null,"purpose":null,"location":null,"subnetId":2,"status":"online","lastSeen":"2025-06-16T19:32:34.383Z","openPorts":["22","80"],"assignmentType":"static","createdAt":"2025-06-16T19:13:11.041Z","updatedAt":"2025-06-16T19:32:34.383Z"},{"id":85,"ipAddress":"10.63.20.168","hostname":null,"macAddress":null,"vendor":null,"deviceType":null,"purpose":null,"location":null,"subnetId":2,"status":"online","lastSeen":"2025-06-16T19:32:34.385Z","openPorts":["22","80"],"assignmentType":"static","createdAt":"2025-06-16T19:13:11.043Z","updatedAt":"2025-06-16T19:32:34.385Z"},{"id":86,"ipAddress":"10.63.20.169","hostname":null,"macAddress":null,"vendor":null,"deviceType":null,"purpose":null,"location":null,"subnetId":2,"status":"online","lastSeen":"2025-06-16T19:32:34.386Z","openPorts":["22","80"],"assignmentType":"static","createdAt":"2025-06-16T19:13:11.044Z","updatedAt":"2025-06-16T19:32:34.386Z"},{"id":40,"ipAddress":"10.63.20.17","hostname":null,"macAddress":null,"vendor":null,"deviceType":null,"purpose":null,"location":null,"subnetId":2,"status":"online","lastSeen":"2025-06-16T19:32:34.310Z","openPorts":["135","139","445"],"assignmentType":"static","createdAt":"2025-06-16T19:13:10.968Z","updatedAt":"2025-06-16T19:32:34.310Z"},{"id":87,"ipAddress":"10.63.20.170","hostname":null,"macAddress":null,"vendor":null,"deviceType":null,"purpose":null,"location":null,"subnetId":2,"status":"online","lastSeen":"2025-06-16T19:32:34.388Z","openPorts":[],"assignmentType":"static","createdAt":"2025-06-16T19:13:11.046Z","updatedAt":"2025-06-16T19:32:34.388Z"},{"id":88,"ipAddress":"10.63.20.171","hostname":null,"macAddress":null,"vendor":null,"deviceType":null,"purpose":null,"location":null,"subnetId":2,"status":"online","lastSeen":"2025-06-16T19:32:34.390Z","openPorts":[],"assignmentType":"static","createdAt":"2025-06-16T19:13:11.048Z","updatedAt":"2025-06-16T19:32:34.390Z"},{"id":89,"ipAddress":"10.63.20.172","hostname":null,"macAddress":null,"vendor":null,"deviceType":null,"purpose":null,"location":null,"subnetId":2,"status":"online","lastSeen":"2025-06-16T19:32:34.391Z","openPorts":[],"assignmentType":"static","createdAt":"2025-06-16T19:13:11.049Z","updatedAt":"2025-06-16T19:32:34.391Z"},{"id":90,"ipAddress":"10.63.20.173","hostname":null,"macAddress":null,"vendor":null,"deviceType":null,"purpose":null,"location":null,"subnetId":2,"status":"online","lastSeen":"2025-06-16T19:32:34.393Z","openPorts":[],"assignmentType":"static","createdAt":"2025-06-16T19:13:11.051Z","updatedAt":"2025-06-16T19:32:34.393Z"},{"id":91,"ipAddress":"10.63.20.174","hostname":null,"macAddress":null,"vendor":null,"deviceType":null,"purpose":null,"location":null,"subnetId":2,"status":"online","lastSeen":"2025-06-16T19:32:34.394Z","openPorts":[],"assignmentType":"static","createdAt":"2025-06-16T19:13:11.052Z","updatedAt":"2025-06-16T19:32:34.394Z"},{"id":92,"ipAddress":"10.63.20.175","hostname":null,"macAddress":null,"vendor":null,"deviceType":null,"purpose":null,"location":null,"subnetId":2,"status":"online","lastSeen":"2025-06-16T19:32:34.396Z","openPorts":[],"assignmentType":"static","createdAt":"2025-06-16T19:13:11.054Z","updatedAt":"2025-06-16T19:32:34.396Z"},{"id":93,"ipAddress":"10.63.20.176","hostname":null,"macAddress":null,"vendor":null,"deviceType":null,"purpose":null,"location":null,"subnetId":2,"status":"online","lastSeen":"2025-06-16T19:32:34.397Z","openPorts":[],"assignmentType":"static","createdAt":"2025-06-16T19:13:11.055Z","updatedAt":"2025-06-16T19:32:34.397Z"},{"id":94,"ipAddress":"10.63.20.177","hostname":null,"macAddress":null,"vendor":null,"deviceType":null,"purpose":null,"location":null,"subnetId":2,"status":"online","lastSeen":"2025-06-16T19:32:34.399Z","openPorts":[],"assignmentType":"static","createdAt":"2025-06-16T19:13:11.057Z","updatedAt":"2025-06-16T19:32:34.399Z"},{"id":95,"ipAddress":"10.63.20.178","hostname":null,"macAddress":null,"vendor":null,"deviceType":null,"purpose":null,"location":null,"subnetId":2,"status":"online","lastSeen":"2025-06-16T19:32:34.400Z","openPorts":[],"assignmentType":"static","createdAt":"2025-06-16T19:13:11.058Z","updatedAt":"2025-06-16T19:32:34.400Z"},{"id":96,"ipAddress":"10.63.20.179","hostname":null,"macAddress":null,"vendor":null,"deviceType":null,"purpose":null,"location":null,"subnetId":2,"status":"online","lastSeen":"2025-06-16T19:32:34.402Z","openPorts":[],"assignmentType":"static","createdAt":"2025-06-16T19:13:11.060Z","updatedAt":"2025-06-16T19:32:34.402Z"},{"id":41,"ipAddress":"10.63.20.18","hostname":null,"macAddress":null,"vendor":null,"deviceType":null,"purpose":null,"location":null,"subnetId":2,"status":"online","lastSeen":"2025-06-16T19:32:34.311Z","openPorts":["22"],"assignmentType":"static","createdAt":"2025-06-16T19:13:10.970Z","updatedAt":"2025-06-16T19:32:34.311Z"},{"id":97,"ipAddress":"10.63.20.180","hostname":null,"macAddress":null,"vendor":null,"deviceType":null,"purpose":null,"location":null,"subnetId":2,"status":"online","lastSeen":"2025-06-16T19:32:34.403Z","openPorts":[],"assignmentType":"static","createdAt":"2025-06-16T19:13:11.061Z","updatedAt":"2025-06-16T19:32:34.403Z"},{"id":98,"ipAddress":"10.63.20.181","hostname":null,"macAddress":null,"vendor":null,"deviceType":null,"purpose":null,"location":null,"subnetId":2,"status":"online","lastSeen":"2025-06-16T19:32:34.404Z","openPorts":[],"assignmentType":"static","createdAt":"2025-06-16T19:13:11.063Z","updatedAt":"2025-06-16T19:32:34.404Z"},{"id":99,"ipAddress":"10.63.20.182","hostname":null,"macAddress":null,"vendor":null,"deviceType":null,"purpose":null,"location":null,"subnetId":2,"status":"online","lastSeen":"2025-06-16T19:32:34.406Z","openPorts":["22","80"],"assignmentType":"static","createdAt":"2025-06-16T19:13:11.064Z","updatedAt":"2025-06-16T19:32:34.406Z"}],"total":122,"page":1,"limit":50,"totalPages":3}obtv-admin@eng-control1:~$