obtv-admin@eng-control1:~/ipam-system$ curl -s http://localhost:5000/api/vlans
curl -s http://localhost:5000/api/subnets
[{"id":1,"vlanId":320,"name":"test","description":"test","cableColor":""}][{"id":2,"network":"10.63.20.0/24","gateway":"10.63.20.1","description":"","vlanId":1},{"id":1,"network":"10.63.21.0/24","gateway":"10.63.20.1",curl -s http://localhost:5000/api/devices | jq '.'l1:~/ipam-system$ curl -s http://localhost:5000/api/devices | jq '.'
{
  "data": [
    {
      "id": 32,
      "ipAddress": "10.63.20.1",
      "hostname": null,
      "macAddress": null,
      "vendor": null,
      "deviceType": null,
      "purpose": null,
      "location": null,
      "subnetId": 2,
      "status": "online",
      "lastSeen": "2025-06-16T18:35:12.755Z",
      "openPorts": [
        "22",
        "80",
        "443"
      ],
      "assignmentType": "static",
      "createdAt": "2025-06-14T22:06:50.016Z",
      "updatedAt": "2025-06-16T18:35:12.755Z"
    },
    {
      "id": 35,
      "ipAddress": "10.63.20.10",
      "hostname": null,
      "macAddress": null,
      "vendor": null,
      "deviceType": null,
      "purpose": null,
      "location": null,
      "subnetId": 2,
      "status": "online",
      "lastSeen": "2025-06-16T18:35:12.761Z",
      "openPorts": [
        "80"
      ],
      "assignmentType": "static",
      "createdAt": "2025-06-14T22:06:50.025Z",
      "updatedAt": "2025-06-16T18:35:12.761Z"
    },
    {
      "id": 60,
      "ipAddress": "10.63.20.101",
      "hostname": null,
      "macAddress": null,
      "vendor": null,
      "deviceType": null,
      "purpose": null,
      "location": null,
      "subnetId": 2,
      "status": "online",
      "lastSeen": "2025-06-16T18:35:12.802Z",
      "openPorts": [
        "22",
        "80",
        "139",
        "443",
        "445"
      ],
      "assignmentType": "static",
      "createdAt": "2025-06-14T22:06:50.065Z",
      "updatedAt": "2025-06-16T18:35:12.802Z"
    },
    {
      "id": 61,
      "ipAddress": "10.63.20.102",
      "hostname": null,
      "macAddress": null,
      "vendor": null,
      "deviceType": null,
      "purpose": null,
      "location": null,
      "subnetId": 2,
      "status": "online",
      "lastSeen": "2025-06-16T18:35:12.804Z",
      "openPorts": [
        "135",
        "139",
        "445"
      ],
      "assignmentType": "static",
      "createdAt": "2025-06-14T22:06:50.067Z",
      "updatedAt": "2025-06-16T18:35:12.804Z"
    },
    {
      "id": 62,
      "ipAddress": "10.63.20.103",
      "hostname": null,
      "macAddress": null,
      "vendor": null,
      "deviceType": null,
      "purpose": null,
      "location": null,
      "subnetId": 2,
      "status": "online",
      "lastSeen": "2025-06-16T18:35:12.806Z",
      "openPorts": [],
      "assignmentType": "static",
      "createdAt": "2025-06-14T22:06:50.069Z",
      "updatedAt": "2025-06-16T18:35:12.806Z"
    },
    {
      "id": 63,
      "ipAddress": "10.63.20.105",
      "hostname": null,
      "macAddress": null,
      "vendor": null,
      "deviceType": null,
      "purpose": null,
      "location": null,
      "subnetId": 2,
      "status": "online",
      "lastSeen": "2025-06-16T18:35:12.807Z",
      "openPorts": [
        "22",
        "23",
        "80",
        "443"
      ],
      "assignmentType": "static",
      "createdAt": "2025-06-14T22:06:50.070Z",
      "updatedAt": "2025-06-16T18:35:12.807Z"
    },
    {
      "id": 36,
      "ipAddress": "10.63.20.11",
      "hostname": null,
      "macAddress": null,
      "vendor": null,
      "deviceType": null,
      "purpose": null,
      "location": null,
      "subnetId": 2,
      "status": "online",
      "lastSeen": "2025-06-16T18:35:12.763Z",
      "openPorts": [
        "80"
      ],
      "assignmentType": "static",
      "createdAt": "2025-06-14T22:06:50.026Z",
      "updatedAt": "2025-06-16T18:35:12.763Z"
    },
    {
      "id": 64,
      "ipAddress": "10.63.20.110",
      "hostname": null,
      "macAddress": null,
      "vendor": null,
      "deviceType": null,
      "purpose": null,
      "location": null,
      "subnetId": 2,
      "status": "online",
      "lastSeen": "2025-06-16T18:35:12.809Z",
      "openPorts": [
        "22",
        "80",
        "139",
        "443",
        "445"
      ],
      "assignmentType": "static",
      "createdAt": "2025-06-14T22:06:50.072Z",
      "updatedAt": "2025-06-16T18:35:12.809Z"
    },
    {
      "id": 65,
      "ipAddress": "10.63.20.115",
      "hostname": null,
      "macAddress": null,
      "vendor": null,
      "deviceType": null,
      "purpose": null,
      "location": null,
      "subnetId": 2,
      "status": "online",
      "lastSeen": "2025-06-16T18:35:12.810Z",
      "openPorts": [],
      "assignmentType": "static",
      "createdAt": "2025-06-14T22:06:50.073Z",
      "updatedAt": "2025-06-16T18:35:12.810Z"
    },
    {
      "id": 66,
      "ipAddress": "10.63.20.116",
      "hostname": null,
      "macAddress": null,
      "vendor": null,
      "deviceType": null,
      "purpose": null,
      "location": null,
      "subnetId": 2,
      "status": "online",
      "lastSeen": "2025-06-16T18:35:12.811Z",
      "openPorts": [],
      "assignmentType": "static",
      "createdAt": "2025-06-14T22:06:50.075Z",
      "updatedAt": "2025-06-16T18:35:12.811Z"
    },
    {
      "id": 37,
      "ipAddress": "10.63.20.12",
      "hostname": null,
      "macAddress": null,
      "vendor": null,
      "deviceType": null,
      "purpose": null,
      "location": null,
      "subnetId": 2,
      "status": "online",
      "lastSeen": "2025-06-16T18:35:12.765Z",
      "openPorts": [
        "80"
      ],
      "assignmentType": "static",
      "createdAt": "2025-06-14T22:06:50.028Z",
      "updatedAt": "2025-06-16T18:35:12.765Z"
    },
    {
      "id": 67,
      "ipAddress": "10.63.20.122",
      "hostname": null,
      "macAddress": null,
      "vendor": null,
      "deviceType": null,
      "purpose": null,
      "location": null,
      "subnetId": 2,
      "status": "online",
      "lastSeen": "2025-06-16T18:35:12.813Z",
      "openPorts": [
        "135",
        "139",
        "445"
      ],
      "assignmentType": "static",
      "createdAt": "2025-06-14T22:06:50.076Z",
      "updatedAt": "2025-06-16T18:35:12.813Z"
    },
    {
      "id": 68,
      "ipAddress": "10.63.20.129",
      "hostname": null,
      "macAddress": null,
      "vendor": null,
      "deviceType": null,
      "purpose": null,
      "location": null,
      "subnetId": 2,
      "status": "online",
      "lastSeen": "2025-06-16T18:35:12.815Z",
      "openPorts": [
        "80",
        "443"
      ],
      "assignmentType": "static",
      "createdAt": "2025-06-14T22:06:50.078Z",
      "updatedAt": "2025-06-16T18:35:12.815Z"
    },
    {
      "id": 69,
      "ipAddress": "10.63.20.130",
      "hostname": null,
      "macAddress": null,
      "vendor": null,
      "deviceType": null,
      "purpose": null,
      "location": null,
      "subnetId": 2,
      "status": "online",
      "lastSeen": "2025-06-16T18:35:12.816Z",
      "openPorts": [
        "80",
        "443"
      ],
      "assignmentType": "static",
      "createdAt": "2025-06-14T22:06:50.080Z",
      "updatedAt": "2025-06-16T18:35:12.816Z"
    },
    {
      "id": 70,
      "ipAddress": "10.63.20.131",
      "hostname": null,
      "macAddress": null,
      "vendor": null,
      "deviceType": null,
      "purpose": null,
      "location": null,
      "subnetId": 2,
      "status": "online",
      "lastSeen": "2025-06-16T18:35:12.818Z",
      "openPorts": [
        "22"
      ],
      "assignmentType": "static",
      "createdAt": "2025-06-14T22:06:50.081Z",
      "updatedAt": "2025-06-16T18:35:12.818Z"
    },
    {
      "id": 38,
      "ipAddress": "10.63.20.14",
      "hostname": null,
      "macAddress": null,
      "vendor": null,
      "deviceType": null,
      "purpose": null,
      "location": null,
      "subnetId": 2,
      "status": "online",
      "lastSeen": "2025-06-16T18:35:12.767Z",
      "openPorts": [
        "80"
      ],
      "assignmentType": "static",
      "createdAt": "2025-06-14T22:06:50.030Z",
      "updatedAt": "2025-06-16T18:35:12.767Z"
    },
    {
      "id": 71,
      "ipAddress": "10.63.20.140",
      "hostname": null,
      "macAddress": null,
      "vendor": null,
      "deviceType": null,
      "purpose": null,
      "location": null,
      "subnetId": 2,
      "status": "online",
      "lastSeen": "2025-06-16T18:35:12.819Z",
      "openPorts": [],
      "assignmentType": "static",
      "createdAt": "2025-06-14T22:06:50.083Z",
      "updatedAt": "2025-06-16T18:35:12.819Z"
    },
    {
      "id": 72,
      "ipAddress": "10.63.20.141",
      "hostname": null,
      "macAddress": null,
      "vendor": null,
      "deviceType": null,
      "purpose": null,
      "location": null,
      "subnetId": 2,
      "status": "online",
      "lastSeen": "2025-06-16T18:35:12.821Z",
      "openPorts": [],
      "assignmentType": "static",
      "createdAt": "2025-06-14T22:06:50.084Z",
      "updatedAt": "2025-06-16T18:35:12.821Z"
    },
    {
      "id": 39,
      "ipAddress": "10.63.20.15",
      "hostname": null,
      "macAddress": null,
      "vendor": null,
      "deviceType": null,
      "purpose": null,
      "location": null,
      "subnetId": 2,
      "status": "online",
      "lastSeen": "2025-06-16T18:35:12.768Z",
      "openPorts": [
        "135",
        "139",
        "445"
      ],
      "assignmentType": "static",
      "createdAt": "2025-06-14T22:06:50.031Z",
      "updatedAt": "2025-06-16T18:35:12.768Z"
    },
    {
      "id": 73,
      "ipAddress": "10.63.20.151",
      "hostname": null,
      "macAddress": null,
      "vendor": null,
      "deviceType": null,
      "purpose": null,
      "location": null,
      "subnetId": 2,
      "status": "online",
      "lastSeen": "2025-06-16T18:35:12.822Z",
      "openPorts": [
        "22",
        "80"
      ],
      "assignmentType": "static",
      "createdAt": "2025-06-14T22:06:50.086Z",
      "updatedAt": "2025-06-16T18:35:12.822Z"
    },
    {
      "id": 74,
      "ipAddress": "10.63.20.154",
      "hostname": null,
      "macAddress": null,
      "vendor": null,
      "deviceType": null,
      "purpose": null,
      "location": null,
      "subnetId": 2,
      "status": "online",
      "lastSeen": "2025-06-16T18:35:12.824Z",
      "openPorts": [
        "22",
        "80"
      ],
      "assignmentType": "static",
      "createdAt": "2025-06-14T22:06:50.088Z",
      "updatedAt": "2025-06-16T18:35:12.824Z"
    },
    {
      "id": 75,
      "ipAddress": "10.63.20.156",
      "hostname": null,
      "macAddress": null,
      "vendor": null,
      "deviceType": null,
      "purpose": null,
      "location": null,
      "subnetId": 2,
      "status": "online",
      "lastSeen": "2025-06-16T18:35:12.826Z",
      "openPorts": [
        "80"
      ],
      "assignmentType": "static",
      "createdAt": "2025-06-14T22:06:50.089Z",
      "updatedAt": "2025-06-16T18:35:12.826Z"
    },
    {
      "id": 76,
      "ipAddress": "10.63.20.158",
      "hostname": null,
      "macAddress": null,
      "vendor": null,
      "deviceType": null,
      "purpose": null,
      "location": null,
      "subnetId": 2,
      "status": "online",
      "lastSeen": "2025-06-16T18:35:12.828Z",
      "openPorts": [
        "22",
        "80"
      ],
      "assignmentType": "static",
      "createdAt": "2025-06-14T22:06:50.091Z",
      "updatedAt": "2025-06-16T18:35:12.828Z"
    },
    {
      "id": 77,
      "ipAddress": "10.63.20.159",
      "hostname": null,
      "macAddress": null,
      "vendor": null,
      "deviceType": null,
      "purpose": null,
      "location": null,
      "subnetId": 2,
      "status": "online",
      "lastSeen": "2025-06-16T18:35:12.830Z",
      "openPorts": [
        "22",
        "80"
      ],
      "assignmentType": "static",
      "createdAt": "2025-06-14T22:06:50.092Z",
      "updatedAt": "2025-06-16T18:35:12.830Z"
    },
    {
      "id": 40,
      "ipAddress": "10.63.20.16",
      "hostname": null,
      "macAddress": null,
      "vendor": null,
      "deviceType": null,
      "purpose": null,
      "location": null,
      "subnetId": 2,
      "status": "online",
      "lastSeen": "2025-06-16T18:35:12.770Z",
      "openPorts": [
        "22"
      ],
      "assignmentType": "static",
      "createdAt": "2025-06-14T22:06:50.033Z",
      "updatedAt": "2025-06-16T18:35:12.770Z"
    },
    {
      "id": 78,
      "ipAddress": "10.63.20.160",
      "hostname": null,
      "macAddress": null,
      "vendor": null,
      "deviceType": null,
      "purpose": null,
      "location": null,
      "subnetId": 2,
      "status": "online",
      "lastSeen": "2025-06-16T18:35:12.831Z",
      "openPorts": [
        "22",
        "80"
      ],
      "assignmentType": "static",
      "createdAt": "2025-06-14T22:06:50.095Z",
      "updatedAt": "2025-06-16T18:35:12.831Z"
    },
    {
      "id": 79,
      "ipAddress": "10.63.20.161",
      "hostname": null,
      "macAddress": null,
      "vendor": null,
      "deviceType": null,
      "purpose": null,
      "location": null,
      "subnetId": 2,
      "status": "online",
      "lastSeen": "2025-06-16T18:35:12.832Z",
      "openPorts": [
        "22",
        "80"
      ],
      "assignmentType": "static",
      "createdAt": "2025-06-14T22:06:50.097Z",
      "updatedAt": "2025-06-16T18:35:12.832Z"
    },
    {
      "id": 80,
      "ipAddress": "10.63.20.162",
      "hostname": null,
      "macAddress": null,
      "vendor": null,
      "deviceType": null,
      "purpose": null,
      "location": null,
      "subnetId": 2,
      "status": "online",
      "lastSeen": "2025-06-16T18:35:12.834Z",
      "openPorts": [
        "22",
        "80"
      ],
      "assignmentType": "static",
      "createdAt": "2025-06-14T22:06:50.099Z",
      "updatedAt": "2025-06-16T18:35:12.834Z"
    },
    {
      "id": 81,
      "ipAddress": "10.63.20.163",
      "hostname": null,
      "macAddress": null,
      "vendor": null,
      "deviceType": null,
      "purpose": null,
      "location": null,
      "subnetId": 2,
      "status": "online",
      "lastSeen": "2025-06-16T18:35:12.835Z",
      "openPorts": [
        "22",
        "80"
      ],
      "assignmentType": "static",
      "createdAt": "2025-06-14T22:06:50.101Z",
      "updatedAt": "2025-06-16T18:35:12.835Z"
    },
    {
      "id": 82,
      "ipAddress": "10.63.20.164",
      "hostname": null,
      "macAddress": null,
      "vendor": null,
      "deviceType": null,
      "purpose": null,
      "location": null,
      "subnetId": 2,
      "status": "online",
      "lastSeen": "2025-06-16T18:35:12.836Z",
      "openPorts": [
        "22",
        "80"
      ],
      "assignmentType": "static",
      "createdAt": "2025-06-14T22:06:50.102Z",
      "updatedAt": "2025-06-16T18:35:12.836Z"
    },
    {
      "id": 83,
      "ipAddress": "10.63.20.165",
      "hostname": null,
      "macAddress": null,
      "vendor": null,
      "deviceType": null,
      "purpose": null,
      "location": null,
      "subnetId": 2,
      "status": "online",
      "lastSeen": "2025-06-16T18:35:12.838Z",
      "openPorts": [
        "22",
        "80"
      ],
      "assignmentType": "static",
      "createdAt": "2025-06-14T22:06:50.104Z",
      "updatedAt": "2025-06-16T18:35:12.838Z"
    },
    {
      "id": 84,
      "ipAddress": "10.63.20.166",
      "hostname": null,
      "macAddress": null,
      "vendor": null,
      "deviceType": null,
      "purpose": null,
      "location": null,
      "subnetId": 2,
      "status": "online",
      "lastSeen": "2025-06-16T18:35:12.839Z",
      "openPorts": [
        "22",
        "80"
      ],
      "assignmentType": "static",
      "createdAt": "2025-06-14T22:06:50.106Z",
      "updatedAt": "2025-06-16T18:35:12.839Z"
    },
    {
      "id": 85,
      "ipAddress": "10.63.20.167",
      "hostname": null,
      "macAddress": null,
      "vendor": null,
      "deviceType": null,
      "purpose": null,
      "location": null,
      "subnetId": 2,
      "status": "online",
      "lastSeen": "2025-06-16T18:35:12.841Z",
      "openPorts": [
        "22",
        "80"
      ],
      "assignmentType": "static",
      "createdAt": "2025-06-14T22:06:50.107Z",
      "updatedAt": "2025-06-16T18:35:12.841Z"
    },
    {
      "id": 86,
      "ipAddress": "10.63.20.168",
      "hostname": null,
      "macAddress": null,
      "vendor": null,
      "deviceType": null,
      "purpose": null,
      "location": null,
      "subnetId": 2,
      "status": "online",
      "lastSeen": "2025-06-16T18:35:12.842Z",
      "openPorts": [
        "22",
        "80"
      ],
      "assignmentType": "static",
      "createdAt": "2025-06-14T22:06:50.109Z",
      "updatedAt": "2025-06-16T18:35:12.842Z"
    },
    {
      "id": 87,
      "ipAddress": "10.63.20.169",
      "hostname": null,
      "macAddress": null,
      "vendor": null,
      "deviceType": null,
      "purpose": null,
      "location": null,
      "subnetId": 2,
      "status": "online",
      "lastSeen": "2025-06-16T18:35:12.843Z",
      "openPorts": [
        "22",
        "80"
      ],
      "assignmentType": "static",
      "createdAt": "2025-06-14T22:06:50.111Z",
      "updatedAt": "2025-06-16T18:35:12.843Z"
    },
    {
      "id": 41,
      "ipAddress": "10.63.20.17",
      "hostname": null,
      "macAddress": null,
      "vendor": null,
      "deviceType": null,
      "purpose": null,
      "location": null,
      "subnetId": 2,
      "status": "online",
      "lastSeen": "2025-06-16T18:35:12.771Z",
      "openPorts": [
        "135",
        "139",
        "445"
      ],
      "assignmentType": "static",
      "createdAt": "2025-06-14T22:06:50.034Z",
      "updatedAt": "2025-06-16T18:35:12.771Z"
    },
    {
      "id": 88,
      "ipAddress": "10.63.20.170",
      "hostname": null,
      "macAddress": null,
      "vendor": null,
      "deviceType": null,
      "purpose": null,
      "location": null,
      "subnetId": 2,
      "status": "online",
      "lastSeen": "2025-06-16T18:35:12.845Z",
      "openPorts": [],
      "assignmentType": "static",
      "createdAt": "2025-06-14T22:06:50.113Z",
      "updatedAt": "2025-06-16T18:35:12.845Z"
    },
    {
      "id": 89,
      "ipAddress": "10.63.20.171",
      "hostname": null,
      "macAddress": null,
      "vendor": null,
      "deviceType": null,
      "purpose": null,
      "location": null,
      "subnetId": 2,
      "status": "online",
      "lastSeen": "2025-06-16T18:35:12.846Z",
      "openPorts": [],
      "assignmentType": "static",
      "createdAt": "2025-06-14T22:06:50.115Z",
      "updatedAt": "2025-06-16T18:35:12.846Z"
    },
    {
      "id": 90,
      "ipAddress": "10.63.20.172",
      "hostname": null,
      "macAddress": null,
      "vendor": null,
      "deviceType": null,
      "purpose": null,
      "location": null,
      "subnetId": 2,
      "status": "online",
      "lastSeen": "2025-06-16T18:35:12.848Z",
      "openPorts": [],
      "assignmentType": "static",
      "createdAt": "2025-06-14T22:06:50.117Z",
      "updatedAt": "2025-06-16T18:35:12.848Z"
    },
    {
      "id": 91,
      "ipAddress": "10.63.20.173",
      "hostname": null,
      "macAddress": null,
      "vendor": null,
      "deviceType": null,
      "purpose": null,
      "location": null,
      "subnetId": 2,
      "status": "online",
      "lastSeen": "2025-06-16T18:35:12.849Z",
      "openPorts": [],
      "assignmentType": "static",
      "createdAt": "2025-06-14T22:06:50.120Z",
      "updatedAt": "2025-06-16T18:35:12.849Z"
    },
    {
      "id": 92,
      "ipAddress": "10.63.20.174",
      "hostname": null,
      "macAddress": null,
      "vendor": null,
      "deviceType": null,
      "purpose": null,
      "location": null,
      "subnetId": 2,
      "status": "online",
      "lastSeen": "2025-06-16T18:35:12.851Z",
      "openPorts": [],
      "assignmentType": "static",
      "createdAt": "2025-06-14T22:06:50.122Z",
      "updatedAt": "2025-06-16T18:35:12.851Z"
    },
    {
      "id": 93,
      "ipAddress": "10.63.20.175",
      "hostname": null,
      "macAddress": null,
      "vendor": null,
      "deviceType": null,
      "purpose": null,
      "location": null,
      "subnetId": 2,
      "status": "online",
      "lastSeen": "2025-06-16T18:35:12.852Z",
      "openPorts": [],
      "assignmentType": "static",
      "createdAt": "2025-06-14T22:06:50.124Z",
      "updatedAt": "2025-06-16T18:35:12.852Z"
    },
    {
      "id": 94,
      "ipAddress": "10.63.20.176",
      "hostname": null,
      "macAddress": null,
      "vendor": null,
      "deviceType": null,
      "purpose": null,
      "location": null,
      "subnetId": 2,
      "status": "online",
      "lastSeen": "2025-06-16T18:35:12.854Z",
      "openPorts": [],
      "assignmentType": "static",
      "createdAt": "2025-06-14T22:06:50.125Z",
      "updatedAt": "2025-06-16T18:35:12.854Z"
    },
    {
      "id": 95,
      "ipAddress": "10.63.20.177",
      "hostname": null,
      "macAddress": null,
      "vendor": null,
      "deviceType": null,
      "purpose": null,
      "location": null,
      "subnetId": 2,
      "status": "online",
      "lastSeen": "2025-06-16T18:35:12.855Z",
      "openPorts": [],
      "assignmentType": "static",
      "createdAt": "2025-06-14T22:06:50.127Z",
      "updatedAt": "2025-06-16T18:35:12.855Z"
    },
    {
      "id": 96,
      "ipAddress": "10.63.20.178",
      "hostname": null,
      "macAddress": null,
      "vendor": null,
      "deviceType": null,
      "purpose": null,
      "location": null,
      "subnetId": 2,
      "status": "online",
      "lastSeen": "2025-06-16T18:35:12.856Z",
      "openPorts": [],
      "assignmentType": "static",
      "createdAt": "2025-06-14T22:06:50.128Z",
      "updatedAt": "2025-06-16T18:35:12.856Z"
    },
    {
      "id": 97,
      "ipAddress": "10.63.20.179",
      "hostname": null,
      "macAddress": null,
      "vendor": null,
      "deviceType": null,
      "purpose": null,
      "location": null,
      "subnetId": 2,
      "status": "online",
      "lastSeen": "2025-06-16T18:35:12.858Z",
      "openPorts": [],
      "assignmentType": "static",
      "createdAt": "2025-06-14T22:06:50.130Z",
      "updatedAt": "2025-06-16T18:35:12.858Z"
    },
    {
      "id": 42,
      "ipAddress": "10.63.20.18",
      "hostname": null,
      "macAddress": null,
      "vendor": null,
      "deviceType": null,
      "purpose": null,
      "location": null,
      "subnetId": 2,
      "status": "online",
      "lastSeen": "2025-06-16T18:35:12.773Z",
      "openPorts": [
        "22"
      ],
      "assignmentType": "static",
      "createdAt": "2025-06-14T22:06:50.036Z",
      "updatedAt": "2025-06-16T18:35:12.773Z"
    },
    {
      "id": 98,
      "ipAddress": "10.63.20.180",
      "hostname": null,
      "macAddress": null,
      "vendor": null,
      "deviceType": null,
      "purpose": null,
      "location": null,
      "subnetId": 2,
      "status": "online",
      "lastSeen": "2025-06-16T18:35:12.859Z",
      "openPorts": [],
      "assignmentType": "static",
      "createdAt": "2025-06-14T22:06:50.131Z",
      "updatedAt": "2025-06-16T18:35:12.859Z"
    },
    {
      "id": 99,
      "ipAddress": "10.63.20.181",
      "hostname": null,
      "macAddress": null,
      "vendor": null,
      "deviceType": null,
      "purpose": null,
      "location": null,
      "subnetId": 2,
      "status": "online",
      "lastSeen": "2025-06-16T18:35:12.861Z",
      "openPorts": [],
      "assignmentType": "static",
      "createdAt": "2025-06-14T22:06:50.133Z",
      "updatedAt": "2025-06-16T18:35:12.861Z"
    },
    {
      "id": 100,
      "ipAddress": "10.63.20.182",
      "hostname": null,
      "macAddress": null,
      "vendor": null,
      "deviceType": null,
      "purpose": null,
      "location": null,
      "subnetId": 2,
      "status": "online",
      "lastSeen": "2025-06-16T18:35:12.862Z",
      "openPorts": [
        "22",
        "80"
      ],
      "assignmentType": "static",
      "createdAt": "2025-06-14T22:06:50.134Z",
      "updatedAt": "2025-06-16T18:35:12.862Z"
    }
  ],
  "total": 123,
  "page": 1,
  "limit": 50,
  "totalPages": 3
}
obtv-admin@eng-control1:~/ipam-system$